{
  "name": "+2 Ammunition Special Abilities",
  "flags": {},
  "description": "",
  "results": [
    {
      "_id": "4nWmpmciQE2z4YKN",
      "flags": {},
      "type": 0,
      "text": "Anarchic",
      "weight": 10,
      "range": [1, 10],
      "drawn": false
    },
    {
      "_id": "Rpoyo2yDQ1b45Szi",
      "flags": {},
      "type": 0,
      "text": "Axiomatic",
      "weight": 10,
      "range": [11, 20],
      "drawn": false
    },
    {
      "_id": "2WVf383ixzTl5CgK",
      "flags": {},
      "type": 0,
      "text": "Corrosive Burst",
      "weight": 10,
      "range": [21, 30],
      "drawn": false
    },
    {
      "_id": "Nh7ExQw4OxeTjpCD",
      "flags": {},
      "type": 0,
      "text": "Designating, Lesser",
      "weight": 3,
      "range": [31, 33],
      "drawn": false
    },
    {
      "_id": "7TmQ4CrH1v68rt9g",
      "flags": {},
      "type": 0,
      "text": "Flaming Burst",
      "weight": 12,
      "range": [34, 45],
      "drawn": false
    },
    {
      "_id": "fphMO0TUv6inaHu8",
      "flags": {},
      "type": 0,
      "text": "Holy",
      "weight": 10,
      "range": [46, 55],
      "drawn": false
    },
    {
      "_id": "6jcrfbQiYflVMJ0i",
      "flags": {},
      "type": 0,
      "text": "Icy Burst",
      "weight": 12,
      "range": [56, 67],
      "drawn": false
    },
    {
      "_id": "ymqCttGN8sxV9UtX",
      "flags": {},
      "type": 0,
      "text": "Igniting",
      "weight": 3,
      "range": [68, 70],
      "drawn": false
    },
    {
      "_id": "T5vjXDodAARVx4Ta",
      "flags": {},
      "type": 0,
      "text": "Phase locking",
      "weight": 10,
      "range": [71, 80],
      "drawn": false
    },
    {
      "_id": "2Dp9sndC0ygeLiwU",
      "flags": {},
      "type": 0,
      "text": "Shocking Burst",
      "weight": 10,
      "range": [81, 90],
      "drawn": false
    },
    {
      "_id": "bf7DP97c9cYoVg8r",
      "flags": {},
      "type": 0,
      "text": "Unholy",
      "weight": 10,
      "range": [91, 100],
      "drawn": false
    }
  ],
  "formula": "1d100",
  "replacement": true,
  "displayRoll": true,
  "_id": "lkywV5vZLD28Vcf1"
}
