{
  "name": "Common Level 6 Divine Scrolls",
  "flags": {},
  "description": "",
  "results": [
    {
      "_id": "0vhzlryz2GWFTmQB",
      "flags": {},
      "type": 0,
      "text": "Scroll of Bear's Endurance, Mass",
      "img": "icons/svg/d20-black.svg",
      "resultId": "",
      "weight": 5,
      "range": [1, 5],
      "drawn": false
    },
    {
      "_id": "0Gqp56ecauRRS9L2",
      "flags": {},
      "type": 0,
      "text": "Scroll of Blade Barrier",
      "img": "icons/svg/d20-black.svg",
      "resultId": "",
      "weight": 6,
      "range": [6, 11],
      "drawn": false
    },
    {
      "_id": "0OzUrCdZpGACkzCk",
      "flags": {},
      "type": 0,
      "text": "Scroll of Bull's Strength, Mass",
      "img": "icons/svg/d20-black.svg",
      "resultId": "",
      "weight": 5,
      "range": [12, 16],
      "drawn": false
    },
    {
      "_id": "Lo8NzaLxY2eszv3m",
      "flags": {},
      "type": 0,
      "text": "Scroll of Cat's Grace, Mass",
      "img": "icons/svg/d20-black.svg",
      "resultId": "",
      "weight": 5,
      "range": [17, 21],
      "drawn": false
    },
    {
      "_id": "rLoKLgelVakcE4bl",
      "flags": {},
      "type": 0,
      "text": "Scroll of Cure Moderate Wounds, Mass",
      "img": "icons/svg/d20-black.svg",
      "resultId": "",
      "weight": 6,
      "range": [22, 27],
      "drawn": false
    },
    {
      "_id": "GNWUNeZzCg86zv3r",
      "flags": {},
      "type": 0,
      "text": "Scroll of Dispel Magic, Greater",
      "img": "icons/svg/d20-black.svg",
      "resultId": "",
      "weight": 5,
      "range": [28, 32],
      "drawn": false
    },
    {
      "_id": "beVmrvkRw8AHURtj",
      "flags": {},
      "type": 0,
      "text": "Scroll of Eagle's Splendor, Mass",
      "img": "icons/svg/d20-black.svg",
      "resultId": "",
      "weight": 5,
      "range": [33, 37],
      "drawn": false
    },
    {
      "_id": "gwc55LOWXb2BexzN",
      "flags": {},
      "type": 0,
      "text": "Scroll of Find the Path",
      "img": "icons/svg/d20-black.svg",
      "resultId": "",
      "weight": 6,
      "range": [38, 43],
      "drawn": false
    },
    {
      "_id": "YtJo9k6V3EfP2ooY",
      "flags": {},
      "type": 0,
      "text": "Scroll of Fire Seeds",
      "img": "icons/svg/d20-black.svg",
      "resultId": "",
      "weight": 4,
      "range": [44, 47],
      "drawn": false
    },
    {
      "_id": "sj8XujhmwAPPAP9k",
      "flags": {},
      "type": 0,
      "text": "Scroll of Harm",
      "img": "icons/svg/d20-black.svg",
      "resultId": "",
      "weight": 8,
      "range": [48, 55],
      "drawn": false
    },
    {
      "_id": "tjVL2CXXoxucC6oW",
      "flags": {},
      "type": 0,
      "text": "Scroll of Heal",
      "img": "icons/svg/d20-black.svg",
      "resultId": "",
      "weight": 8,
      "range": [56, 63],
      "drawn": false
    },
    {
      "_id": "p2H0lQBC6pYzXoDI",
      "flags": {},
      "type": 0,
      "text": "Scroll of Heroes’ Feast",
      "img": "icons/svg/d20-black.svg",
      "resultId": "",
      "weight": 6,
      "range": [64, 69],
      "drawn": false
    },
    {
      "_id": "H60KbQn7rQAT5ply",
      "flags": {},
      "type": 0,
      "text": "Scroll of Inflict Moderate Wounds, Mass",
      "img": "icons/svg/d20-black.svg",
      "resultId": "",
      "weight": 5,
      "range": [70, 74],
      "drawn": false
    },
    {
      "_id": "xFtatvlDSUfRrBND",
      "flags": {},
      "type": 0,
      "text": "Scroll of Liveoak",
      "img": "icons/svg/d20-black.svg",
      "resultId": "",
      "weight": 4,
      "range": [75, 78],
      "drawn": false
    },
    {
      "_id": "rkN7lNghL7Kk1gqo",
      "flags": {},
      "type": 0,
      "text": "Scroll of Owl's Wisdom, Mass",
      "img": "icons/svg/d20-black.svg",
      "resultId": "",
      "weight": 5,
      "range": [79, 83],
      "drawn": false
    },
    {
      "_id": "qAuTiDTJT43kyRTc",
      "flags": {},
      "type": 0,
      "text": "Scroll of Summon Monster VI",
      "img": "icons/svg/d20-black.svg",
      "resultId": "",
      "weight": 4,
      "range": [84, 87],
      "drawn": false
    },
    {
      "_id": "7ZzrZf7b1d0p3li8",
      "flags": {},
      "type": 0,
      "text": "Scroll of Summon Nature's Ally VI",
      "img": "icons/svg/d20-black.svg",
      "resultId": "",
      "weight": 4,
      "range": [88, 91],
      "drawn": false
    },
    {
      "_id": "ySzRtWZqglgI9Hba",
      "flags": {},
      "type": 0,
      "text": "Scroll of Word of Recall",
      "img": "icons/svg/d20-black.svg",
      "resultId": "",
      "weight": 5,
      "range": [92, 96],
      "drawn": false
    },
    {
      "_id": "EaVEisREfWdyLcJZ",
      "flags": {},
      "type": 0,
      "text": "Scroll of Planar Ally",
      "img": "icons/svg/d20-black.svg",
      "resultId": "",
      "weight": 4,
      "range": [97, 100],
      "drawn": false
    }
  ],
  "formula": "1d100",
  "replacement": true,
  "displayRoll": true,
  "_id": "zsWLHWfWBY4Shqpg"
}
