{
  "name": "Common Level 3 Potions and Oils",
  "flags": {},
  "description": "",
  "results": [
    {
      "_id": "muOUuFgBMQk1dmPb",
      "flags": {},
      "type": 0,
      "text": "Potion of Cure Serious Wounds",
      "img": "icons/svg/d20-black.svg",
      "resultId": "",
      "weight": 6,
      "range": [1, 6],
      "drawn": false
    },
    {
      "_id": "SrZ5QTtmpGqVfWWB",
      "flags": {},
      "type": 0,
      "text": "Potion of Dispel Magic",
      "img": "icons/svg/d20-black.svg",
      "resultId": "",
      "weight": 4,
      "range": [7, 10],
      "drawn": false
    },
    {
      "_id": "1a7bQFZUhyfYWM2C",
      "flags": {},
      "type": 0,
      "text": "Potion of Displacement",
      "img": "icons/svg/d20-black.svg",
      "resultId": "",
      "weight": 4,
      "range": [11, 14],
      "drawn": false
    },
    {
      "_id": "6udpUlJ4a2TUKAgf",
      "flags": {},
      "type": 0,
      "text": "Potion of Fly",
      "img": "icons/svg/d20-black.svg",
      "resultId": "",
      "weight": 6,
      "range": [15, 20],
      "drawn": false
    },
    {
      "_id": "h05fzCQht7j3gv67",
      "flags": {},
      "type": 0,
      "text": "Potion of Gaseous Form",
      "img": "icons/svg/d20-black.svg",
      "resultId": "",
      "weight": 5,
      "range": [21, 25],
      "drawn": false
    },
    {
      "_id": "H64qKzlO3cb4ShCt",
      "flags": {},
      "type": 0,
      "text": "Potion of Good Hope",
      "img": "icons/svg/d20-black.svg",
      "resultId": "",
      "weight": 4,
      "range": [26, 29],
      "drawn": false
    },
    {
      "_id": "vxwDoA9THuQx78Iu",
      "flags": {},
      "type": 0,
      "text": "Potion of Haste",
      "img": "icons/svg/d20-black.svg",
      "resultId": "",
      "weight": 6,
      "range": [30, 35],
      "drawn": false
    },
    {
      "_id": "rCNdz3jcZxYCkKdN",
      "flags": {},
      "type": 0,
      "text": "Potion of Heroism",
      "img": "icons/svg/d20-black.svg",
      "resultId": "",
      "weight": 5,
      "range": [36, 40],
      "drawn": false
    },
    {
      "_id": "z6FRrLFNbzNAUnjI",
      "flags": {},
      "type": 0,
      "text": "Potion of Keen Edge",
      "img": "icons/svg/d20-black.svg",
      "resultId": "",
      "weight": 4,
      "range": [41, 44],
      "drawn": false
    },
    {
      "_id": "RMgsfozmpN1vOAT9",
      "flags": {},
      "type": 0,
      "text": "Potion of Magic Fang, Greater",
      "img": "icons/svg/d20-black.svg",
      "resultId": "",
      "weight": 4,
      "range": [45, 48],
      "drawn": false
    },
    {
      "_id": "G1su5noKWhlZTiaz",
      "flags": {},
      "type": 0,
      "text": "Potion of Magic Vestment",
      "img": "icons/svg/d20-black.svg",
      "resultId": "",
      "weight": 4,
      "range": [49, 52],
      "drawn": false
    },
    {
      "_id": "dHxzPsEHRrdUXCVv",
      "flags": {},
      "type": 0,
      "text": "Potion of Neutralize Poison",
      "img": "icons/svg/d20-black.svg",
      "resultId": "",
      "weight": 5,
      "range": [53, 57],
      "drawn": false
    },
    {
      "_id": "QdcFzrVuuQ61MLKd",
      "flags": {},
      "type": 0,
      "text": "Potion of Protection From Energy, Acid",
      "img": "icons/svg/d20-black.svg",
      "resultId": "",
      "weight": 3,
      "range": [58, 60],
      "drawn": false
    },
    {
      "_id": "o0t5F1IQvtXWcdyg",
      "flags": {},
      "type": 0,
      "text": "Potion of Protection From Energy, Cold",
      "img": "icons/svg/d20-black.svg",
      "resultId": "",
      "weight": 3,
      "range": [61, 63],
      "drawn": false
    },
    {
      "_id": "qmnPmhQMf19xrstm",
      "flags": {},
      "type": 0,
      "text": "Potion of Protection From Energy, Electricity",
      "img": "icons/svg/d20-black.svg",
      "resultId": "",
      "weight": 3,
      "range": [64, 66],
      "drawn": false
    },
    {
      "_id": "0uWC8CpgZrksN0Ys",
      "flags": {},
      "type": 0,
      "text": "Potion of Protection From Energy, Fire",
      "img": "icons/svg/d20-black.svg",
      "resultId": "",
      "weight": 3,
      "range": [67, 69],
      "drawn": false
    },
    {
      "_id": "VwEwEhixRXxO275W",
      "flags": {},
      "type": 0,
      "text": "Potion of Protection From Energy, Sonic",
      "img": "icons/svg/d20-black.svg",
      "resultId": "",
      "weight": 2,
      "range": [70, 71],
      "drawn": false
    },
    {
      "_id": "5NPEDkDFZhA4bxCU",
      "flags": {},
      "type": 0,
      "text": "Potion of Rage",
      "img": "icons/svg/d20-black.svg",
      "resultId": "",
      "weight": 3,
      "range": [72, 74],
      "drawn": false
    },
    {
      "_id": "7DaXpUjfcNjsIxb8",
      "flags": {},
      "type": 0,
      "text": "Potion of Remove Blindness/Deafness",
      "img": "icons/svg/d20-black.svg",
      "resultId": "",
      "weight": 3,
      "range": [75, 77],
      "drawn": false
    },
    {
      "_id": "gK7iqd76uoaWz7u4",
      "flags": {},
      "type": 0,
      "text": "Potion of Remove Curse",
      "img": "icons/svg/d20-black.svg",
      "resultId": "",
      "weight": 4,
      "range": [78, 81],
      "drawn": false
    },
    {
      "_id": "GOFdUuK0DQhBqs8G",
      "flags": {},
      "type": 0,
      "text": "Potion of Remove Disease",
      "img": "icons/svg/d20-black.svg",
      "resultId": "",
      "weight": 5,
      "range": [82, 86],
      "drawn": false
    },
    {
      "_id": "p7BlAscAV6kjFh0m",
      "flags": {},
      "type": 0,
      "text": "Potion of Tongues",
      "img": "icons/svg/d20-black.svg",
      "resultId": "",
      "weight": 5,
      "range": [87, 91],
      "drawn": false
    },
    {
      "_id": "NVxBpWz6UPSZZHX7",
      "flags": {},
      "type": 0,
      "text": "Potion of Water Breathing",
      "img": "icons/svg/d20-black.svg",
      "resultId": "",
      "weight": 5,
      "range": [92, 96],
      "drawn": false
    },
    {
      "_id": "DlcgMoqA4yMIIETw",
      "flags": {},
      "type": 0,
      "text": "Potion of Water Walk",
      "img": "icons/svg/d20-black.svg",
      "resultId": "",
      "weight": 4,
      "range": [97, 100],
      "drawn": false
    }
  ],
  "formula": "1d203",
  "replacement": true,
  "displayRoll": true,
  "_id": "PsQiiIpx8B3PHcOf"
}
