{
  "name": "Greater Medium Belt",
  "flags": {},
  "description": "",
  "results": [
    {
      "_id": "bpUBKFy3HpmNvkM2",
      "flags": {},
      "type": 0,
      "text": "Monkey Belt, Greater",
      "weight": 12,
      "range": [1, 12],
      "drawn": false
    },
    {
      "_id": "kzpBWPkRiwOt9kMH",
      "flags": {},
      "type": 0,
      "text": "Anaconda's Coils",
      "weight": 14,
      "range": [13, 26],
      "drawn": false
    },
    {
      "_id": "REnkuSJFaNY45FpP",
      "flags": {},
      "type": 0,
      "text": "Serpent Belt, Greater",
      "weight": 12,
      "range": [27, 38],
      "drawn": false
    },
    {
      "_id": "XCowrORw5sMn6dwS",
      "flags": {},
      "type": 0,
      "text": "Belt of Fallen Heroes",
      "weight": 15,
      "range": [39, 53],
      "drawn": false
    },
    {
      "_id": "14zBNfyVmgSuo4yJ",
      "flags": {},
      "type": 0,
      "text": "Gorgon Belt",
      "weight": 14,
      "range": [54, 67],
      "drawn": false
    },
    {
      "_id": "xhq3Fkv2nl3AIK4W",
      "flags": {},
      "type": 0,
      "text": "Elemental Earth Belt",
      "weight": 17,
      "range": [68, 84],
      "drawn": false
    },
    {
      "_id": "xSeITHGfDKvs6cd9",
      "flags": {},
      "type": 0,
      "text": "Sash of Flowing Water",
      "weight": 16,
      "range": [85, 100],
      "drawn": false
    }
  ],
  "formula": "1d100",
  "replacement": true,
  "displayRoll": true,
  "_id": "L8ljyr7e3776Cndn"
}
