{
  "name": "Lesser Minor Wrists",
  "flags": {},
  "description": "",
  "results": [
    {
      "_id": "g3GekFOZFUPZuJc4",
      "flags": {},
      "type": 0,
      "text": "\tSleeves of Many Garments",
      "weight": 10,
      "range": [1, 10],
      "drawn": false
    },
    {
      "_id": "WqGClBNmuxMWD9O0",
      "flags": {},
      "type": 0,
      "text": "\tArmbands of the Brawler",
      "weight": 10,
      "range": [11, 20],
      "drawn": false
    },
    {
      "_id": "A5pc6tVdJRPdmhfg",
      "flags": {},
      "type": 0,
      "text": "\tBracers of Armor +1",
      "weight": 28,
      "range": [21, 48],
      "drawn": false
    },
    {
      "_id": "bQo0Jb5FLCSBZ8at",
      "flags": {},
      "type": 0,
      "text": "\tBurglar's Bracers",
      "weight": 15,
      "range": [49, 63],
      "drawn": false
    },
    {
      "_id": "xA3ofHWcRy9Jywph",
      "flags": {},
      "type": 0,
      "text": "\tBracers of Steadiness",
      "weight": 28,
      "range": [64, 91],
      "drawn": false
    },
    {
      "_id": "CVpXT4eD7e3U6uyk",
      "flags": {},
      "type": 0,
      "text": "\tManacles of Cooperation",
      "weight": 5,
      "range": [92, 96],
      "drawn": false
    },
    {
      "_id": "7lrqNdcIj0MAcJlT",
      "flags": {},
      "type": 0,
      "text": "\tShackles of Compliance",
      "weight": 4,
      "range": [97, 100],
      "drawn": false
    }
  ],
  "formula": "1d100",
  "replacement": true,
  "displayRoll": true,
  "_id": "ei8SMUzDblJDh5qO"
}
