{
  "name": "Lesser Medium Body",
  "flags": {},
  "description": "",
  "results": [
    {
      "_id": "n6ISxkGGU8VjQy3v",
      "flags": {},
      "type": 0,
      "text": "Robe of Blending",
      "weight": 15,
      "range": [1, 15],
      "drawn": false
    },
    {
      "_id": "TQoaXmz7buJLGjwa",
      "flags": {},
      "type": 0,
      "text": "Blazing Robes",
      "weight": 11,
      "range": [16, 26],
      "drawn": false
    },
    {
      "_id": "bWXXInghSzbn9fbq",
      "flags": {},
      "type": 0,
      "text": "Shocking Robe",
      "weight": 11,
      "range": [27, 37],
      "drawn": false
    },
    {
      "_id": "GSUXP9e9pP0Pv4Cb",
      "flags": {},
      "type": 0,
      "text": "Voidfrost Robes",
      "weight": 11,
      "range": [38, 48],
      "drawn": false
    },
    {
      "_id": "kI3DJE9BigpOEZ8i",
      "flags": {},
      "type": 0,
      "text": "Bodywrap of Mighty Strikes +2",
      "weight": 11,
      "range": [49, 59],
      "drawn": false
    },
    {
      "_id": "1UVs6N7SWaTBAcwr",
      "flags": {},
      "type": 0,
      "text": "Monk's Robe",
      "weight": 16,
      "range": [60, 75],
      "drawn": false
    },
    {
      "_id": "6Fq3BjUhTU2TraGb",
      "flags": {},
      "type": 0,
      "text": "Robe of Arcane Heritage",
      "weight": 25,
      "range": [76, 100],
      "drawn": false
    }
  ],
  "formula": "1d100",
  "replacement": true,
  "displayRoll": true,
  "_id": "9JP48MynceBpC6qv"
}
