{
  "name": "Lesser Major Belt",
  "flags": {},
  "description": "",
  "results": [
    {
      "_id": "pCk4HihSRkYtmx3R",
      "flags": {},
      "type": 0,
      "text": "Merform Belt",
      "weight": 12,
      "range": [1, 12],
      "drawn": false
    },
    {
      "_id": "RMwaBkyIAqTOCHVF",
      "flags": {},
      "type": 0,
      "text": "Belt of Giant Strength +6",
      "weight": 18,
      "range": [13, 30],
      "drawn": false
    },
    {
      "_id": "lPbsHJI3wx5yuv0g",
      "flags": {},
      "type": 0,
      "text": "\tBelt of Incredible Dexterity +6",
      "weight": 18,
      "range": [31, 48],
      "drawn": false
    },
    {
      "_id": "gyDEEmBfnzNdXRiE",
      "flags": {},
      "type": 0,
      "text": "Belt of Mighty Constitution +6",
      "weight": 18,
      "range": [49, 66],
      "drawn": false
    },
    {
      "_id": "4K1uEA2HjMIczZMY",
      "flags": {},
      "type": 0,
      "text": "Belt of Physical Might +4",
      "weight": 22,
      "range": [67, 88],
      "drawn": false
    },
    {
      "_id": "NmDOJxpmGYVl4DNW",
      "flags": {},
      "type": 0,
      "text": "Belt of Mighty Hurling, Greater",
      "weight": 12,
      "range": [89, 100],
      "drawn": false
    }
  ],
  "formula": "1d100",
  "replacement": true,
  "displayRoll": true,
  "_id": "RdxNHFjg9vhXma5p"
}
