{
  "name": "Lesser Minor Chest",
  "flags": {},
  "description": "",
  "results": [
    {
      "_id": "whCuGnWltF4BQOoi",
      "flags": {},
      "type": 0,
      "text": "Bandages of Rapid Recovery",
      "weight": 15,
      "range": [1, 15],
      "drawn": false
    },
    {
      "_id": "v67jpqAjSQGFc4hK",
      "flags": {},
      "type": 0,
      "text": "Quick Runner's Shirt",
      "weight": 15,
      "range": [16, 30],
      "drawn": false
    },
    {
      "_id": "EHXkNaZDPsfp1EhG",
      "flags": {},
      "type": 0,
      "text": "Endless Bandolier",
      "weight": 20,
      "range": [31, 50],
      "drawn": false
    },
    {
      "_id": "7Ia5663WjMcBLjzE",
      "flags": {},
      "type": 0,
      "text": "All Tools Vest",
      "weight": 25,
      "range": [51, 75],
      "drawn": false
    },
    {
      "_id": "PCdlzznqpiSOOqBm",
      "flags": {},
      "type": 0,
      "text": "Vest of Surgery",
      "weight": 25,
      "range": [76, 100],
      "drawn": false
    }
  ],
  "formula": "1d100",
  "replacement": true,
  "displayRoll": true,
  "_id": "y4QypsUdTk0Htxrm"
}
