{
  "name": "Lesser Medium Feet",
  "flags": {},
  "description": "",
  "results": [
    {
      "_id": "aQxEpiHSPGEdKzo5",
      "flags": {},
      "type": 0,
      "text": "\tBoots of Escape",
      "weight": 8,
      "range": [1, 8],
      "drawn": false
    },
    {
      "_id": "Dv1nm9dA8s7OFwVE",
      "flags": {},
      "type": 0,
      "text": "\tEarth Root Boots",
      "weight": 6,
      "range": [9, 14],
      "drawn": false
    },
    {
      "_id": "dgUXjjkH7Dpgcrly",
      "flags": {},
      "type": 0,
      "text": "\tNightmare Boots",
      "weight": 7,
      "range": [15, 21],
      "drawn": false
    },
    {
      "_id": "JTxLTgvAMWJ9L67H",
      "flags": {},
      "type": 0,
      "text": "\tNightmare Horseshoes",
      "weight": 5,
      "range": [22, 26],
      "drawn": false
    },
    {
      "_id": "M7SZi8v5KSu0FO6k",
      "flags": {},
      "type": 0,
      "text": "\tCaltrop Boots",
      "weight": 6,
      "range": [27, 32],
      "drawn": false
    },
    {
      "_id": "eocjOPCbh3n5uR6A",
      "flags": {},
      "type": 0,
      "text": "\tTremor Boots",
      "weight": 7,
      "range": [33, 39],
      "drawn": false
    },
    {
      "_id": "e7xeyvqqOuZ3iAvZ",
      "flags": {},
      "type": 0,
      "text": "\tBoots of the Mastodon",
      "weight": 8,
      "range": [40, 47],
      "drawn": false
    },
    {
      "_id": "pM4ZpeZS2sx3vt9d",
      "flags": {},
      "type": 0,
      "text": "\tShoes of the Lightning Leaper",
      "weight": 7,
      "range": [48, 54],
      "drawn": false
    },
    {
      "_id": "GSIJrZjSvjDyrTpc",
      "flags": {},
      "type": 0,
      "text": "\tBoots of Speed",
      "weight": 16,
      "range": [55, 70],
      "drawn": false
    },
    {
      "_id": "Ehv4q9cBnBXC7kgx",
      "flags": {},
      "type": 0,
      "text": "\tVerdant Boots",
      "weight": 7,
      "range": [71, 77],
      "drawn": false
    },
    {
      "_id": "cvv8ONLtNFHh7yXj",
      "flags": {},
      "type": 0,
      "text": "\tHorseshoes of Crushing Blows +2",
      "weight": 7,
      "range": [78, 84],
      "drawn": false
    },
    {
      "_id": "OB8SvkQF6ZhA3Y1h",
      "flags": {},
      "type": 0,
      "text": "\tWinged Boots",
      "weight": 16,
      "range": [85, 100],
      "drawn": false
    }
  ],
  "formula": "1d100",
  "replacement": true,
  "displayRoll": true,
  "_id": "H5O2yEua379XhU5t"
}
