{
  "name": "Uncommon Level 0 Arcane Scrolls",
  "flags": {},
  "description": "",
  "results": [
    {
      "_id": "uUZMCjwk0wcUjG8u",
      "flags": {},
      "type": 0,
      "text": "Scroll of Arcane Mark",
      "img": "icons/svg/d20-black.svg",
      "resultId": "",
      "weight": 7,
      "range": [102, 108],
      "drawn": false
    },
    {
      "_id": "nnZXucFBPkI7GGKC",
      "flags": {},
      "type": 0,
      "text": "Scroll of Bleed",
      "img": "icons/svg/d20-black.svg",
      "resultId": "",
      "weight": 10,
      "range": [109, 118],
      "drawn": false
    },
    {
      "_id": "Pe5tXxxikYE2IozE",
      "flags": {},
      "type": 0,
      "text": "Scroll of Dancing Lights",
      "img": "icons/svg/d20-black.svg",
      "resultId": "",
      "weight": 8,
      "range": [119, 126],
      "drawn": false
    },
    {
      "_id": "YN7hNXliYsW7Rhuy",
      "flags": {},
      "type": 0,
      "text": "Scroll of Detect Poison",
      "img": "icons/svg/d20-black.svg",
      "resultId": "",
      "weight": 10,
      "range": [127, 136],
      "drawn": false
    },
    {
      "_id": "RiEyA7lbdrDNpLug",
      "flags": {},
      "type": 0,
      "text": "Scroll of Disrupt Undead",
      "img": "icons/svg/d20-black.svg",
      "resultId": "",
      "weight": 7,
      "range": [137, 143],
      "drawn": false
    },
    {
      "_id": "CQQZelLmSp4tegkf",
      "flags": {},
      "type": 0,
      "text": "Scroll of Ghost Sound",
      "img": "icons/svg/d20-black.svg",
      "resultId": "",
      "weight": 9,
      "range": [144, 152],
      "drawn": false
    },
    {
      "_id": "CF0X89CUnronFiOg",
      "flags": {},
      "type": 0,
      "text": "Scroll of Message",
      "img": "icons/svg/d20-black.svg",
      "resultId": "",
      "weight": 10,
      "range": [153, 162],
      "drawn": false
    },
    {
      "_id": "6WlYWyq6um79iZok",
      "flags": {},
      "type": 0,
      "text": "Scroll of Open/Close",
      "img": "icons/svg/d20-black.svg",
      "resultId": "",
      "weight": 7,
      "range": [163, 169],
      "drawn": false
    },
    {
      "_id": "bd3CQv4ipATjOv7s",
      "flags": {},
      "type": 0,
      "text": "Scroll of Resistance",
      "img": "icons/svg/d20-black.svg",
      "resultId": "",
      "weight": 7,
      "range": [170, 176],
      "drawn": false
    },
    {
      "_id": "eW6WpAz45pKEhbIu",
      "flags": {},
      "type": 0,
      "text": "Scroll of Sift",
      "img": "icons/svg/d20-black.svg",
      "resultId": "",
      "weight": 8,
      "range": [177, 184],
      "drawn": false
    },
    {
      "_id": "kY2gm4pefrfuWRD0",
      "flags": {},
      "type": 0,
      "text": "Scroll of Spark",
      "img": "icons/svg/d20-black.svg",
      "resultId": "",
      "weight": 9,
      "range": [185, 193],
      "drawn": false
    },
    {
      "_id": "wdA4bLscJwbNSRwh",
      "flags": {},
      "type": 0,
      "text": "Scroll of Unwitting Ally",
      "img": "icons/svg/d20-black.svg",
      "resultId": "",
      "weight": 8,
      "range": [194, 201],
      "drawn": false
    }
  ],
  "formula": "1d201",
  "replacement": true,
  "displayRoll": true,
  "_id": "ZUMTli5WP9zgvNDt"
}
