{
  "_id": "unY9jt1B8a5bbnzO",
  "name": "Chainmail",
  "type": "equipment",
  "img": "systems/pf1/icons/items/armor/chain-mail.png",
  "sort": 0,
  "flags": {},
  "system": {
    "description": {
      "value": "<p>Unlike a chain shirt, which covers only the chest, chainmail protects the wearer with a complete mesh of chain links that cover the torso and arms, and extends below the waist. Multiple interconnected pieces offer additional protection over vital areas. The suit includes gauntlets.</p>"
    },
    "tags": [],
    "weight": {
      "value": 40
    },
    "price": 150,
    "hp": {
      "max": 30,
      "value": 30
    },
    "hardness": 10,
    "changes": [],
    "contextNotes": [],
    "actions": [],
    "attackNotes": [],
    "effectNotes": [],
    "links": {
      "children": [],
      "charges": []
    },
    "scriptCalls": [],
    "equipmentSubtype": "mediumArmor",
    "armor": {
      "value": 6,
      "dex": 2,
      "acp": 5
    },
    "spellFailure": 30,
    "slot": "armor"
  }
}
