{
  "_id": "6i0yr19dgO50GygU",
  "name": "Field Plate",
  "type": "equipment",
  "img": "systems/pf1/icons/items/armor/field-plate.png",
  "sort": 0,
  "flags": {},
  "system": {
    "description": {
      "value": "<p><span id=\"ctl00_MainContent_DataListTypes_ctl00_LabelName\" style=\"margin-top: 0px;\">This heavy armor is similar to full plate but lighter in construction, sacrificing a bit of protection for greater flexibility and mobility.</span></p>"
    },
    "tags": [],
    "weight": {
      "value": 50
    },
    "price": 1200,
    "hp": {
      "max": 35,
      "value": 35
    },
    "hardness": 10,
    "changes": [],
    "contextNotes": [],
    "actions": [],
    "attackNotes": [],
    "effectNotes": [],
    "links": {
      "children": [],
      "charges": []
    },
    "scriptCalls": [],
    "equipmentSubtype": "heavyArmor",
    "armor": {
      "value": 7,
      "dex": 1,
      "acp": 5
    },
    "spellFailure": 35,
    "slot": "armor"
  }
}
