{
  "_id": "IGBwcBQf8DBC7CtG",
  "name": "Divine Guardian",
  "type": "feat",
  "img": "systems/pf1/icons/skills/violet_07.jpg",
  "sort": 0,
  "flags": {},
  "system": {
    "description": {
      "value": "<p><strong>Acquired/Inherited Template</strong>&nbsp;Acquired<br><strong>Simple Template</strong>&nbsp;No<br><strong>Usable with Summons&nbsp;</strong>No<br><br>A divine guardian is a creature chosen by the gods to guard a sacred site of the faith. Blessed with eternal life (or damned, some might say), a divine guardian spends untold centuries in the service of its deity, tirelessly and deathlessly defending its charge from any who would seek to desecrate it.<br><br>Typically such a creature is transformed into a form more regal than its mortal one, setting it apart from a typical member of its race or species. A divine guardian is spiritually connected to the one site that it must guard for eternity. As long as a divine guardian remains within that site, it does not hunger, thirst, get sick, or even age. Within the bounds of its sacred site, a divine guardian possesses numerous defensive powers to ward it from intruders, but it can never leave the area or the long years of its service will finally catch up to it. A divine guardian must weigh the power and prestige of its endless responsibility against the freedom death might inevitably bring.<br><br>Most divine guardians are chosen servants who agree to willingly serve their gods for all eternity, but some have been cursed with their duty in response for some harm to the god’s faithful or as atonement for some great sin. Whatever the nature of its creation, a divine guardian is still beholden to the god that granted it its powers, and to the followers of that god as well.<br><br>A cleric or paladin of the deity that created a divine guardian can issue the guardian commands. This does not give the cleric or paladin complete control over the creature, but the guardian does respond favorably to those requests. For example, a cleric could ask it to not attack her companions, or to help her defend the guardian’s sacred site from attackers. A cleric or paladin of the same faith must win an opposed Charisma check to convince a divine guardian to do anything it wouldn’t ordinarily do. A divine guardian can never be ordered to leave its sacred site or to go against the tenets of its deity’s faith.<br><br>The divine guardian hydra presented here is built using a hydra from the&nbsp;Pathfinder RPG Bestiary. See page 178 of the&nbsp;Bestiary&nbsp;for rules on this creature’s hydra traits and regenerate head abilities. This divine guardian hydra is a divine guardian of the god of nature and the weather, thus giving it the air and water subtypes.<br><br>“Divine guardian” is an acquired template that can be added to any creature (referred to hereafter as the base creature). A divine guardian uses all the base creature’s statistics and special abilities except as noted here.<br><br><strong>CR:</strong> Same as the base creature +1.</p>\n<p><strong>Alignment: </strong>Usually, the alignment of a divine guardian matches that of the god who invested it with power. Sometimes, however, a god punishes a wayward worshiper or an enemy of the faith by making it a divine guardian.</p>\n<p><strong>Type: </strong>The creature’s type does not change, but the creature might gain one or more alignment or elemental subtypes, depending on the alignment and portfolio of the deity that granted it the template. Possible subtypes include air, chaotic, cold, earth, evil, fire, good, lawful, and water. For instance, a lawful good deity’s divine guardian would have the lawful and good subtypes, even if it were actually of some other alignment. Similarly, a neutral god of water and ice would grant its divine guardian the water and cold subtypes.</p>\n<p><strong>Senses: </strong>A divine guardian gains darkvision 60 feet and low-light vision.</p>\n<p><strong>Defensive Abilities: </strong>A divine guardian is immune to disease, poison, and all mind-affecting effects. It also gains fast healing 5. In addition, it gains the following defensive ability.</p>\n<p><em>Ability Healing (Ex): </em>A divine guardian heals 1 point of ability damage per round in each damaged ability score.</p>\n<p><strong>Special Attacks: </strong>A divine guardian gains the following.</p>\n<p><strong>Spell-Like Abilities: </strong>A divine guardian has a cumulative number of spell-like abilities depending on its Hit Dice. Unless otherwise noted, these abilities are usable 1/day. CL is equal to the divine guardian’s HD or the CL of the base creature’s spell-like abilities, whichever is higher.</p>\n<hr>\n<table class=\"inner\" style=\"border-color: white; color: #ffffff; font-family: 'Century Gothic', CenturyGothic, AppleGothic, sans-serif; font-size: 15px; background-color: #0f0f0f;\">\n<tbody style=\"margin-top: 0px;\">\n<tr style=\"margin-top: 0px;\">\n<td style=\"margin: 0px; border: 1px solid white; padding: 1px 5px; text-align: center;\"><strong style=\"margin-top: 0px;\">HD</strong></td>\n<td style=\"border: 1px solid white; padding: 1px 5px; margin: 0px; text-align: center;\"><strong style=\"margin-top: 0px;\">Abilities</strong></td>\n</tr>\n<tr style=\"background: #3e3e3e;\">\n<td style=\"margin: 0px; border: 1px solid white; padding: 1px 5px; text-align: center;\">1–2</td>\n<td style=\"border: 1px solid white; padding: 1px 5px; margin: 0px; text-align: center;\"><em style=\"margin-top: 0px;\">Alarm</em>&nbsp;3/day,&nbsp;<em>dimension door&nbsp;</em>at will (within sacred site only),&nbsp;<em>hold portal</em></td>\n</tr>\n<tr>\n<td style=\"margin: 0px; border: 1px solid white; padding: 1px 5px; text-align: center;\">3–4</td>\n<td style=\"border: 1px solid white; padding: 1px 5px; margin: 0px; text-align: center;\"><em style=\"margin-top: 0px;\">Arcane lock</em>,&nbsp;<em>knock&nbsp;</em>3/day</td>\n</tr>\n<tr style=\"background: #3e3e3e;\">\n<td style=\"margin: 0px; border: 1px solid white; padding: 1px 5px; text-align: center;\">5–6</td>\n<td style=\"border: 1px solid white; padding: 1px 5px; margin: 0px; text-align: center;\"><em style=\"margin-top: 0px;\">Augury</em>,&nbsp;<em>clairaudience/clairvoyance</em></td>\n</tr>\n<tr>\n<td style=\"margin: 0px; border: 1px solid white; padding: 1px 5px; text-align: center;\">7–8</td>\n<td style=\"border: 1px solid white; padding: 1px 5px; margin: 0px; text-align: center;\"><em style=\"margin-top: 0px;\">Dismissal</em></td>\n</tr>\n<tr style=\"background: #3e3e3e;\">\n<td style=\"margin: 0px; border: 1px solid white; padding: 1px 5px; text-align: center;\">9–10</td>\n<td style=\"border: 1px solid white; padding: 1px 5px; margin: 0px; text-align: center;\"><em style=\"margin-top: 0px;\">Commune</em></td>\n</tr>\n<tr>\n<td style=\"margin: 0px; border: 1px solid white; padding: 1px 5px; text-align: center;\">11–12</td>\n<td style=\"border: 1px solid white; padding: 1px 5px; margin: 0px; text-align: center;\"><em style=\"margin-top: 0px;\">Guards and wards</em></td>\n</tr>\n<tr style=\"background: #3e3e3e;\">\n<td style=\"margin: 0px; border: 1px solid white; padding: 1px 5px; text-align: center;\">13–14</td>\n<td style=\"border: 1px solid white; padding: 1px 5px; margin: 0px; text-align: center;\"><em style=\"margin-top: 0px;\">Forbiddance</em></td>\n</tr>\n<tr>\n<td style=\"margin: 0px; border: 1px solid white; padding: 1px 5px; text-align: center;\">15–16</td>\n<td style=\"border: 1px solid white; padding: 1px 5px; margin: 0px; text-align: center;\"><em style=\"margin-top: 0px;\">Banishment</em></td>\n</tr>\n<tr style=\"background: #3e3e3e;\">\n<td style=\"margin: 0px; border: 1px solid white; padding: 1px 5px; text-align: center;\">17–18</td>\n<td style=\"border: 1px solid white; padding: 1px 5px; margin: 0px; text-align: center;\"><em style=\"margin-top: 0px;\">Repulsion</em></td>\n</tr>\n<tr>\n<td style=\"margin: 0px; border: 1px solid white; padding: 1px 5px; text-align: center;\">19–20</td>\n<td style=\"border: 1px solid white; padding: 1px 5px; margin: 0px; text-align: center;\"><em style=\"margin-top: 0px;\">Screen</em></td>\n</tr>\n<tr style=\"background: #3e3e3e;\">\n<td style=\"margin: 0px; border: 1px solid white; padding: 1px 5px; text-align: center;\">21+</td>\n<td style=\"border: 1px solid white; padding: 1px 5px; margin: 0px; text-align: center;\"><em style=\"margin-top: 0px;\">Antipathy</em></td>\n</tr>\n</tbody>\n</table>\n<hr>\n<p><br style=\"color: #ffffff; font-family: 'Century Gothic', CenturyGothic, AppleGothic, sans-serif; font-size: 15px; background-color: #0f0f0f;\"><strong>Special Qualities:</strong> A divine guardian gains the following.</p>\n<p><em>Aura (Ex): </em>A divine guardian with the chaotic, evil, good, or lawful subtypes has an aura as if it were an aligned outsider of equivalent Hit Dice (see the detect evil spell for details).</p>\n<p><em>Blessed Life (Ex): </em>A divine guardian does not age or breathe. It does not require food, drink, or sleep.</p>\n<p><em>Divine Swiftness (Ex): </em>A divine guardian is gifted with incredible speed, granting it a +4 bonus on initiative rolls. In addition, each of the base creature’s speeds is doubled. If the base creature has a fly speed, the divine guardian’s maneuverability becomes perfect if it was not already. If the divine guardian acquires the air, earth, or water subtype, it gains a fly, burrow, or swim speed equal to its highest speed.</p>\n<p><em>Sacred Site (Ex): </em>Each divine guardian is assigned to guard a specific site sacred to the deity that invested it with power. This area may be a structure, a series of structures, or a natural site with clearly defined borders. It can be as large as a city, but in most cases it’s a single temple or a sacred grove. Gods don’t waste their powers on places that their worshipers can protect, so most divine guardians keep watch over abandoned burial grounds or lost temples. The divine guardian of such a site is charged with protecting it from harm and preventing incursions by those not of the faith. It must keep its vigil until the god deems the guardian’s task done.<br><br>If the divine guardian ever moves out of the area defined as the sacred site, it immediately loses the divine guardian template and any spellcasting ability the deity might have granted from class levels. It cannot regain the template unless it atones for its failure (usually by completing some quest or via an&nbsp;atonement&nbsp;spell) and reenters the site within 1 week. Otherwise, it loses the template permanently, taking 6d6 points of Constitution drain as the years of lost food, drink, and sleep return to it tenfold. A creature that lacks a Constitution score takes 2d6 points of damage per Hit Die from this process. Even if it survives the Constitution drain, the creature can never regain the template.</p>\n<p><strong>Abilities: </strong>Wis +4, Cha +4. If the base creature has an Intelligence score of 2 or lower, it also gains Int +4.</p>\n<p><strong>Skills: </strong>A divine guardian gains a +5 racial bonus on Perception and Sense Motive checks.</p>\n<p><strong>Organization: </strong>Solitary.</p>"
    },
    "tags": [],
    "actions": [],
    "attackNotes": [],
    "effectNotes": [],
    "changes": [
      {
        "_id": "yk1zk643",
        "formula": "4",
        "operator": "add",
        "subTarget": "wis",
        "modifier": "untyped",
        "priority": 0,
        "value": 0,
        "target": "ability"
      },
      {
        "_id": "8o4lv241",
        "formula": "4",
        "operator": "add",
        "subTarget": "cha",
        "modifier": "untyped",
        "priority": 0,
        "value": 0,
        "target": "ability"
      },
      {
        "_id": "v9mn6iws",
        "formula": "5",
        "operator": "add",
        "subTarget": "skill.per",
        "modifier": "racial",
        "priority": 0,
        "value": 0,
        "target": "skill"
      },
      {
        "_id": "585jzhn9",
        "formula": "5",
        "operator": "add",
        "subTarget": "skill.sen",
        "modifier": "racial",
        "priority": 0,
        "value": 0,
        "target": "skill"
      }
    ],
    "contextNotes": [],
    "links": {
      "children": [],
      "charges": []
    },
    "armorProf": {
      "value": []
    },
    "weaponProf": {
      "value": []
    },
    "languages": {
      "value": []
    },
    "scriptCalls": [],
    "subType": "template",
    "associations": {
      "classes": []
    },
    "crOffset": "1"
  }
}
