{
  "_id": "gaTNMYfwYbFcqtEA",
  "name": "Half-Dragon",
  "type": "feat",
  "img": "systems/pf1/icons/skills/violet_07.jpg",
  "sort": 0,
  "flags": {},
  "system": {
    "description": {
      "value": "<p><strong>Acquired/Inherited Template</strong>&nbsp;Both<br><strong>Simple Template</strong>&nbsp;No<br><strong>Usable with Summons</strong>&nbsp;Yes<br><br>“Half-dragon” is an inherited or acquired template that can be added to any living, corporeal creature (referred to hereafter as the base creature). A half-dragon retains all the base creature's statistics and special abilities except as noted here.<br><br><strong>CR: </strong>Same as the base creature + 2 (minimum 3).<br><br><strong>Type:</strong> Creature type changes to dragon. Do not recalculate HD, BAB, or saves.<br><br><strong>Armor Class: </strong>Nat. armor improves by +4.<br><br><strong>Special Qualities and Defenses:</strong> A half-dragon gains darkvision 60 feet; low-light vision; and immunity to sleep, paralysis, and energy of the same type as its breath weapon.<br><br><strong>Speed: </strong>A half-dragon has wings. Unless the base creature has a better fly speed, the half-dragon can fly at twice the creature's base land speed (average maneuverability).<br><br><strong>Melee:</strong> A half-dragon has two claw attacks and a bite attack. If the base creature can use manufactured weapons, the half-dragon can as well. A new claw or bite attack deals damage as appropriate for the half-dragon's size (see Natural Attacks.)<br><br><strong>Special Abilities:</strong> A half-dragon retains all the special attacks of the base creature and gains a breath weapon usable once per day based on the dragon variety (see below). The breath weapon deals 1d6 hit points of damage per racial HD possessed by the half-dragon (Reflex half; DC 10 + 1/2 creature's racial HD + creature's Con modifier).</p>\n<hr>\n<table class=\"inner\" style=\"border-color: white; color: #ffffff; font-family: 'Century Gothic', CenturyGothic, AppleGothic, sans-serif; font-size: 15px; background-color: #0f0f0f;\">\n<tbody style=\"margin-top: 0px;\">\n<tr style=\"margin-top: 0px;\">\n<td style=\"margin: 0px; border: 1px solid white; padding: 1px 5px; text-align: center;\"><strong style=\"margin-top: 0px;\">Dragon Variety</strong></td>\n<td style=\"border: 1px solid white; padding: 1px 5px; margin: 0px; text-align: center;\"><strong style=\"margin-top: 0px;\">Breath Weapon</strong></td>\n</tr>\n<tr style=\"background: #3e3e3e;\">\n<td style=\"margin: 0px; border: 1px solid white; padding: 1px 5px; text-align: center;\">Black or copper</td>\n<td style=\"border: 1px solid white; padding: 1px 5px; margin: 0px; text-align: center;\">60–foot line of acid</td>\n</tr>\n<tr>\n<td style=\"margin: 0px; border: 1px solid white; padding: 1px 5px; text-align: center;\">Brass</td>\n<td style=\"border: 1px solid white; padding: 1px 5px; margin: 0px; text-align: center;\">60–foot line of fire</td>\n</tr>\n<tr style=\"background: #3e3e3e;\">\n<td style=\"margin: 0px; border: 1px solid white; padding: 1px 5px; text-align: center;\">Blue or bronze</td>\n<td style=\"border: 1px solid white; padding: 1px 5px; margin: 0px; text-align: center;\">60–foot line of electricity</td>\n</tr>\n<tr>\n<td style=\"margin: 0px; border: 1px solid white; padding: 1px 5px; text-align: center;\">Gold or red</td>\n<td style=\"border: 1px solid white; padding: 1px 5px; margin: 0px; text-align: center;\">30–foot cone of fire</td>\n</tr>\n<tr style=\"background: #3e3e3e;\">\n<td style=\"margin: 0px; border: 1px solid white; padding: 1px 5px; text-align: center;\">Green</td>\n<td style=\"border: 1px solid white; padding: 1px 5px; margin: 0px; text-align: center;\">30–foot cone of acid</td>\n</tr>\n<tr>\n<td style=\"margin: 0px; border: 1px solid white; padding: 1px 5px; text-align: center;\">Silver or white</td>\n<td style=\"border: 1px solid white; padding: 1px 5px; margin: 0px; text-align: center;\">30–foot cone of cold</td>\n</tr>\n</tbody>\n</table>\n<hr>\n<p><br style=\"color: #ffffff; font-family: 'Century Gothic', CenturyGothic, AppleGothic, sans-serif; font-size: 15px; background-color: #0f0f0f;\"><strong>Abilities: </strong>Increase from the base creature as follows: Str +8, Con +6, Int +2, Cha +2.<br><br><strong>Skills: </strong>A half-dragon with racial Hit Dice has skill points per racial Hit Die equal to 6 + its Intelligence modifier. Racial class skills are unchanged from the base creature's.</p>"
    },
    "tags": [],
    "actions": [],
    "attackNotes": [],
    "effectNotes": [],
    "changes": [
      {
        "_id": "3zdmu6az",
        "formula": "4",
        "operator": "add",
        "subTarget": "nac",
        "modifier": "untyped",
        "priority": 0,
        "value": 0,
        "target": "ac"
      },
      {
        "_id": "eckx7sqx",
        "formula": "8",
        "operator": "add",
        "subTarget": "str",
        "modifier": "untyped",
        "priority": 0,
        "value": 0,
        "target": "ability"
      },
      {
        "_id": "4t0orxs2",
        "formula": "6",
        "operator": "add",
        "subTarget": "con",
        "modifier": "untyped",
        "priority": 0,
        "value": 0,
        "target": "ability"
      },
      {
        "_id": "4aa9e5uo",
        "formula": "2",
        "operator": "add",
        "subTarget": "int",
        "modifier": "untyped",
        "priority": 0,
        "value": 0,
        "target": "ability"
      },
      {
        "_id": "fw934yx3",
        "formula": "2",
        "operator": "add",
        "subTarget": "cha",
        "modifier": "untyped",
        "priority": 0,
        "value": 0,
        "target": "ability"
      }
    ],
    "contextNotes": [],
    "links": {
      "children": [],
      "charges": []
    },
    "armorProf": {
      "value": []
    },
    "weaponProf": {
      "value": []
    },
    "languages": {
      "value": []
    },
    "scriptCalls": [],
    "subType": "template",
    "associations": {
      "classes": []
    },
    "crOffset": "2"
  }
}
