{
  "_id": "IpQhYuRgQJDACRr9",
  "name": "Lycanthrope",
  "type": "feat",
  "img": "systems/pf1/icons/skills/violet_07.jpg",
  "sort": 0,
  "flags": {},
  "system": {
    "description": {
      "value": "<p><strong>Acquired/Inherited Template</strong>&nbsp;Both<br><strong>Simple Template</strong>&nbsp;No<br><strong>Usable with Summons</strong>&nbsp;No<br><br>Lycanthropes are humanoids with the ability to turn into animals and animal-humanoid hybrid shapes. Natural lycanthropes are born with this ability and have perfect control over their shapechanging. Afflicted lycanthropes contract this ability like a curse or disease from another lycanthrope; they sometimes change form involuntarily.<br><br>“Lycanthrope” is an inherited (for natural lycanthropes) or acquired (for afflicted lycanthropes) template that can be added to any humanoid.<br><br><strong>Challenge Rating:</strong> Same as base creature or base animal (whichever is higher) + 1.<br><br><strong>Size and Type:</strong> The creature (referred to hereafter as the base creature) gains the shapechanger subtype. The lycanthrope takes on the characteristics of some type of animal (referred to hereafter as the base animal) within one size category of the base creature's size. A lycanthrope's hybrid form is the same size as the base animal or the base creature, whichever is larger.<br><br><strong>AC: </strong>In hybrid or animal form the lycanthrope has the natural armor bonus of the base animal increased by +2.<br><br><strong>Defensive Abilities:</strong> A natural lycanthrope gains DR 10/silver in animal or hybrid form. An afflicted lycanthrope gains DR 5/silver in animal or hybrid form.<br><br><strong>Speed:</strong> Same as the base creature or base animal, depending on which form the lycanthrope is using. Hybrids use the base creature's speed.<br><br><strong>Melee:</strong> A lycanthrope gains natural attacks in animal and hybrid forms according to the base animal.<br><br><strong>Special Attacks: </strong>A lycanthrope retains all the special attacks, qualities, and abilities of the base creature. In hybrid or animal form it gains the special attacks, qualities, and abilities of the base animal. A lycanthrope also gains low-light vision, scent, and the following:<br><br><em>Change Shape (Su)</em>&nbsp;All lycanthropes have three forms—a humanoid form, an animal form, and a hybrid form. Equipment does not meld with the new form between humanoid and hybrid form, but does between those forms and animal form. A natural lycanthrope can shift to any of its three alternate forms as a move-equivalent action. An afflicted lycanthrope can assume animal or hybrid form as a full-round action by making a DC 15 Constitution check, or humanoid form as a full-round action by making a DC 20 Constitution check. On nights when the full moon is visible, an afflicted lycanthrope gains a +5 morale bonus to Constitution checks made to assume animal or hybrid form, but a –5 penalty to Constitution checks made to assume humanoid form. An afflicted lycanthrope reverts to its humanoid form automatically with the next sunrise, or after 8 hours of rest, whichever comes first. A slain lycanthrope reverts to its humanoid form, although it remains dead.<br><br><em>Curse of Lycanthropy (Su)</em>&nbsp;A natural lycanthrope's bite attack in animal or hybrid form infects a humanoid target with lycanthropy (Fortitude DC 15 negates). If the victim's size is not within one size category of the lycanthrope, this ability has no effect.<br><br><em>Lycanthropic Empathy (Ex)</em>&nbsp;In any form, natural lycanthropes can communicate and empathize with animals related to their animal form. They can use Diplomacy to alter such an animal's attitude, and when so doing gain a +4 racial bonus on the check. Afflicted lycanthropes only gain this ability in animal or hybrid form.<br><br><strong>Ability Scores:</strong> +2 Wis, –2 Cha in all forms; +2 Str, +2 Con in hybrid and animal forms. Lycanthropes have enhanced senses but are not fully in control of their emotions and animalistic urges. In addition to these adjustments to the base creature's stats, a lycanthrope's ability scores change when he assumes hybrid or animal form. In human form, the lycanthrope's ability scores are unchanged from the base creature's form. In animal and hybrid form, the lycanthrope's ability scores are the same as the base creature's or the base animal's, whichever ability score is higher.</p>"
    },
    "tags": [],
    "actions": [],
    "attackNotes": [],
    "effectNotes": [],
    "changes": [
      {
        "_id": "6owvnqeg",
        "formula": "2",
        "operator": "add",
        "subTarget": "nac",
        "modifier": "untyped",
        "priority": 0,
        "value": 0,
        "target": "ac"
      },
      {
        "_id": "mav3o2iq",
        "formula": "-2",
        "operator": "add",
        "subTarget": "cha",
        "modifier": "untyped",
        "priority": 0,
        "value": 0,
        "target": "ability"
      },
      {
        "_id": "chp6bjy9",
        "formula": "2",
        "operator": "add",
        "subTarget": "wis",
        "modifier": "untyped",
        "priority": 0,
        "value": 0,
        "target": "ability"
      },
      {
        "_id": "55nv5z8m",
        "formula": "2",
        "operator": "add",
        "subTarget": "str",
        "modifier": "untyped",
        "priority": 0,
        "value": 0,
        "target": "ability"
      },
      {
        "_id": "yauebhro",
        "formula": "2",
        "operator": "add",
        "subTarget": "con",
        "modifier": "untyped",
        "priority": 0,
        "value": 0,
        "target": "ability"
      }
    ],
    "contextNotes": [],
    "links": {
      "children": [],
      "charges": []
    },
    "armorProf": {
      "value": []
    },
    "weaponProf": {
      "value": []
    },
    "languages": {
      "value": []
    },
    "scriptCalls": [],
    "subType": "template",
    "associations": {
      "classes": []
    },
    "crOffset": "1"
  }
}
