{
  "_id": "3N4wtjtVH8MFA5aI",
  "name": "Penanggalen",
  "type": "feat",
  "img": "systems/pf1/icons/skills/violet_07.jpg",
  "sort": 0,
  "flags": {},
  "system": {
    "description": {
      "value": "<p><strong>Acquired/Inherited Template</strong>&nbsp;Acquired<br><strong>Simple Template</strong>&nbsp;No<br><strong>Usable with Summons&nbsp;</strong>No<br><br>The hideous penanggalen is one of the most horrific vampiric monstrosities. By day, a penanggalen appears to be a normal humanoid, but at night or when provoked, the creature’s head rips free from the rest of her body, coils of viscera and entrails dangling from her throat as she launches into the air, seeking blood to sate her unholy thirst.<br><br>Unlike most undead, the penanggalen is more akin to the lich in that she willfully abandons both her mortality and morality to become a hideous undead monster. While penanggalens are traditionally female spellcasters, any creature capable of performing the vile ritual of transformation can become one.<br><br>Similar to a lich, a creature works toward becoming a penanggalen. More than one such transformation ritual exists, but all require heinous acts that symbolize the casting aside of kindness, benevolence, and any semblance of feelings other than cruelty. Many of these rituals call for the repeated consumption of blood, bile, tears, and other fluids drawn from captured and tortured innocents.<br><br>A penanggalen keeps a vat of vinegar in her lair. When returning from a night of feeding, a penanggalen’s organs are swollen with blood. In order to fit back into her body, the penanggalen must soak for 1 hour in this vat of vinegar. Once reduced, a penanggalen slides back into her body. If a penanggalen is slain away from her body, the body rapidly deteriorates into foul-smelling grit.<br><br>The penanggalen presented above was a witch in life. The witch class is presented in full in the&nbsp;Advanced Player’s Guide.<br><br>“Penanggalen” is an acquired template that can be added to any living creature with 5 or more Hit Dice (referred to hereafter as the base creature). Most penanggalens were once humanoids or monstrous humanoids and nearly every penanggalen is female. A penanggalen uses the base creature’s stats and abilities except as noted here.<br><br><strong>CR:</strong> Same as base creature +1.</p>\n<p><strong>Alignment: </strong>Any evil.</p>\n<p><strong>Type: </strong>The creature’s type changes to undead (augmented). Do not recalculate class Hit Dice, BAB, or saves.</p>\n<p><strong>Senses: </strong>A penanggalen gains darkvision 60 ft.</p>\n<p><strong>Armor Class: </strong>Natural armor improves by +6.</p>\n<p><strong>Hit Dice: </strong>Change the base creature’s racial HD to d8s. All HD derived from class levels remain unchanged. As undead, a penanggalen uses her Charisma modifier to determine bonus hit points (instead of Constitution).</p>\n<p><strong>Defensive Abilities: </strong>A penanggalen gains channel resistance +4, DR 5/silver and slashing, resistance to cold 10 and fire 10, and all of the defensive abilities granted by the undead type. A penanggalen also gains fast healing 5.</p>\n<p><strong>Weaknesses: </strong>A penanggalen gains light sensitivity. In addition, a penanggalen is staggered while outside of her human body and exposed to direct sunlight.</p>\n<p><strong>Speed: </strong>When a penanggalen is attached to her body, she retains the same base speed as the base creature. When a penanggalen is separated from her body, she has only a fly speed of 60 feet with good maneuverability.</p>\n<p><strong>Melee: </strong>A penanggalen gains a bite attack and a slam attack when she is detached from her body. Damage is standard for attacks of these types for the penanggalen’s size. Both natural attacks are treated as magic for the purpose of overcoming damage reduction.</p>\n<p><strong>Special Attacks: </strong>A penanggalen retains all of the base creature’s special attacks. She also gains the following additional special attacks. Save DCs are equal to 10 + 1/2 the penanggalen’s HD + the penanggalen’s Charisma modifier unless otherwise noted.<br><br><em>Blood Drain (Su): </em>A penanggalen’s blood drain special attack causes 1d4 Constitution damage.</p>\n<p><em>Create Spawn (Su): </em>When a penanggalen slays a female humanoid via blood drain, and if that slain humanoid had at least 10 Hit Dice in life, that slain humanoid rises as a manananggal at the next sunset. This manananggal is under the command of the penanggalen who created it, and remains enslaved until that penanggalen’s destruction. A penanggalen may have enslaved spawn totalling no more than twice its own Hit Dice; any spawn it creates that would exceed this limit become free-willed undead.</p>\n<p><em>Disease (Su): </em>Any creature a penanggalen bites is exposed to filth fever—the save DC against this disease is set by the penanggalen, not the disease itself.</p>\n<p><em>Wither (Su): </em>A penanggalen’s entrails drip with a foul bile that blisters and weakens living flesh. Any creature that is damaged by a penanggalen’s slam attack must succeed at a Fortitude save or take 1d4 Dexterity and 1d4 Charisma damage.<br><br><strong>Ability Scores: </strong>Str +6, Dex +4, Int +2, Wis +2, Cha +4. As an undead creature, a penanggalen has no Constitution score.</p>\n<p><strong>Skills: </strong>A penanggalen gains a +8 racial bonus on Bluff, Fly, Knowledge (arcana), Perception, Sense Motive, and Stealth checks.</p>\n<p><strong>Special Qualities: </strong>A penanggalen gains the following special quality.<br><br><em>Separate (Su): </em>During the day, a penanggalen has the same appearance as she did in life, and does not detect as undead (though she is still an undead creature). At night, she can detach her head and entrails as a full-round action. Her physical but now hollow body exists as dead flesh, but can be destroyed if it suffers damage equal to the penanggalen’s normal hit point total. Before a penanggalen can return to her body, she must soak her entrails in vinegar for 1 hour—she can then reattach to her body, at which point any damage done to the body immediately heals (although damage the penanggalen herself suffered remains). A penanggalen whose body is destroyed can never again walk the day in living form, but is otherwise unharmed (save for no longer having a safe way to travel in direct sunlight). When a penanggalen wears her body, she cannot use her natural attacks, her fly speed, or any of her special penanggalen attacks.</p>"
    },
    "tags": [],
    "actions": [],
    "attackNotes": [],
    "effectNotes": [],
    "changes": [
      {
        "_id": "98nskk8w",
        "formula": "6",
        "operator": "add",
        "subTarget": "nac",
        "modifier": "untyped",
        "priority": 0,
        "value": 0,
        "target": "ac"
      },
      {
        "_id": "sxl5nyik",
        "formula": "6",
        "operator": "add",
        "subTarget": "str",
        "modifier": "untyped",
        "priority": 0,
        "value": 0,
        "target": "ability"
      },
      {
        "_id": "p59632xs",
        "formula": "4",
        "operator": "add",
        "subTarget": "dex",
        "modifier": "untyped",
        "priority": 0,
        "value": 0,
        "target": "ability"
      },
      {
        "_id": "6r836utv",
        "formula": "2",
        "operator": "add",
        "subTarget": "int",
        "modifier": "untyped",
        "priority": 0,
        "value": 0,
        "target": "ability"
      },
      {
        "_id": "t2haj2jw",
        "formula": "2",
        "operator": "add",
        "subTarget": "wis",
        "modifier": "untyped",
        "priority": 0,
        "value": 0,
        "target": "ability"
      },
      {
        "_id": "omry38fu",
        "formula": "4",
        "operator": "add",
        "subTarget": "cha",
        "modifier": "untyped",
        "priority": 0,
        "value": 0,
        "target": "ability"
      },
      {
        "_id": "1iwrjpl5",
        "formula": "8",
        "operator": "add",
        "subTarget": "skill.blf",
        "modifier": "racial",
        "priority": 0,
        "value": 0,
        "target": "skill"
      },
      {
        "_id": "rr2p1uxw",
        "formula": "8",
        "operator": "add",
        "subTarget": "skill.fly",
        "modifier": "racial",
        "priority": 0,
        "value": 0,
        "target": "skill"
      },
      {
        "_id": "8ughhjxo",
        "formula": "8",
        "operator": "add",
        "subTarget": "skill.kar",
        "modifier": "racial",
        "priority": 0,
        "value": 0,
        "target": "skill"
      },
      {
        "_id": "6t7plg4u",
        "formula": "8",
        "operator": "add",
        "subTarget": "skill.per",
        "modifier": "racial",
        "priority": 0,
        "value": 0,
        "target": "skill"
      },
      {
        "_id": "y6ym4nyj",
        "formula": "8",
        "operator": "add",
        "subTarget": "skill.sen",
        "modifier": "racial",
        "priority": 0,
        "value": 0,
        "target": "skill"
      },
      {
        "_id": "cp4q4d79",
        "formula": "8",
        "operator": "add",
        "subTarget": "skill.ste",
        "modifier": "racial",
        "priority": 0,
        "value": 0,
        "target": "skill"
      }
    ],
    "contextNotes": [],
    "links": {
      "children": [],
      "charges": []
    },
    "armorProf": {
      "value": []
    },
    "weaponProf": {
      "value": []
    },
    "languages": {
      "value": []
    },
    "scriptCalls": [],
    "subType": "template",
    "associations": {
      "classes": []
    },
    "crOffset": "1"
  }
}
