{
  "_id": "gPbMkJvP49tgVSqX",
  "name": "Pickin Ogre",
  "type": "feat",
  "img": "systems/pf1/icons/skills/violet_07.jpg",
  "sort": 0,
  "flags": {},
  "system": {
    "description": {
      "value": "<p><strong>Acquired/Inherited Template</strong>&nbsp;Inherited<br><strong>Simple Template&nbsp;</strong>Yes<br><strong>Usable with Summons&nbsp;</strong>No<br><br>Ogres with the thicken template have huge, oversized heads and razor-sharp teeth.<br><br><strong>Quick Rules: </strong>–1 to AC, ranged attack rolls, initiative, and Dexterity-based skills; gains a bite attack (1d8).<br><br><strong>Rebuild Rules:&nbsp;</strong>Ability Scores&nbsp;–2 Dexterity;&nbsp;Attacks&nbsp;gains a bite attack (1d8) .</p>"
    },
    "tags": [],
    "actions": [],
    "attackNotes": [],
    "effectNotes": [],
    "changes": [
      {
        "_id": "dsgduam6",
        "formula": "-2",
        "operator": "add",
        "subTarget": "dex",
        "modifier": "untyped",
        "priority": 0,
        "value": 0,
        "target": "ability"
      }
    ],
    "contextNotes": [],
    "links": {
      "children": [],
      "charges": []
    },
    "armorProf": {
      "value": []
    },
    "weaponProf": {
      "value": []
    },
    "languages": {
      "value": []
    },
    "scriptCalls": [],
    "subType": "template",
    "associations": {
      "classes": []
    },
    "crOffset": "0"
  }
}
