{
  "_id": "h8j7cYUozTuPOgUj",
  "name": "Possessed Creature",
  "type": "feat",
  "img": "systems/pf1/icons/skills/violet_07.jpg",
  "sort": 0,
  "flags": {},
  "system": {
    "description": {
      "value": "<p><strong>Acquired/Inherited Template</strong>&nbsp;Acquired<br><strong>Simple Template&nbsp;</strong>Yes<br><strong>Usable with Summons</strong>&nbsp;No<br><br>While there are rules in&nbsp;Pathfinder RPG Occult Adventures&nbsp;for when a creature is possessed and totally controlled by a specific spell, sometimes a creature is possessed by a vague entity (hereafter called a spirit) that acts as a second personality within the creature’s mind, sharing control and providing the creature some symbiotic benefits.<br><br><strong>Quick Rules: </strong>+2 on rolls based on Cha; +4 on Will saves; after failing a save against a mind-affecting effect, reroll the save, but the spirit takes control if the second save succeeds; always acts on the surprise round.<br><br><strong>Rebuild Rules:</strong>&nbsp;Defensive Abilities&nbsp;+4 on Will saves; after failing a save against a mind-affecting effect, reroll the save, but the spirit takes control if the second save succeeds;&nbsp;Special Qualities&nbsp;always acts on the surprise round;&nbsp;Ability Scores&nbsp;+4 Cha.</p>"
    },
    "tags": [],
    "actions": [],
    "attackNotes": [],
    "effectNotes": [],
    "changes": [
      {
        "_id": "m65sere2",
        "formula": "4",
        "operator": "add",
        "subTarget": "will",
        "modifier": "untyped",
        "priority": 0,
        "value": 0,
        "target": "savingThrows"
      },
      {
        "_id": "fvzudl47",
        "formula": "4",
        "operator": "add",
        "subTarget": "cha",
        "modifier": "untyped",
        "priority": 0,
        "value": 0,
        "target": "ability"
      }
    ],
    "contextNotes": [],
    "links": {
      "children": [],
      "charges": []
    },
    "armorProf": {
      "value": []
    },
    "weaponProf": {
      "value": []
    },
    "languages": {
      "value": []
    },
    "scriptCalls": [],
    "subType": "template",
    "associations": {
      "classes": []
    },
    "crOffset": "1"
  }
}
