{
  "_id": "HrbdB5h8EiWyMHo5",
  "name": "Tsukumogami",
  "type": "feat",
  "img": "systems/pf1/icons/skills/violet_07.jpg",
  "sort": 0,
  "flags": {},
  "system": {
    "description": {
      "value": "<p><strong>Acquired/Inherited Template&nbsp;</strong>Acquired<br><strong>Simple Template</strong>&nbsp;No<br><strong>Usable with Summons&nbsp;</strong>No<br><br>When an object reaches the 100-year anniversary of its crafting, sometimes it forms an amalgam with a&nbsp;<a href=\"https://aonprd.com/MonsterFamilies.aspx?ItemName=Kami\">kami</a>, creating a creature known as a tsukumogami. Tsukumogami run the gamut in personality, outlook, and function. Objects that are well kept and cared for often form curious and helpful tsukumogami. Most commonly, tsukumogami are mischievous and frightening but not actually malign. Tsukumogami formed from objects that have been abandoned, neglected, or misused are dangerous both to the humans around and to themselves, as their uncontrolled rage might eventually transform them into&nbsp;<a href=\"https://aonprd.com/MonsterFamilies.aspx?ItemName=Oni\">oni</a>.<br><br>Tsukumogami is an acquired template that can be added to any animated object (referred to hereafter as the base creature). A tsukumogami retains all the base creature’s statistics and special abilities except as noted here.<br><br><strong>Challenge Rating:</strong> Base creature’s CR + 2.<br><br><strong>Alignment:</strong> Any.<br><br><strong>Type:</strong> The creature’s type changes to outsider (kami, native). Tsukumogami have good Reflex and Will saves, so increase the base creature’s Reflex and Will saves to 2 + 1/2 its Hit Dice + the relevant ability modifier.<br><br><strong>Armor Class:</strong> A tsukumogami’s natural armor bonus increases by 2.<br><br><strong>Hit Dice: </strong>Retain the base creature’s construct bonus hit points from size (if any). As outsiders, tsukumogami gain bonus hit points from high Constitution scores.<br><br><strong>Spell-Like Abilities:</strong> Tsukumogami gain spell-like abilities based on their size, usable at will. The caster level is equal to the tsukumogami’s Hit Dice.</p>\n<hr>\n<table class=\"inner\" style=\"border-color: white; color: #ffffff; font-family: 'Century Gothic', CenturyGothic, AppleGothic, sans-serif; font-size: 15px; background-color: #0f0f0f;\">\n<tbody style=\"margin-top: 0px;\">\n<tr style=\"margin-top: 0px;\">\n<td style=\"margin: 0px; border: 1px solid white; padding: 1px 5px; text-align: center;\"><strong style=\"margin-top: 0px;\">Size</strong></td>\n<td style=\"border: 1px solid white; padding: 1px 5px; margin: 0px; text-align: center;\"><strong style=\"margin-top: 0px;\">Abilities</strong></td>\n</tr>\n<tr style=\"background: #3e3e3e;\">\n<td style=\"margin: 0px; border: 1px solid white; padding: 1px 5px; text-align: center;\">Tiny+</td>\n<td style=\"border: 1px solid white; padding: 1px 5px; margin: 0px; text-align: center;\"><a style=\"margin-top: 0px; color: inherit;\" href=\"https://aonprd.com/SpellDisplay.aspx?ItemName=Decrepit%20disguise\"><em style=\"margin-top: 0px;\">Decrepit disguise</em></a>&nbsp;(self only),&nbsp;<a style=\"color: inherit;\" href=\"https://aonprd.com/SpellDisplay.aspx?ItemName=ghost%20sound\"><em style=\"margin-top: 0px;\">ghost sound</em></a>,&nbsp;<a style=\"color: inherit;\" href=\"https://aonprd.com/SpellDisplay.aspx?ItemName=mending\"><em style=\"margin-top: 0px;\">mending</em></a>,&nbsp;<a style=\"color: inherit;\" href=\"https://aonprd.com/SpellDisplay.aspx?ItemName=quintessence\"><em style=\"margin-top: 0px;\">quintessence</em></a>&nbsp;(self only)</td>\n</tr>\n<tr>\n<td style=\"margin: 0px; border: 1px solid white; padding: 1px 5px; text-align: center;\">Small+</td>\n<td style=\"border: 1px solid white; padding: 1px 5px; margin: 0px; text-align: center;\"><a style=\"margin-top: 0px; color: inherit;\" href=\"https://aonprd.com/SpellDisplay.aspx?ItemName=Invisibility\"><em style=\"margin-top: 0px;\">Invisibility</em></a>&nbsp;(self only),&nbsp;<a style=\"color: inherit;\" href=\"https://aonprd.com/SpellDisplay.aspx?ItemName=ventriloquism\"><em style=\"margin-top: 0px;\">ventriloquism</em></a></td>\n</tr>\n<tr style=\"background: #3e3e3e;\">\n<td style=\"margin: 0px; border: 1px solid white; padding: 1px 5px; text-align: center;\">Medium+</td>\n<td style=\"border: 1px solid white; padding: 1px 5px; margin: 0px; text-align: center;\"><a style=\"margin-top: 0px; color: inherit;\" href=\"https://aonprd.com/SpellDisplay.aspx?ItemName=Levitate\"><em style=\"margin-top: 0px;\">Levitate</em></a>,&nbsp;<a style=\"color: inherit;\" href=\"https://aonprd.com/SpellDisplay.aspx?ItemName=silent%20image\"><em style=\"margin-top: 0px;\">silent image</em></a></td>\n</tr>\n<tr>\n<td style=\"margin: 0px; border: 1px solid white; padding: 1px 5px; text-align: center;\">Large+</td>\n<td style=\"border: 1px solid white; padding: 1px 5px; margin: 0px; text-align: center;\"><a style=\"margin-top: 0px; color: inherit;\" href=\"https://aonprd.com/SpellDisplay.aspx?ItemName=Fly\"><em style=\"margin-top: 0px;\">Fly</em></a>,&nbsp;<a style=\"color: inherit;\" href=\"https://aonprd.com/SpellDisplay.aspx?ItemName=make%20whole\"><em style=\"margin-top: 0px;\">make whole</em></a></td>\n</tr>\n<tr style=\"background: #3e3e3e;\">\n<td style=\"margin: 0px; border: 1px solid white; padding: 1px 5px; text-align: center;\">Huge+</td>\n<td style=\"border: 1px solid white; padding: 1px 5px; margin: 0px; text-align: center;\"><a style=\"margin-top: 0px; color: inherit;\" href=\"https://aonprd.com/SpellDisplay.aspx?ItemName=Obscure%20object\"><em style=\"margin-top: 0px;\">Obscure object</em></a>&nbsp;(self only),&nbsp;<a style=\"color: inherit;\" href=\"https://aonprd.com/SpellDisplay.aspx?ItemName=shrink%20item\"><em style=\"margin-top: 0px;\">shrink item</em></a>&nbsp;(self only, no volume limit)</td>\n</tr>\n<tr>\n<td style=\"margin: 0px; border: 1px solid white; padding: 1px 5px; text-align: center;\">Gargantuan+</td>\n<td style=\"border: 1px solid white; padding: 1px 5px; margin: 0px; text-align: center;\"><a style=\"margin-top: 0px; color: inherit;\" href=\"https://aonprd.com/SpellDisplay.aspx?ItemName=Animate%20objects\"><em style=\"margin-top: 0px;\">Animate objects</em></a>&nbsp;(each casting ends any previous castings)</td>\n</tr>\n<tr style=\"background: #3e3e3e;\">\n<td style=\"margin: 0px; border: 1px solid white; padding: 1px 5px; text-align: center;\">Colossal</td>\n<td style=\"border: 1px solid white; padding: 1px 5px; margin: 0px; text-align: center;\"><a style=\"margin-top: 0px; color: inherit;\" href=\"https://aonprd.com/SpellDisplay.aspx?ItemName=Sympathy\"><em style=\"margin-top: 0px;\">Sympathy</em></a>&nbsp;(self only)</td>\n</tr>\n</tbody>\n</table>\n<p><br style=\"color: #ffffff; font-family: 'Century Gothic', CenturyGothic, AppleGothic, sans-serif; font-size: 15px; background-color: #0f0f0f;\"><strong>Special Qualities and Defensive Abilities:</strong> Because it grows additional features such as a tongue, arms, or legs, a tsukumogami gains the additional attack animated object quality without spending Construction Points, and all its attacks increase their damage dice by one step. A tsukumogami can gain 10 bonus hit points as an additional option costing 1 CP. It gains the freeze special quality. As kami, tsukumogami gain immunity to petrification and polymorph effects; resist acid 10, electricity 10, and fire 10; telepathy 100 feet; fast healing 5; merge with ward; and ward. Though a tsukumogami loses its construct type, it keeps its hardness, low-light vision, and all its construct immunities. It can still be affected by spells that affect objects or constructs. A tsukumogami is always merged with its ward, and unlike most kami, it forms an amalgam with its ward, so it can move and communicate while merged.<br><br><strong>Ability Scores: </strong>A tsukumogami has a 15 Intelligence, 17 Wisdom, and 14 Charisma. A Medium tsukumogami receives a +4 bonus to Strength, a +4 bonus to Dexterity, and a Constitution score of 19. These ability scores are adjusted for size.<br><br><strong>Skills:</strong> A tsukumogami has a number of skill points per racial Hit Die equal to 6 + its Intelligence modifier. Its racial class skills are the base outsider class skills plus Disguise, Knowledge (history), Perform (any one), and Sleight of Hand.</p>"
    },
    "tags": [],
    "actions": [],
    "attackNotes": [],
    "effectNotes": [],
    "changes": [
      {
        "_id": "9jbfurrt",
        "formula": "2",
        "operator": "add",
        "subTarget": "nac",
        "modifier": "untyped",
        "priority": 0,
        "value": 0,
        "target": "ac"
      }
    ],
    "contextNotes": [],
    "links": {
      "children": [],
      "charges": []
    },
    "armorProf": {
      "value": []
    },
    "weaponProf": {
      "value": []
    },
    "languages": {
      "value": []
    },
    "scriptCalls": [],
    "subType": "template",
    "associations": {
      "classes": []
    },
    "crOffset": "2"
  }
}
