{
  "_id": "FszchlqR39lnNduC",
  "name": "Armor Proficiency, Light",
  "type": "feat",
  "img": "systems/pf1/icons/feats/armor-proficiency-light.png",
  "sort": 0,
  "flags": {},
  "system": {
    "description": {
      "value": "<em>You are skilled at wearing light armor.</em><br/><br/><b>Benefits</b><br/>When you wear a type of armor with which you are proficient, the armor check penalty for that armor applies only to Dexterity- and Strength-based skill checks.<br/><br/><b>Normal</b><br/>A character who is wearing armor with which he is not proficient applies its armor check penalty to attack rolls and to all skill checks that involve moving.<br/><br/><b>Special</b><br/>All characters except monks, sorcerers, and wizards automatically have Light Armor Proficiency as a bonus feat. They need not select it."
    },
    "tags": [["PFS"], ["Combat"]],
    "actions": [],
    "attackNotes": [],
    "effectNotes": [],
    "changes": [],
    "contextNotes": [],
    "links": {
      "children": [],
      "charges": []
    },
    "tag": "feat_armorProficiencyLight",
    "useCustomTag": true,
    "armorProf": {
      "value": ["lgt"]
    },
    "weaponProf": {
      "value": []
    },
    "languages": {
      "value": []
    },
    "scriptCalls": [],
    "associations": {
      "classes": []
    }
  }
}
