{
  "_id": "h9nHYLxXvIXBTmup",
  "name": "Combat Reflexes",
  "type": "feat",
  "img": "systems/pf1/icons/feats/combat-reflexes.jpg",
  "sort": 0,
  "flags": {},
  "system": {
    "description": {
      "value": "<p><em>You can make additional attacks of opportunity.</em><br /><br /><strong>Benefits</strong><br />You may make a number of additional attacks of opportunity per round equal to your Dexterity bonus. With this feat, you may also make attacks of opportunity while flat-footed.<br /><br /><strong>Normal</strong><br />A character without this feat can make only one attack of opportunity per round and can't make attacks of opportunity while flat-footed.<br /><br /><strong>Special</strong><br />The Combat Reflexes feat does not allow a rogue to use her opportunist ability more than once per round.<br /><br /><strong>Combat Trick</strong><br />When you miss with an attack of opportunity, you can spend 5 stamina points to make a second attack for the same provoking action. That second attack of opportunity takes a -5 penalty on the attack roll and costs one of your attacks of opportunity for the round.</p>\n<p>&nbsp;</p>\n<p><strong>Usage</strong>: spend 1 charge after use.</p>"
    },
    "tags": [["PFS"], ["Combat"]],
    "actions": [
      {
        "_id": "kzof1vn44xdata40",
        "name": "Use",
        "img": "systems/pf1/icons/feats/combat-reflexes.jpg",
        "description": "",
        "tag": "",
        "activation": {
          "cost": 1,
          "type": "passive"
        },
        "unchainedAction": {
          "activation": {
            "cost": 1,
            "type": "passive"
          }
        },
        "duration": {
          "value": null,
          "units": ""
        },
        "target": {
          "value": ""
        },
        "range": {
          "value": null,
          "units": "",
          "maxIncrements": 1,
          "minValue": null,
          "minUnits": ""
        },
        "uses": {
          "autoDeductChargesCost": "",
          "self": {
            "value": 0,
            "maxFormula": "",
            "per": null
          },
          "per": "charges",
          "value": 1,
          "maxFormula": "1 + @abilities.dex.mod"
        },
        "measureTemplate": {
          "type": "",
          "size": "",
          "overrideColor": false,
          "customColor": "",
          "overrideTexture": false,
          "customTexture": ""
        },
        "attackName": "",
        "actionType": "",
        "attackBonus": "",
        "critConfirmBonus": "",
        "damage": {
          "parts": [],
          "critParts": [],
          "nonCritParts": []
        },
        "attackParts": [],
        "formulaicAttacks": {
          "count": {
            "formula": ""
          },
          "bonus": {
            "formula": ""
          },
          "label": null
        },
        "formula": "",
        "ability": {
          "attack": null,
          "damage": null,
          "damageMult": 1,
          "critRange": 20,
          "critMult": 2
        },
        "save": {
          "dc": 0,
          "type": "",
          "description": ""
        },
        "effectNotes": [],
        "attackNotes": [],
        "soundEffect": "",
        "powerAttack": {
          "multiplier": "",
          "damageBonus": 2,
          "critMultiplier": 1
        },
        "naturalAttack": {
          "primaryAttack": true,
          "secondary": {
            "attackBonus": "-5",
            "damageMult": 0.5
          }
        },
        "nonlethal": false,
        "usesAmmo": false,
        "spellEffect": "",
        "spellArea": "",
        "conditionals": [],
        "enh": {
          "value": null
        }
      }
    ],
    "uses": {
      "per": "charges",
      "value": 1,
      "maxFormula": "1 + @abilities.dex.mod"
    },
    "attackNotes": [],
    "effectNotes": [],
    "changes": [],
    "contextNotes": [
      {
        "subTarget": "attack",
        "text": "Combat Reflexes: [[@resources.combatReflexes.value]] AoO available."
      }
    ],
    "links": {
      "children": [],
      "charges": []
    },
    "tag": "feat_combatReflexes",
    "useCustomTag": true,
    "armorProf": {
      "value": []
    },
    "weaponProf": {
      "value": []
    },
    "languages": {
      "value": []
    },
    "scriptCalls": [],
    "associations": {
      "classes": []
    }
  }
}
