{
  "_id": "VK8TgwfjeomMwGjd",
  "name": "Double Slice",
  "type": "feat",
  "img": "systems/pf1/icons/feats/double-slice.jpg",
  "sort": 0,
  "flags": {},
  "system": {
    "description": {
      "value": "<p><em>Your off-hand weapon while dual-wielding strikes with greater power.</em> <br /><br /></p>\n<p><strong>Prerequisites</strong></p>\n<p>Dex 15, Two-Weapon Fighting.</p>\n<p>&nbsp;</p>\n<p><strong>Benefits</strong></p>\n<p class=\"stat-block-1\">Add your Strength bonus to damage rolls made with your off-hand weapon.</p>\n<p>&nbsp;</p>\n<p><strong>Normal</strong></p>\n<p class=\"stat-block-1\">You normally add only half of your Strength modifier to damage rolls made with a weapon wielded in your off-hand.</p>\n<p class=\"stat-block-1\">&nbsp;</p>\n<p class=\"stat-block-1\"><strong>Usage</strong>: for your off-hand attack change Damage Ability to x1.</p>"
    },
    "tags": [["Combat"], ["Offensive"], ["Two Weapons"], ["Weapon"]],
    "actions": [],
    "attackNotes": [],
    "effectNotes": [],
    "changes": [],
    "contextNotes": [],
    "links": {
      "children": [],
      "charges": []
    },
    "tag": "feat_doubleSlice",
    "useCustomTag": true,
    "armorProf": {
      "value": []
    },
    "weaponProf": {
      "value": []
    },
    "languages": {
      "value": []
    },
    "scriptCalls": [],
    "associations": {
      "classes": []
    }
  }
}
