{
  "_id": "3HjwKckDBDDPcY2c",
  "name": "Greater Spell Penetration",
  "type": "feat",
  "img": "systems/pf1/icons/feats/greater-spell-penetration.jpg",
  "sort": 0,
  "flags": {},
  "system": {
    "description": {
      "value": "\n                <i>Your spells break through spell resistance much more easily than most.</i>\n                <br />\n                <br />\n                \n                <p><b>Prerequisites</b></p>\n                <p> Spell Penetration.</p>\n                \n            <br />\n                <p><b>Benefits</b></p>\n                <p><p class=\"stat-block-1\"> You get a +2 bonus on caster level checks (1d20 + caster level) made to overcome a creature's spell resistance. This bonus stacks with the one from Spell Penetration.</p></p>\n                \n            \n            "
    },
    "tags": [["General"], ["Magic"]],
    "actions": [],
    "attackNotes": [],
    "effectNotes": [],
    "changes": [],
    "contextNotes": [
      {
        "text": "+[[2]] spell penetration",
        "subTarget": "cl"
      }
    ],
    "links": {
      "children": [],
      "charges": []
    },
    "tag": "feat_greaterSpellPenetration",
    "useCustomTag": true,
    "armorProf": {
      "value": []
    },
    "weaponProf": {
      "value": []
    },
    "languages": {
      "value": []
    },
    "scriptCalls": [],
    "associations": {
      "classes": []
    }
  }
}
