{
  "_id": "TGmNCGtnHf0icozK",
  "name": "Penetrating Strike",
  "type": "feat",
  "img": "systems/pf1/icons/feats/penetrating-strike.jpg",
  "sort": 0,
  "flags": {},
  "system": {
    "description": {
      "value": "\n                <i>Your attacks are capable of penetrating the defenses of some creatures.</i>\n                <br />\n                <br />\n                \n                <p><b>Prerequisites</b></p>\n                <p> Weapon Focus, base attack bonus +1, 12th-level fighter, proficiency with weapon.</p>\n                \n            <br />\n                <p><b>Benefits</b></p>\n                <p><p class=\"stat-block-1\"> Your attacks with weapons selected with Weapon Focus ignore up to 5 points of damage reduction. This feat does not apply to damage reduction without a type (such as DR 10/&mdash;).</p></p>\n                \n            \n            "
    },
    "tags": [["Combat"], ["Offensive"]],
    "actions": [],
    "attackNotes": [],
    "effectNotes": [],
    "changes": [],
    "contextNotes": [],
    "links": {
      "children": [],
      "charges": []
    },
    "tag": "feat_penetratingStrike",
    "useCustomTag": true,
    "armorProf": {
      "value": []
    },
    "weaponProf": {
      "value": []
    },
    "languages": {
      "value": []
    },
    "scriptCalls": [],
    "associations": {
      "classes": []
    }
  }
}
