{
  "_id": "PkktjwppuVzoLn19",
  "name": "Strike Back",
  "type": "feat",
  "img": "systems/pf1/icons/feats/strike-back.jpg",
  "sort": 0,
  "flags": {},
  "system": {
    "description": {
      "value": "\n                <i>You can strike at foes that attack you using their superior reach, by targeting their limbs or weapons as they come at you.</i>\n                <br />\n                <br />\n                \n                <p><b>Prerequisites</b></p>\n                <p> Base attack bonus +11.</p>\n                \n            <br />\n                <p><b>Benefits</b></p>\n                <p><p class=\"stat-block-1\"> You can ready an action to make a melee attack against any foe that attacks you in melee, even if the foe is outside of your reach.</p></p>\n                \n            \n            "
    },
    "tags": [["Combat"]],
    "actions": [],
    "attackNotes": [],
    "effectNotes": [],
    "changes": [],
    "contextNotes": [],
    "links": {
      "children": [],
      "charges": []
    },
    "tag": "feat_strikeBack",
    "useCustomTag": true,
    "armorProf": {
      "value": []
    },
    "weaponProf": {
      "value": []
    },
    "languages": {
      "value": []
    },
    "scriptCalls": [],
    "associations": {
      "classes": []
    }
  }
}
