{
  "_id": "tGDNVHHZnNFPPgiY",
  "name": "Two-Weapon Rend",
  "type": "feat",
  "img": "systems/pf1/icons/feats/two-weapon-rend.jpg",
  "sort": 0,
  "flags": {},
  "system": {
    "description": {
      "value": "\n                <i>Striking with both of your weapons simultaneously, you can use them to deliver devastating wounds.</i>\n                <br />\n                <br />\n                \n                <p><b>Prerequisites</b></p>\n                <p> Dex 17, Double Slice, Improved Two-Weapon Fighting, Two-Weapon Fighting, base attack bonus +11. </p>\n                \n            <br />\n                <p><b>Benefits</b></p>\n                <p><p class=\"stat-block-1\"> If you hit an opponent with both your primary hand and your off-hand weapon, you deal an additional 1d10 points of damage plus 1-1/2 times your Strength modifier. You can only deal this additional damage once each round.</p></p>\n                \n            \n            "
    },
    "tags": [["Combat"], ["Weapon"], ["Two Weapons"], ["Offensive"]],
    "actions": [],
    "attackNotes": [],
    "effectNotes": [],
    "changes": [],
    "contextNotes": [],
    "links": {
      "children": [],
      "charges": []
    },
    "tag": "feat_twoweaponRend",
    "useCustomTag": true,
    "armorProf": {
      "value": []
    },
    "weaponProf": {
      "value": []
    },
    "languages": {
      "value": []
    },
    "scriptCalls": [],
    "associations": {
      "classes": []
    }
  }
}
