{
  "_id": "h8Ap9cxdsXWRC6Tc",
  "name": "Widen Spell",
  "type": "feat",
  "img": "systems/pf1/icons/feats/widen-spell.jpg",
  "sort": 0,
  "flags": {},
  "system": {
    "description": {
      "value": "\n                <i>You can cast your spells so that they occupy a larger space.</i>\n                <br />\n                <br />\n                \n                <p><b>Benefits</b></p>\n                <p><p class=\"stat-block-1\"> You can alter a burst, emanation, or spread-shaped spell to increase its area. Any numeric measurements of the spell's area increase by 100%. A widened spell uses up a spell slot three levels higher than the spell's actual level.</p><p class=\"stat-block-2\">Spells that do not have an area of one of these four sorts are not affected by this feat.</p></p>\n                \n            \n            "
    },
    "tags": [["Metamagic"], ["Magic"]],
    "actions": [],
    "attackNotes": [],
    "effectNotes": [],
    "changes": [],
    "contextNotes": [],
    "links": {
      "children": [],
      "charges": []
    },
    "tag": "feat_widenSpell",
    "useCustomTag": true,
    "armorProf": {
      "value": []
    },
    "weaponProf": {
      "value": []
    },
    "languages": {
      "value": []
    },
    "scriptCalls": [],
    "associations": {
      "classes": []
    }
  }
}
