{
  "_id": "ubx4PIbRqmVT93Ds",
  "name": "Gathlain",
  "type": "race",
  "img": "systems/pf1/icons/spells/vines-acid-1.jpg",
  "sort": 0,
  "flags": {},
  "system": {
    "description": {
      "value": "<h2>Standard Racial Traits</h2><ul><li><strong>Ability Score Modifiers: </strong>Gathlains are quick, with dynamic and engaging personalities, but are rather fragile. They gain a +2 bonus to <em>Dexterity</em> and <em>Charisma</em> but suffer a –2 penalty to <em>Constitution</em>.</li><li><strong>Type:</strong> Gathlains are <em>Fey</em>.</li><li><strong>Size:</strong> Gathlains are <em>Small</em> and gain a +1 <em>size bonus</em> to their AC, a +1 <em>size bonus</em> on <em>attack rolls</em>, a –1 penalty on <em>combat maneuver</em> checks and to <em>CMD</em>, a +2 bonus on <em>Fly</em> checks, and a +4 <em>size bonus</em> on <em>Stealth</em> checks.</li><li><strong>Speed:</strong> Gathlains have a base speed of 30 feet and a fly speed of 40 feet (poor maneuverability).</li><li><strong>Languages:</strong> Gathlains speak Common and Sylvan. A gathlain with a high <em>Intelligence</em> score can choose from the following languages: Draconic, Elven, Goblin, Halfling, and Orc.</li></ul><h3>Senses</h3><ul><li><strong>Low-Light Vision:</strong> Gathlains can see twice as far as <em>humans</em> in dim light.</li></ul><h3>Defensive Abilities</h3><ul><li><strong>Natural Armor:</strong> Gathlains have a +1 <em>natural armor bonus</em>.</li></ul><h3>Spell-Like Abilities</h3><ul><li><strong>Spell-Like Abilities:</strong> 1/day—<em>entangle</em>, <em>feather step</em> (<em>caster level</em> equals the gathlain's character level).</li></ul>"
    },
    "tags": [],
    "changes": [
      {
        "_id": "lmeggrmg",
        "formula": "2",
        "operator": "add",
        "subTarget": "dex",
        "modifier": "racial",
        "priority": 0,
        "value": 0,
        "target": "ability"
      },
      {
        "_id": "x2jolwqk",
        "formula": "2",
        "operator": "add",
        "subTarget": "cha",
        "modifier": "racial",
        "priority": 0,
        "value": 0,
        "target": "ability"
      },
      {
        "_id": "kytmbrx4",
        "formula": "-2",
        "operator": "add",
        "subTarget": "con",
        "modifier": "racial",
        "priority": 0,
        "value": 0,
        "target": "ability"
      },
      {
        "_id": "0zt5u7mb",
        "formula": "1",
        "operator": "add",
        "subTarget": "nac",
        "modifier": "base",
        "priority": 0,
        "value": 0,
        "target": "ac"
      }
    ],
    "contextNotes": [],
    "links": {
      "children": []
    },
    "armorProf": {
      "value": []
    },
    "weaponProf": {
      "value": []
    },
    "languages": {
      "value": ["common", "sylvan"]
    },
    "scriptCalls": [],
    "creatureType": "fey",
    "subTypes": []
  }
}
