{
  "_id": "WxPc1Nw2V3ohdl2x",
  "name": "Locathah",
  "type": "race",
  "img": "systems/pf1/icons/skills/blue_06.jpg",
  "sort": 0,
  "flags": {},
  "system": {
    "description": {
      "value": "<h2>Standard Racial Traits</h2><ul><li><strong>Ability Scores:</strong> +2 <em>Dexterity</em>, +2 <em>Wisdom</em>, –2 <em>Intelligence</em>: Locathahs are agile and intuitive, but they are more interested in travel and experiences than in academia.</li><li><strong>Size: </strong>Medium: Locathahs are Medium creatures and have no bonuses or penalties due to their size.</li><li><strong>Type:</strong> Aquatic: Locathahs are <em>humanoids</em> with the <em>aquatic</em> subtype.</li><li><strong>Amphibious:</strong> Locathahs have the <em>aquatic</em> subtype but can breathe both water and air.</li><li><strong>Languages:</strong> Locathahs begin play speaking Aquan and Common. Locathahs with a high <em>Intelligence</em> score can choose from the following: Aklo, Draconic, Elven, Giant, Gnome, Goblin, and Halfling.</li></ul><h3>Movement & Movement Abilities</h3><ul><li><strong>Slow Speed</strong>: Locathahs have a base speed of 10 feet.</li><li><strong>Fast Swimmer (5 RP)</strong>: Locathahs have a swim speed of 60 feet.</li></ul><h3>Senses</h3><ul><li><strong>Low-Light Vision:</strong> Locathahs live in areas where sunlight illuminates the water, and they have <em>low-light vision</em>.</li></ul><h3>Defensive Abilities</h3><ul><li><strong>Natural Armor:</strong> Locathahs have thick scales that provide a +2 <em>natural armor bonus</em>.</li></ul>"
    },
    "tags": [],
    "changes": [
      {
        "_id": "3b0w0yzd",
        "formula": "2",
        "operator": "add",
        "subTarget": "dex",
        "modifier": "racial",
        "priority": 0,
        "value": 0,
        "target": "ability"
      },
      {
        "_id": "255n7bob",
        "formula": "2",
        "operator": "add",
        "subTarget": "wis",
        "modifier": "racial",
        "priority": 0,
        "value": 0,
        "target": "ability"
      },
      {
        "_id": "37r2eq31",
        "formula": "-2",
        "operator": "add",
        "subTarget": "int",
        "modifier": "racial",
        "priority": 0,
        "value": 0,
        "target": "ability"
      },
      {
        "_id": "cw1zdh1t",
        "formula": "2",
        "operator": "add",
        "subTarget": "nac",
        "modifier": "base",
        "priority": 0,
        "value": 0,
        "target": "ac"
      }
    ],
    "contextNotes": [],
    "links": {
      "children": []
    },
    "armorProf": {
      "value": []
    },
    "weaponProf": {
      "value": []
    },
    "languages": {
      "value": ["common", "aquan"]
    },
    "scriptCalls": [],
    "subTypes": [["Aquatic"]]
  }
}
