{
  "_id": "6Dqqpyf2XpSsWYH8",
  "name": "Aasen Mortar",
  "type": "weapon",
  "img": "icons/weapons/artillery/cannon-banded.webp",
  "sort": 0,
  "flags": {},
  "system": {
    "description": {
      "value": "<p><strong>Source</strong> <em>Pathfinder #71: Rasputin Must Die! pg. 64</em></p>\n<h3 class=\"framing\">Statistics</h3>\n<p><strong>Cost</strong> 500 gp <strong>Weight</strong> 50 lbs.</p>\n<p><strong>Damage</strong> 6d6 ; <strong>Critical</strong> x3; <strong>Range</strong> 200 ft. (50 ft. min.); <strong>Type</strong> B, P, and S</p>\n<p><strong>Misfire</strong> 1; <strong>Crew</strong> 1; <strong>Aim</strong> 0; <strong>Load</strong> 1</p>\n<p><strong>Category</strong> Siege; <strong>Proficiency</strong> Exotic</p>\n<h3 class=\"framing\">Description</h3>\n<p>The Aasen mortar is an indirect-fire advanced siege firearm, consisting of a heavy steel barrel, a loading mechanism, and a folding bipod stand, and is used to launch explosives to penetrate enemy defensive lines.</p>\n<p>Aiming the mortar is part of the standard action required to fire it. Reloading the mortar is a full-round action, and the user loads a grenade-like projectile into the breech of the weapon's steel barrel, along with a blank rifle round that propels the bomb when triggered. The weapon uses indirect fire to lob bombs in slow-moving, high arcs, and the user targets a specific square.</p>\n<p>Rules for indirect-fire siege weapons are found on page 160 of Ultimate Combat. Mortars can also be fired as direct-fire siege engines. When used for direct fire, they take a -4 penalty on attack rolls and their range increment is halved, but they do not have a minimum range. After the point of impact is determined, the shell explodes and deals 6d6 points of bludgeoning, piercing, and slashing damage to all creatures in a 30-foot radius (Reflex DC 20 for half ).</p>\n<p>An Aasen mortar has hardness 10 and 35 hit points; it fires special, finned fragmentation bombs that cost 10 gp each and weigh 4 pounds each. These bombs usually arrive on the battlefront in wooden cases containing 6 mortars each.</p>"
    },
    "tags": [],
    "weight": {
      "value": 50
    },
    "price": 500,
    "hardness": 10,
    "identifiedName": "Aasen Mortar",
    "changes": [],
    "actions": [
      {
        "_id": "0rvo9axdjskf59wv",
        "name": "Attack",
        "img": "icons/weapons/artillery/cannon-banded.webp",
        "description": "",
        "tag": "",
        "activation": {
          "cost": 1,
          "type": "attack"
        },
        "unchainedAction": {
          "activation": {
            "cost": 1,
            "type": ""
          }
        },
        "duration": {
          "value": null,
          "units": "inst"
        },
        "target": {
          "value": ""
        },
        "range": {
          "value": "200",
          "units": "ft",
          "maxIncrements": 10,
          "minValue": "50",
          "minUnits": "ft"
        },
        "uses": {
          "autoDeductChargesCost": "",
          "self": {
            "value": 0,
            "maxFormula": "",
            "per": null
          },
          "per": "",
          "value": 0,
          "maxFormula": ""
        },
        "measureTemplate": {
          "type": "",
          "size": "",
          "overrideColor": false,
          "customColor": "",
          "overrideTexture": false,
          "customTexture": ""
        },
        "attackName": "",
        "actionType": "rwak",
        "attackBonus": "",
        "critConfirmBonus": "",
        "damage": {
          "parts": [
            [
              "sizeRoll(6, 6, @size)",
              {
                "values": ["slashing"],
                "custom": ""
              }
            ]
          ],
          "critParts": [],
          "nonCritParts": []
        },
        "attackParts": [],
        "formulaicAttacks": {
          "count": {
            "formula": "min(3, ceil(@attributes.bab.total / 5) - 1)"
          },
          "bonus": {
            "formula": "@formulaicAttack * -5"
          },
          "label": null
        },
        "formula": "",
        "ability": {
          "attack": "dex",
          "damage": "",
          "damageMult": 1,
          "critRange": 20,
          "critMult": 3
        },
        "save": {
          "dc": "0",
          "type": "",
          "description": ""
        },
        "effectNotes": [],
        "attackNotes": [],
        "soundEffect": "",
        "powerAttack": {
          "multiplier": "",
          "damageBonus": 2,
          "critMultiplier": 1
        },
        "naturalAttack": {
          "primaryAttack": true,
          "secondary": {
            "attackBonus": "-5",
            "damageMult": 0.5
          }
        },
        "nonlethal": false,
        "usesAmmo": false,
        "spellEffect": "",
        "spellArea": "",
        "conditionals": [],
        "enh": {
          "value": null
        }
      }
    ],
    "uses": {
      "per": ""
    },
    "attackNotes": [],
    "effectNotes": [],
    "contextNotes": [],
    "links": {
      "children": []
    },
    "tag": "aasenMortar",
    "scriptCalls": [],
    "weaponGroups": {
      "value": ["firearms"]
    },
    "subType": "exotic",
    "weaponSubtype": "ranged"
  }
}
