{
  "_id": "23HXFjpPnuLFOylm",
  "name": "Arrow",
  "type": "loot",
  "img": "systems/pf1/icons/items/weapons/arrow.PNG",
  "sort": 0,
  "flags": {},
  "system": {
    "description": {
      "value": "<p><strong>Source</strong>&nbsp;<em>Ultimate Equipment pg. 22</em>,&nbsp;<em>PRPG Core Rulebook pg. 143</em></p>\n<h3 class=\"framing\"><span title=\"PFS Legal\">[PFS]</span> Statistics</h3>\n<p><strong>Cost</strong>&nbsp;1 gp&nbsp;<strong>Weight</strong>&nbsp;3 lbs.</p>\n<p><strong>Category</strong>&nbsp;Ammunition;&nbsp;<strong>Proficiency</strong>&nbsp;Ammunition</p>\n<h3 class=\"framing\">Description</h3>\n<p>An arrow used as a melee weapon is treated as a light improvised weapon (-4 penalty on attack rolls) and deals damage as a dagger of its size (critical multiplier x2).</p>\n<p>Arrows come in a leather quiver that holds 20 arrows.</p>"
    },
    "tags": [],
    "quantity": 20,
    "weight": {
      "value": 0.15
    },
    "price": 0.05,
    "equipped": false,
    "hp": {
      "max": 1,
      "value": 1
    },
    "hardness": 5,
    "unidentified": {
      "price": 0.05
    },
    "identifiedName": "Arrow",
    "changes": [],
    "contextNotes": [],
    "links": {
      "children": []
    },
    "scriptCalls": [],
    "subType": "ammo",
    "extraType": "arrow"
  }
}
