{
  "_id": "lxN8LUTXzcckKu32",
  "name": "Baston Fighting Stick",
  "type": "weapon",
  "img": "systems/pf1/icons/items/weapons/quarterstaff.png",
  "sort": 0,
  "flags": {},
  "system": {
    "description": {
      "value": "<p><strong>Source</strong> <em>Merchant's Manifest pg. 11</em></p><h3 class=\"framing\">Statistics</h3><p><strong>Cost</strong> 10 gp <strong>Weight</strong> 2 lbs.</p><p><strong>Damage</strong> 1d4 (small), 1d6 (medium); <strong>Critical</strong> x2; <strong>Range</strong> -; <strong>Type</strong> B; <strong>Special</strong> Monk, see text</p><p><strong>Category</strong> One-Handed; <strong>Proficiency</strong> Simple</p><h3 class=\"framing\">Description</h3><p>These weapons are treated sticks of wood, either left bare or covered in elaborate decorative designs. Baston fighting sticks vary in length from 2 to 4 feet, with thicknesses varying between 1 to 3 inches. In most applications, these weapons are similar to clubs or quarterstaffs, but in the hands of a trained expert, they truly shine. A creature with the Combat Reflexes feat treats the weapon as having the blocking and performance weapon special features (<em>Pathfinder RPG Ultimate Equipment</em> 22).</p>"
    },
    "tags": [],
    "weight": {
      "value": 2
    },
    "price": 10,
    "hardness": 10,
    "identifiedName": "Baston Fighting Stick",
    "changes": [],
    "actions": [
      {
        "_id": "hgd9pczxb067sz1q",
        "name": "Attack",
        "img": "systems/pf1/icons/items/weapons/quarterstaff.png",
        "description": "",
        "tag": "",
        "activation": {
          "cost": 1,
          "type": "attack"
        },
        "unchainedAction": {
          "activation": {
            "cost": 1,
            "type": ""
          }
        },
        "duration": {
          "value": null,
          "units": "inst"
        },
        "target": {
          "value": ""
        },
        "range": {
          "value": "0",
          "units": "melee",
          "maxIncrements": 1,
          "minValue": null,
          "minUnits": ""
        },
        "uses": {
          "autoDeductChargesCost": "",
          "self": {
            "value": 0,
            "maxFormula": "",
            "per": null
          },
          "per": null,
          "value": 0,
          "maxFormula": ""
        },
        "measureTemplate": {
          "type": "",
          "size": "",
          "overrideColor": false,
          "customColor": "",
          "overrideTexture": false,
          "customTexture": ""
        },
        "attackName": "",
        "actionType": "mwak",
        "attackBonus": "",
        "critConfirmBonus": "",
        "damage": {
          "parts": [
            [
              "sizeRoll(1, 6, @size)",
              {
                "values": ["bludgeoning"],
                "custom": ""
              }
            ]
          ],
          "critParts": [],
          "nonCritParts": []
        },
        "attackParts": [],
        "formulaicAttacks": {
          "count": {
            "formula": "min(3, ceil(@attributes.bab.total / 5) - 1)"
          },
          "bonus": {
            "formula": "@formulaicAttack * -5"
          },
          "label": null
        },
        "formula": "",
        "ability": {
          "attack": "str",
          "damage": "str",
          "damageMult": 1,
          "critRange": "",
          "critMult": "2"
        },
        "save": {
          "dc": 0,
          "type": "",
          "description": ""
        },
        "effectNotes": [],
        "attackNotes": [],
        "soundEffect": "",
        "powerAttack": {
          "multiplier": "",
          "damageBonus": 2,
          "critMultiplier": 1
        },
        "naturalAttack": {
          "primaryAttack": true,
          "secondary": {
            "attackBonus": "-5",
            "damageMult": 0.5
          }
        },
        "nonlethal": false,
        "usesAmmo": false,
        "spellEffect": "",
        "spellArea": "",
        "conditionals": [],
        "enh": {
          "value": null
        }
      }
    ],
    "attackNotes": [],
    "effectNotes": [],
    "contextNotes": [],
    "links": {
      "children": []
    },
    "tag": "bastonFightingStick",
    "scriptCalls": [],
    "weaponGroups": {
      "value": []
    },
    "weaponSubtype": "1h"
  }
}
