{
  "_id": "sSvnAbXKDOSrMvGc",
  "name": "Cestus",
  "type": "weapon",
  "img": "systems/pf1/icons/items/weapons/cestus.png",
  "sort": 0,
  "flags": {},
  "system": {
    "description": {
      "value": "<p><strong>Source</strong> <em>Ultimate Equipment pg. 17</em>, <em>Adventurer's Armory pg. 3</em>, <em>Advanced Player's Guide pg. 176</em></p><h3 class=\"framing\"><span title=\"PFS Legal\">[PFS]</span> Statistics</h3><p><strong>Cost</strong> 5 gp <strong>Weight</strong> 1 lb.</p><p><strong>Damage</strong> 1d3 (small), 1d4 (medium); <strong>Critical</strong> 19-20/x2; <strong>Range</strong> -; <strong>Type</strong> B or P; <strong>Special</strong> monk, see text</p><p><strong>Category</strong> Light; <strong>Proficiency</strong> Simple</p><p><strong>Weapon Groups</strong> Close; Monk</p><h3 class=\"framing\">Description</h3><p>The cestus is a glove of leather or thick cloth that covers the wielder from mid-finger to mid-forearm. The close combat weapon is reinforced with metal plates over the fingers and often lined with wicked spikes along the backs of the hands and wrists. While wearing a cestus, you are considered armed and your unarmed attacks deal lethal damage. If you are proficient with a cestus, you can have your unarmed strikes deal bludgeoning or piercing damage. Monks are proficient with the cestus. When using a cestus, your fingers are mostly exposed, allowing you to wield or carry items in that hand, but the constriction of the weapon at your knuckles gives you a -2 penalty on all precision-based tasks involving that hand (such as opening locks). A cestus can't be disarmed.</p>"
    },
    "tags": [],
    "weight": {
      "value": 1
    },
    "price": 5,
    "hp": {
      "max": 2,
      "value": 2
    },
    "hardness": 10,
    "identifiedName": "Cestus",
    "changes": [],
    "actions": [
      {
        "_id": "n4b4pwbmy5ncp0km",
        "name": "Attack",
        "img": "systems/pf1/icons/items/weapons/cestus.png",
        "description": "",
        "tag": "",
        "activation": {
          "cost": 1,
          "type": "attack"
        },
        "unchainedAction": {
          "activation": {
            "cost": 1,
            "type": ""
          }
        },
        "duration": {
          "value": null,
          "units": "inst"
        },
        "target": {
          "value": ""
        },
        "range": {
          "value": "0",
          "units": "melee",
          "maxIncrements": 1,
          "minValue": null,
          "minUnits": ""
        },
        "uses": {
          "autoDeductChargesCost": "",
          "self": {
            "value": 0,
            "maxFormula": "",
            "per": null
          },
          "per": "",
          "value": 0,
          "maxFormula": ""
        },
        "measureTemplate": {
          "type": "",
          "size": "",
          "overrideColor": false,
          "customColor": "",
          "overrideTexture": false,
          "customTexture": ""
        },
        "attackName": "",
        "actionType": "mwak",
        "attackBonus": "",
        "critConfirmBonus": "",
        "damage": {
          "parts": [
            [
              "sizeRoll(1, 4, @size)",
              {
                "values": ["bludgeoning", "piercing"],
                "custom": ""
              }
            ]
          ],
          "critParts": [],
          "nonCritParts": []
        },
        "attackParts": [],
        "formulaicAttacks": {
          "count": {
            "formula": "min(3, ceil(@attributes.bab.total / 5) - 1)"
          },
          "bonus": {
            "formula": "@formulaicAttack * -5"
          },
          "label": null
        },
        "formula": "",
        "ability": {
          "attack": "str",
          "damage": "str",
          "damageMult": 1,
          "critRange": 19,
          "critMult": 2
        },
        "save": {
          "dc": "0",
          "type": "",
          "description": ""
        },
        "effectNotes": [],
        "attackNotes": [],
        "soundEffect": "",
        "powerAttack": {
          "multiplier": "",
          "damageBonus": 2,
          "critMultiplier": 1
        },
        "naturalAttack": {
          "primaryAttack": true,
          "secondary": {
            "attackBonus": "-5",
            "damageMult": 0.5
          }
        },
        "nonlethal": false,
        "usesAmmo": false,
        "spellEffect": "",
        "spellArea": "",
        "conditionals": [],
        "enh": {
          "value": null
        }
      }
    ],
    "uses": {
      "per": ""
    },
    "attackNotes": [],
    "effectNotes": [],
    "contextNotes": [],
    "links": {
      "children": []
    },
    "tag": "cestus",
    "scriptCalls": [],
    "weaponGroups": {
      "value": ["close", "monk"]
    }
  }
}
