{
  "_id": "7NyNPlXtkHaqlbMb",
  "name": "Groaning Sling Bullet",
  "type": "loot",
  "img": "systems/pf1/icons/items/weapons/bullet.png",
  "sort": 0,
  "flags": {},
  "system": {
    "description": {
      "value": "<p><strong>Source</strong>&nbsp;<em>Adventurer's Armory pg. 3</em></p>\n<h3 class=\"framing\"><span title=\"PFS Legal\">[PFS]</span> Statistics</h3>\n<p><strong>Cost</strong>&nbsp;2 gp&nbsp;<strong>Weight</strong>&nbsp;5 lbs.</p>\n<p><strong>Category</strong>&nbsp;Ammunition;&nbsp;<strong>Proficiency</strong>&nbsp;Ammunition</p>\n<h3 class=\"framing\">Description</h3>\n<p>These sling bullets are honeycombed with overlapping perforations that cause them to emit an eerie moan audible within 500 feet of their flight path.</p>"
    },
    "tags": [],
    "weight": {
      "value": 0.5
    },
    "price": 0.2,
    "equipped": false,
    "hp": {
      "max": 1,
      "value": 1
    },
    "hardness": 10,
    "unidentified": {
      "price": 0.2
    },
    "identifiedName": "Groaning Sling Bullet",
    "changes": [],
    "contextNotes": [],
    "links": {
      "children": []
    },
    "scriptCalls": [],
    "subType": "ammo",
    "extraType": "slingBullet"
  }
}
