{
  "_id": "rsDtJY6xEH7v7uLU",
  "name": "Horsechopper",
  "type": "weapon",
  "img": "systems/pf1/icons/items/weapons/horsechopper.png",
  "sort": 0,
  "flags": {},
  "system": {
    "description": {
      "value": "<p><strong>Source</strong> <em>Ultimate Equipment pg. 19</em>, <em>Pathfinder Campaign Setting pg. 209</em>, <em>Inner Sea World Guide pg. 290</em>, <em>Adventurer's Armory pg. 18</em>, <em>Advanced Race Guide pg. 118</em></p><h3 class=\"framing\"><span title=\"PFS Legal\">[PFS]</span> Statistics</h3><p><strong>Cost</strong> 10 gp <strong>Weight</strong> 12 lbs.</p><p><strong>Damage</strong> 1d8 (small), 1d10 (medium); <strong>Critical</strong> x3; <strong>Range</strong> -; <strong>Type</strong> P or S; <strong>Special</strong> reach, trip</p><p><strong>Category</strong> Two-Handed; <strong>Proficiency</strong> Martial</p><p><strong>Weapon Groups</strong> Polearms</p><h3 class=\"framing\">Description</h3><p>Crafted by goblins for battling horses, this weapon is essentially a long-handled halberd with an enlarged hook on the blade. Most horsechoppers are sized for Small creatures.</p>"
    },
    "tags": [],
    "weight": {
      "value": 12
    },
    "price": 10,
    "hardness": 10,
    "identifiedName": "Horsechopper",
    "changes": [],
    "actions": [
      {
        "_id": "e8wetbb5ychiho6f",
        "name": "Attack",
        "img": "systems/pf1/icons/items/weapons/horsechopper.png",
        "description": "",
        "tag": "",
        "activation": {
          "cost": 1,
          "type": "attack"
        },
        "unchainedAction": {
          "activation": {
            "cost": 1,
            "type": ""
          }
        },
        "duration": {
          "value": null,
          "units": "inst"
        },
        "target": {
          "value": ""
        },
        "range": {
          "value": "0",
          "units": "reach",
          "maxIncrements": 1,
          "minValue": null,
          "minUnits": ""
        },
        "uses": {
          "autoDeductChargesCost": "",
          "self": {
            "value": 0,
            "maxFormula": "",
            "per": null
          },
          "per": "",
          "value": 0,
          "maxFormula": ""
        },
        "measureTemplate": {
          "type": "",
          "size": "",
          "overrideColor": false,
          "customColor": "",
          "overrideTexture": false,
          "customTexture": ""
        },
        "attackName": "",
        "actionType": "mwak",
        "attackBonus": "",
        "critConfirmBonus": "",
        "damage": {
          "parts": [
            [
              "sizeRoll(1, 10, @size)",
              {
                "values": ["piercing", "slashing"],
                "custom": ""
              }
            ]
          ],
          "critParts": [],
          "nonCritParts": []
        },
        "attackParts": [],
        "formulaicAttacks": {
          "count": {
            "formula": "min(3, ceil(@attributes.bab.total / 5) - 1)"
          },
          "bonus": {
            "formula": "@formulaicAttack * -5"
          },
          "label": null
        },
        "formula": "",
        "ability": {
          "attack": "str",
          "damage": "str",
          "damageMult": 1.5,
          "critRange": 20,
          "critMult": 3
        },
        "save": {
          "dc": "0",
          "type": "",
          "description": ""
        },
        "effectNotes": [],
        "attackNotes": [],
        "soundEffect": "",
        "powerAttack": {
          "multiplier": "",
          "damageBonus": 2,
          "critMultiplier": 1
        },
        "naturalAttack": {
          "primaryAttack": true,
          "secondary": {
            "attackBonus": "-5",
            "damageMult": 0.5
          }
        },
        "nonlethal": false,
        "usesAmmo": false,
        "spellEffect": "",
        "spellArea": "",
        "conditionals": [],
        "enh": {
          "value": null
        }
      }
    ],
    "uses": {
      "per": ""
    },
    "attackNotes": [],
    "effectNotes": [],
    "contextNotes": [],
    "links": {
      "children": []
    },
    "tag": "horsechopper",
    "scriptCalls": [],
    "held": "2h",
    "weaponGroups": {
      "value": []
    },
    "subType": "martial",
    "weaponSubtype": "2h"
  }
}
