{
  "_id": "oXoCHa3VES4B98oz",
  "name": "Lucerne Hammer",
  "type": "weapon",
  "img": "systems/pf1/icons/items/weapons/hammer-lucerne.PNG",
  "sort": 0,
  "flags": {},
  "system": {
    "description": {
      "value": "<p><strong>Source</strong> <em>Ultimate Equipment pg. 19</em>, <em>Adventurer's Armory pg. 4</em>, <em>Advanced Player's Guide pg. 179</em></p><h3 class=\"framing\"><span title=\"PFS Legal\">[PFS]</span> Statistics</h3><p><strong>Cost</strong> 15 gp <strong>Weight</strong> 12 lbs.</p><p><strong>Damage</strong> 1d10 (small), 1d12 (medium); <strong>Critical</strong> x2; <strong>Range</strong> -; <strong>Type</strong> B or P; <strong>Special</strong> brace, reach, see text</p><p><strong>Category</strong> Two-Handed; <strong>Proficiency</strong> Martial</p><p><strong>Weapon Groups</strong> Polearms</p><h3 class=\"framing\">Description</h3><p>This polearm has both a pronged hammer head for crushing blows and a spiked head for piercing and peeling armor. The long haft allows the wielder to put amazing force behind the head of this weapon. You gain a +2 bonus on combat maneuver checks to sunder medium or heavy armor with a lucerne hammer.</p>"
    },
    "tags": [],
    "weight": {
      "value": 12
    },
    "price": 15,
    "hardness": 10,
    "identifiedName": "Lucerne Hammer",
    "changes": [],
    "actions": [
      {
        "_id": "oedqn3n666dneh82",
        "name": "Attack",
        "img": "systems/pf1/icons/items/weapons/hammer-lucerne.PNG",
        "description": "",
        "tag": "",
        "activation": {
          "cost": 1,
          "type": "attack"
        },
        "unchainedAction": {
          "activation": {
            "cost": 1,
            "type": ""
          }
        },
        "duration": {
          "value": null,
          "units": "inst"
        },
        "target": {
          "value": ""
        },
        "range": {
          "value": "0",
          "units": "reach",
          "maxIncrements": 1,
          "minValue": null,
          "minUnits": ""
        },
        "uses": {
          "autoDeductChargesCost": "",
          "self": {
            "value": 0,
            "maxFormula": "",
            "per": null
          },
          "per": "",
          "value": 0,
          "maxFormula": ""
        },
        "measureTemplate": {
          "type": "",
          "size": "",
          "overrideColor": false,
          "customColor": "",
          "overrideTexture": false,
          "customTexture": ""
        },
        "attackName": "",
        "actionType": "mwak",
        "attackBonus": "",
        "critConfirmBonus": "",
        "damage": {
          "parts": [
            [
              "sizeRoll(1, 12, @size)",
              {
                "values": ["bludgeoning", "piercing"],
                "custom": ""
              }
            ]
          ],
          "critParts": [],
          "nonCritParts": []
        },
        "attackParts": [],
        "formulaicAttacks": {
          "count": {
            "formula": "min(3, ceil(@attributes.bab.total / 5) - 1)"
          },
          "bonus": {
            "formula": "@formulaicAttack * -5"
          },
          "label": null
        },
        "formula": "",
        "ability": {
          "attack": "str",
          "damage": "str",
          "damageMult": 1.5,
          "critRange": 20,
          "critMult": 2
        },
        "save": {
          "dc": "0",
          "type": "",
          "description": ""
        },
        "effectNotes": [],
        "attackNotes": [],
        "soundEffect": "",
        "powerAttack": {
          "multiplier": "",
          "damageBonus": 2,
          "critMultiplier": 1
        },
        "naturalAttack": {
          "primaryAttack": true,
          "secondary": {
            "attackBonus": "-5",
            "damageMult": 0.5
          }
        },
        "nonlethal": false,
        "usesAmmo": false,
        "spellEffect": "",
        "spellArea": "",
        "conditionals": [],
        "enh": {
          "value": null
        }
      }
    ],
    "uses": {
      "per": ""
    },
    "attackNotes": [],
    "effectNotes": [],
    "contextNotes": [],
    "links": {
      "children": []
    },
    "tag": "lucerneHammer",
    "scriptCalls": [],
    "held": "2h",
    "weaponGroups": {
      "value": ["polearms"]
    },
    "subType": "martial",
    "weaponSubtype": "2h"
  }
}
