{
  "_id": "7Bxjw0baCyDmSWjv",
  "name": "Silver Firearm Bullet",
  "type": "loot",
  "img": "systems/pf1/icons/items/weapons/bullet.png",
  "sort": 0,
  "flags": {},
  "system": {
    "description": {
      "value": "<p><strong>Source</strong> <em>Ultimate Combat pg. 141</em></p><h3 class=\"framing\"><span title=\"PFS Legal\">[PFS]</span> Statistics</h3><p><strong>Cost</strong> 25 gp <strong>Weight</strong> -</p><p><strong>Category</strong> Ammunition; <strong>Proficiency</strong> Exotic</p><h3 class=\"framing\">Description</h3><p>This ammunition is specifically crafted from silver, and though nonmagical, it is particularly detrimental to lycanthropes, automatically confirming any critical threats against such creatures. A firearm that is shooting a silver bullet takes a -1 penalty on damage rolls (with a minimum of 1 point of damage).</p>"
    },
    "tags": [],
    "price": 25,
    "equipped": false,
    "hp": {
      "max": 1,
      "value": 1
    },
    "hardness": 5,
    "identifiedName": "Silver Firearm Bullet",
    "changes": [],
    "contextNotes": [],
    "links": {
      "children": []
    },
    "tag": "silverFirearmBullet",
    "scriptCalls": [],
    "subType": "ammo",
    "extraType": "gunBullet"
  }
}
