{
  "_id": "uKUGHNEYBebWWqIP",
  "name": "Splintercloud Arrow",
  "type": "loot",
  "img": "systems/pf1/icons/items/weapons/arrow-special.PNG",
  "sort": 0,
  "flags": {},
  "system": {
    "description": {
      "value": "<p><strong>Source</strong> <em>Alchemy Manual pg. 21</em>, <em>Elves of Golarion pg. 23</em><br /><strong>Price</strong> 25 gp; <strong>Weight</strong> -</p>\n<h2 class=\"framing\">Description</h2>\n<p>The shaft of this arrow is formed from numerous small bone fragments that have been painstakingly glued together.</p>\n<p>On a successful hit, a splintercloud arrow deals normal damage as it tears itself apart, creating a burst of razorsharp bone shards centered on the target.</p>\n<p>These shards deal <strong>1d3 points of piercing damage</strong> to the target and any creatures adjacent to the target (Reflex DC 18 negates).</p>\n<h2 class=\"framing\">Alchemical Recipe</h2>\n<p><strong>Recipe</strong> (28 myrrh + 30 salt)/earth; <strong>Craft</strong> 25<br /><strong>Time</strong> 10 minutes; <strong>Tools</strong> -; <strong>Type</strong> alchemical weapon</p>"
    },
    "tags": [],
    "price": 25,
    "equipped": false,
    "hp": {
      "max": 1,
      "value": 1
    },
    "hardness": 5,
    "identifiedName": "Splintercloud Arrow",
    "changes": [],
    "contextNotes": [],
    "links": {
      "children": []
    },
    "tag": "splintercloudArrow",
    "scriptCalls": [],
    "subType": "ammo",
    "extraType": "arrow"
  }
}
