{
  "_id": "bxbdOo9U1g2pVf6a",
  "name": "Throwing Arrow",
  "type": "loot",
  "img": "systems/pf1/icons/items/weapons/arrow-special.PNG",
  "sort": 0,
  "flags": {},
  "system": {
    "description": {
      "value": "<p><strong>Source</strong> <em>Ranged Tactics Toolbox pg. 19</em></p>\n<h3 class=\"framing\"><span title=\"PFS Legal\">[PFS]</span> Statistics</h3>\n<p><strong>Cost</strong> 5 sp <strong>Weight</strong> 1/2 lb.</p>\n<p><strong>Category</strong> Ammunition; <strong>Proficiency</strong> Ammunition</p>\n<h3 class=\"framing\">Description</h3>\n<p>Too long to use in a bow, the throwing arrow has no nock at the tail. Instead, it has a notch ahead of the fletching where a throwing arrow cord can be attached (see above).</p>\n<p>If thrown without the use of a cord, treat a throwing arrow as a dart.</p>"
    },
    "tags": [],
    "weight": {
      "value": 0.5
    },
    "price": 0.5,
    "equipped": false,
    "hp": {
      "max": 1,
      "value": 1
    },
    "hardness": 5,
    "unidentified": {
      "price": 0.5
    },
    "identifiedName": "Throwing Arrow",
    "changes": [],
    "contextNotes": [],
    "links": {
      "children": []
    },
    "tag": "throwingArrow",
    "scriptCalls": [],
    "subType": "ammo"
  }
}
