{
  "_id": "1Jmh8NgyCJFL7C5Q",
  "name": "Weighted Spear",
  "type": "weapon",
  "img": "systems/pf1/icons/items/weapons/spear-weighted.png",
  "sort": 0,
  "flags": {},
  "system": {
    "description": {
      "value": "<p><strong>Source</strong> <em>Melee Tactics Toolbox pg. 19</em></p><h3 class=\"framing\"><span title=\"PFS Legal\">[PFS]</span> Statistics</h3><p><strong>Cost</strong> 10 gp <strong>Weight</strong> 8 lbs.</p><p><strong>Damage</strong> 1d6/1d4 (small), 1d8/1d6 (medium); <strong>Critical</strong> x3/x2; <strong>Range</strong> -; <strong>Type</strong> B or P; <strong>Special</strong> brace, double</p><p><strong>Category</strong> Two-Handed; <strong>Proficiency</strong> Simple</p><p><strong>Weapon Groups</strong> Double; Spears</p><h3 class=\"framing\">Description</h3><p>This pole has a spear head at one end and a mace head at the other. It can be wielded like a standard spear (though it isn't balanced for throwing), or it can be used as a double weapon, alternately thrusting and bashing.</p>"
    },
    "tags": [],
    "weight": {
      "value": 8
    },
    "price": 10,
    "hardness": 10,
    "identifiedName": "Weighted Spear",
    "changes": [],
    "actions": [
      {
        "_id": "ew4lffe60yewawks",
        "name": "Attack",
        "img": "systems/pf1/icons/items/weapons/spear-weighted.png",
        "description": "",
        "tag": "",
        "activation": {
          "cost": 1,
          "type": "attack"
        },
        "unchainedAction": {
          "activation": {
            "cost": 1,
            "type": ""
          }
        },
        "duration": {
          "value": null,
          "units": "inst"
        },
        "target": {
          "value": ""
        },
        "range": {
          "value": "0",
          "units": "melee",
          "maxIncrements": 1,
          "minValue": null,
          "minUnits": ""
        },
        "uses": {
          "autoDeductChargesCost": "",
          "self": {
            "value": 0,
            "maxFormula": "",
            "per": null
          },
          "per": "",
          "value": 0,
          "maxFormula": ""
        },
        "measureTemplate": {
          "type": "",
          "size": "",
          "overrideColor": false,
          "customColor": "",
          "overrideTexture": false,
          "customTexture": ""
        },
        "attackName": "",
        "actionType": "mwak",
        "attackBonus": "",
        "critConfirmBonus": "",
        "damage": {
          "parts": [
            [
              "sizeRoll(1, 8, @size)",
              {
                "values": ["bludgeoning", "piercing"],
                "custom": ""
              }
            ]
          ],
          "critParts": [],
          "nonCritParts": []
        },
        "attackParts": [],
        "formulaicAttacks": {
          "count": {
            "formula": "min(3, ceil(@attributes.bab.total / 5) - 1)"
          },
          "bonus": {
            "formula": "@formulaicAttack * -5"
          },
          "label": null
        },
        "formula": "",
        "ability": {
          "attack": "str",
          "damage": "str",
          "damageMult": 1.5,
          "critRange": 20,
          "critMult": 0
        },
        "save": {
          "dc": "0",
          "type": "",
          "description": ""
        },
        "effectNotes": [],
        "attackNotes": [],
        "soundEffect": "",
        "powerAttack": {
          "multiplier": "",
          "damageBonus": 2,
          "critMultiplier": 1
        },
        "naturalAttack": {
          "primaryAttack": true,
          "secondary": {
            "attackBonus": "-5",
            "damageMult": 0.5
          }
        },
        "nonlethal": false,
        "usesAmmo": false,
        "spellEffect": "",
        "spellArea": "",
        "conditionals": [],
        "enh": {
          "value": null
        }
      }
    ],
    "uses": {
      "per": ""
    },
    "attackNotes": [],
    "effectNotes": [],
    "contextNotes": [],
    "links": {
      "children": []
    },
    "tag": "weightedSpear",
    "scriptCalls": [],
    "held": "2h",
    "weaponGroups": {
      "value": ["double", "spears"]
    },
    "weaponSubtype": "2h"
  }
}
