{
  "_id": "AGATY0QneZ4gvvSc",
  "name": "Whistling Arrow",
  "type": "loot",
  "img": "systems/pf1/icons/items/weapons/arrow.PNG",
  "sort": 0,
  "flags": {},
  "system": {
    "description": {
      "value": "<p><strong>Source</strong>&nbsp;<em>Ultimate Equipment pg. 22</em>,&nbsp;<em>Adventurer's Armory pg. 2</em>,&nbsp;<em>Ultimate Combat pg. 130</em></p>\n<h3 class=\"framing\"><span title=\"PFS Legal\">[PFS]</span> Statistics</h3>\n<p><strong>Cost</strong>&nbsp;2 gp&nbsp;<strong>Weight</strong>&nbsp;3 lbs.</p>\n<p><strong>Category</strong>&nbsp;Ammunition;&nbsp;<strong>Proficiency</strong>&nbsp;Ammunition</p>\n<h3 class=\"framing\">Description</h3>\n<p>These arrows come with specially designed grooves and fletching that cause them to emit a loud keening sound audible within 500 feet of their flight path.</p>\n<p>They are sold in quantities of 20.</p>"
    },
    "tags": [],
    "quantity": 20,
    "weight": {
      "value": 0.15
    },
    "price": 0.1,
    "equipped": false,
    "hp": {
      "max": 1,
      "value": 1
    },
    "hardness": 5,
    "unidentified": {
      "price": 0.1
    },
    "identifiedName": "Whistling Arrow",
    "changes": [],
    "contextNotes": [],
    "links": {
      "children": []
    },
    "scriptCalls": [],
    "subType": "ammo",
    "extraType": "arrow"
  }
}
