{
  "_id": "qiaukendihhsvwod",
  "name": "Alchemist's Kindness",
  "type": "loot",
  "img": "systems/pf1/icons/items/inventory/dice.jpg",
  "sort": 0,
  "flags": {},
  "system": {
    "description": {
      "value": "\r\n<p class=\"source\"><b>Source</b> <em>PZO1115</em></p>\r\n<p>Favored by young rakes and others of means, this is a crystalline powder resembling salt. Mixed with water, it makes a fizzing cocktail that eliminates the effects of a hangover within 10 minutes of drinking it.</p>\r\n"
    },
    "tags": [],
    "price": 1,
    "equipped": false,
    "changes": [],
    "contextNotes": [],
    "links": {
      "children": []
    },
    "scriptCalls": [],
    "subType": "gear"
  }
}
