{
  "_id": "RCfZR9SG7jgJXfRl",
  "name": "Amulet of Natural Armor +4",
  "type": "equipment",
  "img": "systems/pf1/icons/items/jewelry/pendant-green.jpg",
  "sort": 0,
  "flags": {},
  "system": {
    "description": {
      "value": "<p>This amulet, usually containing some type of magically preserved monster hide or other natural armor—such as bone, horn, carapace, or beast scales—toughens the wearer’s body and flesh, giving him an&nbsp;<em>enhancement bonus</em>&nbsp;to his&nbsp;<em>natural armor</em>&nbsp;from +1 to +5, depending on the kind of amulet.</p>"
    },
    "tags": [],
    "price": 32000,
    "size": "fine",
    "resizing": true,
    "unidentified": {
      "name": "Amulet"
    },
    "identifiedName": "Amulet of Natural Armor +4",
    "cl": 12,
    "aura": {
      "school": "trs"
    },
    "changes": [
      {
        "_id": "fwwh07nv",
        "formula": "4",
        "operator": "add",
        "subTarget": "nac",
        "modifier": "enh",
        "priority": 0,
        "value": 0,
        "target": "ac"
      }
    ],
    "contextNotes": [],
    "actions": [],
    "attackNotes": [],
    "effectNotes": [],
    "links": {
      "children": [],
      "charges": []
    },
    "scriptCalls": [],
    "subType": "misc",
    "equipmentSubtype": "wondrous",
    "armor": {
      "dex": ""
    },
    "slot": "neck"
  }
}
