{
  "_id": "emjydnzghsuevqbl",
  "name": "Bag, Bear",
  "type": "loot",
  "img": "systems/pf1/icons/items/inventory/dice.jpg",
  "sort": 0,
  "flags": {},
  "system": {
    "description": {
      "value": "\r\n<p class=\"source\"><b>Source</b> <em>PZO1121</em></p>\r\n<p>These sacks each include a 20-foot-long rope, from which they may be easily suspended from a tree limb or similar anchor point. Placing foodstuffs or fragile materials in hanging sacks is often considered a basic precaution when camping in the wild, to prevent <em>bears</em> and other predators from rooting through the sack's contents.</p>\r\n\r\n"
    },
    "tags": [],
    "weight": {
      "value": 20
    },
    "price": 80,
    "equipped": false,
    "changes": [],
    "contextNotes": [],
    "links": {
      "children": []
    },
    "scriptCalls": [],
    "subType": "gear"
  }
}
