{
  "_id": "bjrlxzytqzpfagsi",
  "name": "Beast Scent",
  "type": "loot",
  "img": "systems/pf1/icons/items/inventory/dice.jpg",
  "sort": 0,
  "flags": {},
  "system": {
    "description": {
      "value": "\r\n<p class=\"source\"><b>Source</b> <em>PZO9211</em></p>\r\n<p>This is a mixture of scent gland extracts and aromatic herbs that serves as both attractor and olfactory camouflage. It masks the natural scent of a creature with an appealing if pungent musk that is alluring to most animals. Beast-scent provides a +2 <em>circumstance bonus</em> to <em>Handle Animal</em> and <em>wild empathy</em> checks and a -5 penalty to attempts to track the wearer by his original scent. If the tracking creature is following the smell of beast-scent itself, track checks are made at a +10 <em>circumstance bonus</em> instead. A single vial of beast-scent masks the scent of one Medium creature or two smaller creatures; larger creatures require proportionally more to gain the item's benefits. Beast-scent is rendered inert after 1 hour of exposure to air. Applying a vial is a <em>full-round action</em> that provokes <em>attacks of opportunity</em>.</p>\r\n<p><b>Create</b>: <em>Craft</em> (alchemy) DC 25</p>\r\n"
    },
    "tags": [],
    "weight": {
      "value": 0.5
    },
    "price": 75,
    "equipped": false,
    "changes": [],
    "contextNotes": [],
    "links": {
      "children": []
    },
    "scriptCalls": [],
    "subType": "gear"
  }
}
