{
  "_id": "krvuuxlzxjthsjnb",
  "name": "Bellows",
  "type": "loot",
  "img": "systems/pf1/icons/items/inventory/dice.jpg",
  "sort": 0,
  "flags": {},
  "system": {
    "description": {
      "value": "\r\n<p><b>Price</b> 1 gp; <b>Weight</b> 3 lbs.</p>\r\n<p>Bellows are useful for starting fires, providing a +1 <em>circumstance bonus</em> on <em>Survival</em> checks to start or maintain fires.</p>\r\n\r\n"
    },
    "tags": [],
    "weight": {
      "value": 3
    },
    "price": 1,
    "equipped": false,
    "changes": [],
    "contextNotes": [],
    "links": {
      "children": []
    },
    "scriptCalls": [],
    "subType": "gear"
  }
}
