{
  "_id": "5ZivT8vBANjQLueE",
  "name": "Belt of Mighty Constitution +2",
  "type": "equipment",
  "img": "systems/pf1/icons/items/equipment/belt-plain.jpg",
  "sort": 0,
  "flags": {},
  "system": {
    "description": {
      "value": "<p>This belt’s golden buckle depicts a bear’s head. The belt grants the wearer an&nbsp;<em>enhancement bonus</em>&nbsp;to&nbsp;<em>Constitution</em>&nbsp;of +2, +4, or +6. Treat this as a temporary ability bonus for the first 24 hours the belt is worn.</p>",
      "unidentified": "<p>This belt’s golden buckle depicts a bear’s head.</p>"
    },
    "tags": [],
    "weight": {
      "value": 1
    },
    "price": 4000,
    "resizing": true,
    "unidentified": {
      "name": "Belt"
    },
    "identifiedName": "Belt of Mighty Constitution +2",
    "cl": 8,
    "aura": {
      "school": "trs"
    },
    "changes": [
      {
        "_id": "ra3bw4dw",
        "formula": "2",
        "operator": "add",
        "subTarget": "con",
        "modifier": "enh",
        "priority": 0,
        "value": 0,
        "target": "ability"
      }
    ],
    "contextNotes": [],
    "actions": [],
    "attackNotes": [],
    "effectNotes": [],
    "links": {
      "children": [],
      "charges": []
    },
    "scriptCalls": [],
    "subType": "misc",
    "equipmentSubtype": "wondrous",
    "slot": "belt"
  }
}
