{
  "_id": "ibzljshqgpxkhtwq",
  "name": "Black Fester",
  "type": "loot",
  "img": "systems/pf1/icons/items/inventory/dice.jpg",
  "sort": 0,
  "flags": {},
  "system": {
    "description": {
      "value": "\r\n<p class=\"source\"><b>Source</b> <em>PZO1121</em></p>\r\n<p>This black paste is often applied on <em>orc</em> weapons before going on raids to stymie an enemy's healing magic. Like a poison, black fester stays on a weapon until the first time it strikes an opponent. It remains in the target's body for 1 hour. A creature exposed to black fester resists magical healing; a creature trying to magically heal the target must make a DC 10 <em>caster level</em> check to restore any <em>hit points</em> to the target.</p>\r\n"
    },
    "tags": [],
    "price": 30,
    "equipped": false,
    "changes": [],
    "contextNotes": [],
    "links": {
      "children": []
    },
    "scriptCalls": [],
    "subType": "gear"
  }
}
