{
  "_id": "xqitaldtgoukvjbd",
  "name": "Block And Tackle",
  "type": "loot",
  "img": "systems/pf1/icons/items/inventory/dice.jpg",
  "sort": 0,
  "flags": {},
  "system": {
    "description": {
      "value": "\r\n<p><b>Price</b> 5 gp; <b>Weight</b> 5 lbs.</p>\r\n<p>Whether it is used to hoist treasure from a pit or move supplies, a simple block-and-tackle pulley, when it is properly secured, adds a +5 circumstance bonus on Strength checks to lift heavy objects. Securing the pulley requires 1 minute.</p>\r\n\r\n"
    },
    "tags": [],
    "weight": {
      "value": 5
    },
    "price": 5,
    "equipped": false,
    "changes": [],
    "contextNotes": [],
    "links": {
      "children": []
    },
    "scriptCalls": [],
    "subType": "gear"
  }
}
