{
  "_id": "vzwbifqupjkgjerc",
  "name": "Brooch",
  "type": "loot",
  "img": "systems/pf1/icons/items/inventory/dice.jpg",
  "sort": 0,
  "flags": {},
  "system": {
    "description": {
      "value": " \n<p><b>Price</b> varies; <b>Weight</b> -</p> \n<p>This is a small ornament used to hold an element of clothing, such as a cloak or cape, in place. Many organizations provide special brooches as a symbol of membership or to honor a special achievement.</p> \n"
    },
    "tags": [],
    "equipped": false,
    "changes": [],
    "contextNotes": [],
    "links": {
      "children": []
    },
    "scriptCalls": [],
    "subType": "gear"
  }
}
