{
  "_id": "gvZCNwBTcBtShuRZ",
  "name": "Chocolate (Bar)",
  "type": "loot",
  "img": "systems/pf1/icons/items/inventory/dice.jpg",
  "sort": 0,
  "flags": {},
  "system": {
    "description": {
      "value": "<div><strong>Source</strong> <a class=\"external-link\" href=\"http://paizo.com/products/btpy8tmc?Pathfinder-Roleplaying-Game-Ultimate-Equipment\" target=\"_blank\" rel=\"noopener\"><em>Ultimate Equipment pg. 95</em></a></div>\n<div>\n<div>&nbsp;</div>\n<div>This dark, bitter treat can be consumed as a solid or melted and added to a beverage such as milk. In some lands it is mixed with sugar or chilies.</div>\n</div>"
    },
    "tags": [],
    "weight": {
      "value": 0.5
    },
    "price": 5,
    "equipped": false,
    "identifiedName": "Chocolate (Bar)",
    "changes": [],
    "contextNotes": [],
    "links": {
      "children": []
    },
    "scriptCalls": []
  }
}
