{
  "_id": "vgmborxfmbgrgslc",
  "name": "Cosmogram",
  "type": "loot",
  "img": "systems/pf1/icons/items/inventory/dice.jpg",
  "sort": 0,
  "flags": {},
  "system": {
    "description": {
      "value": "\r\n<p class=\"source\"><b>Source</b>: <em>PZO9449</em></p>\r\n<p><b>Price</b> 200 gp; <b>Weight</b> 1/2 lbs.</p>\r\n<p>This eldritch chart describes part of the unfathomably vast shape of the physical universe and the subtler motions of the stars. A cosmogram grants a +1 <em>circumstance bonus</em> on <em>Knowledge</em> (geography) checks relating to stars and on <em>Survival</em> checks to navigate the void of space between star systems. A cosmogram can be consulted while using an <em>orrery</em> as a focus for <a class=\"spell\" href=\"https://www.d20pfsrd.com/magic/all-spells/a/augury\"><i>augury</i></a>. Doing so increases the chance of a successful reading by 2%.</p>\r\n\r\n"
    },
    "tags": [],
    "weight": {
      "value": 0.5
    },
    "price": 200,
    "equipped": false,
    "changes": [],
    "contextNotes": [],
    "links": {
      "children": []
    },
    "scriptCalls": [],
    "subType": "gear"
  }
}
