{
  "_id": "ywiXZPKEZYU9JSXF",
  "name": "Cryptography book",
  "type": "loot",
  "img": "systems/pf1/icons/items/inventory/dice.jpg",
  "sort": 0,
  "flags": {},
  "system": {
    "description": {
      "value": "<p>Source&nbsp;<a href=\"http://paizo.com/products/btpy9ghc?Pathfinder-Player-Companion-Heroes-of-the-Streets\" target=\"_blank\" rel=\"noopener\">Heroes of the Streets pg. 12</a><br>Price&nbsp;100 gp;&nbsp;Weight&nbsp;2 lbs.<br>Category&nbsp;Adventuring Gear</p>\n<h3>Description</h3>\n<p>You can consult this book while attempting a Linguistics check to understand or create a coded message; doing so makes the task take 10 times longer than normal but grants you a +2 circumstance bonus on your check. The DC to decipher a message encoded with a cypher you invent is equal to the result of the Linguistics check you roll when creating the cypher. You can instead use one of the dozen example cyphers in the book, in which case the DC to understand the message without the cypher is 25, and any characters attempting to decipher the message do so automatically if they consult a copy of the same book.</p>"
    },
    "tags": [],
    "weight": {
      "value": 2
    },
    "price": 100,
    "equipped": false,
    "identifiedName": "Cryptography book",
    "changes": [],
    "contextNotes": [],
    "links": {
      "children": []
    },
    "scriptCalls": [],
    "subType": "gear"
  }
}
