{
  "_id": "uimflgyotrpghcna",
  "name": "Darkwood",
  "type": "loot",
  "img": "systems/pf1/icons/items/inventory/dice.jpg",
  "sort": 0,
  "flags": {},
  "system": {
    "description": {
      "value": "\r\n<p><b>Price</b> 2 gp; <b>Weight</b> -</p>\r\n<p>The bark of the darkwood tree is useful in numerous alchemical applications, especially those that require a light but strong foundation.</p>\r\n<p class=\"header\">Alchemical Power Component</p>\r\n<p><b>Doses</b> 5 (10 gp); <b>Spells</b> creation subschool</p>\r\n<p>Spells of the creation subschool are cast at +1 caster level for the purpose of all effects.</p>\r\n"
    },
    "tags": [],
    "equipped": false,
    "changes": [],
    "contextNotes": [],
    "links": {
      "children": []
    },
    "scriptCalls": [],
    "subType": "gear"
  }
}
