{
  "_id": "rmkzxxrkxdqykzwm",
  "name": "Eyeglasses",
  "type": "loot",
  "img": "systems/pf1/icons/items/inventory/dice.jpg",
  "sort": 0,
  "flags": {},
  "system": {
    "description": {
      "value": " \n<p class=\"source\"><b>Source</b> <em>PZO9410</em></p> \n<p>Also known as spectacles, eyeglasses compensate for poor vision or magnify small details.</p> \n"
    },
    "tags": [],
    "price": 5,
    "equipped": false,
    "changes": [],
    "contextNotes": [],
    "links": {
      "children": []
    },
    "scriptCalls": [],
    "subType": "gear"
  }
}
