{
  "_id": "xrcgztyazquxrdfz",
  "name": "Firewood",
  "type": "loot",
  "img": "systems/pf1/icons/items/inventory/dice.jpg",
  "sort": 0,
  "flags": {},
  "system": {
    "description": {
      "value": "<h4><span id=\"Firewood\"><a name=\"TOC-Firewood\"></a>Firewood</span></h4>\r\n<p class=\"source\"><b>Source</b> <em>PZO1110</em></p>\r\n<p><b>Price (per day)</b> 1 cp; <b>Weight</b> 20 lbs.</p>\r\n<p>This bundle of dry wood includes twigs and logs.</p>\r\n"
    },
    "tags": [],
    "weight": {
      "value": 20
    },
    "equipped": false,
    "changes": [],
    "contextNotes": [],
    "links": {
      "children": []
    },
    "scriptCalls": [],
    "subType": "gear"
  }
}
