{
  "_id": "zosmyhxryrpqcrlk",
  "name": "Fishing Tackle",
  "type": "loot",
  "img": "systems/pf1/icons/items/inventory/dice.jpg",
  "sort": 0,
  "flags": {},
  "system": {
    "description": {
      "value": "<h4><span id=\"Fishing_Tackle\"><a name=\"TOC-Fishing-Tackle\"></a>Fishing Tackle</span></h4>\r\n<p class=\"source\"><b>Source</b> <em>PZO1110</em></p>\r\n<p>More than a mere fishhook, this set includes birch poles, silk line, sinkers, hooks, lures, and tackle box. It grants a +1 <em>circumstance bonus</em> on <em>Survival</em> checks when gathering food around bodies of water that contain fish.</p>\r\n<p><b>Price</b>: 20 gp; <b>Weight</b>: 5 lb.</p>\r\n"
    },
    "tags": [],
    "price": 20,
    "equipped": false,
    "changes": [],
    "contextNotes": [],
    "links": {
      "children": []
    },
    "scriptCalls": [],
    "subType": "gear"
  }
}
