{
  "_id": "bhbwogneeafjqsee",
  "name": "Fury Drops",
  "type": "loot",
  "img": "systems/pf1/icons/items/inventory/dice.jpg",
  "sort": 0,
  "flags": {},
  "system": {
    "description": {
      "value": "\r\n<p class=\"source\"><b>Source</b> <em>PPZO9410</em></p>\r\n<p><b>Price</b> 50 gp; <b>Weight</b> -</p>\r\n<p>Anointing a creature's eyes with a dose of fury drops causes it to immediately fly into a rage for 1d6 rounds, granting it a +2 <em>alchemical bonus</em> to <em>Strength</em> and <em>Constitution</em>, a +1 <em>alchemical bonus</em> on <em>Will</em> saves, and a -2 penalty to AC. The effect is otherwise identical to a <em>barbarian's</em> <em>rage</em>, and creatures are <em>fatigued</em> at the end of the rage. Only creatures with an <em>Intelligence</em> score of 1 or 2 can be affected by fury drops.</p>\r\n"
    },
    "tags": [],
    "price": 50,
    "equipped": false,
    "changes": [],
    "contextNotes": [],
    "links": {
      "children": []
    },
    "scriptCalls": [],
    "subType": "gear"
  }
}
