{
  "_id": "cejaaqjlwwfmnrmw",
  "name": "Heritage Book",
  "type": "loot",
  "img": "systems/pf1/icons/items/inventory/dice.jpg",
  "sort": 0,
  "flags": {},
  "system": {
    "description": {
      "value": "\r\n<p><b>Heritage Book</b> This collection of genealogical tables, descriptions of common traits found in particular noble families, heraldry, scurrilous rumors, and ancestral deeds provides readers with a great deal of insight into the aristocracy. Consulting this book grants a +2 circumstance bonus on <em>Knowledge</em> (nobility) checks. <b>Price</b> 50 gp; <b>Weight</b> 2 lbs.</p>\r\n<p><b>Journal</b> This is a blank, lightweight book with an oilskin cover. It has 50 paper pages. <b>Price</b> 10 gp; <b>Weight</b> 1 lb.</p>\r\n"
    },
    "tags": [],
    "weight": {
      "value": 2
    },
    "price": 50,
    "equipped": false,
    "changes": [],
    "contextNotes": [],
    "links": {
      "children": []
    },
    "scriptCalls": [],
    "subType": "gear"
  }
}
