{
  "_id": "iclfnaawjjxuvupa",
  "name": "Incense",
  "type": "loot",
  "img": "systems/pf1/icons/items/inventory/dice.jpg",
  "sort": 0,
  "flags": {},
  "system": {
    "description": {
      "value": "\r\n<p class=\"source\"><b>Source</b> <em>PZO1121</em></p>\r\n<p>This aromatic resin, imbued with fragrant oils, is often formed into sticks, cones, or balls and burned in ceremonies or during meditation. A piece of incense burns for 1 hour.</p>\r\n"
    },
    "tags": [],
    "weight": {
      "value": 1
    },
    "price": 10,
    "equipped": false,
    "identifiedName": "Incense",
    "changes": [],
    "contextNotes": [],
    "links": {
      "children": []
    },
    "scriptCalls": [],
    "subType": "gear"
  }
}
