{
  "_id": "ekdqslebizhgmrbq",
  "name": "Ink, Light Fire",
  "type": "loot",
  "img": "systems/pf1/icons/items/inventory/dice.jpg",
  "sort": 0,
  "flags": {},
  "system": {
    "description": {
      "value": "\r\n<p class=\"source\"><b>Source</b> <em>PZO1129</em></p>\r\n<p><b>Price</b> 40 gp; <b>Weight</b> -</p>\r\n<p>This alchemically infused ink ensures secret messages destroy themselves after being read. If light strikes the ink after it has dried, chemicals cause it to spontaneously combust within about a minute. The combustion is small-not significant enough to ignite anything but paper. Ink used on other materials such as stone or wood simply vanishes, leaving no trace of the writing. A <em>vial</em> of this <em>ink</em> holds enough to write 10 brief messages of no more than 50 words each.</p>\r\n<p>Light fire ink can be created with a DC 25 Craft (alchemy) check.</p>\r\n"
    },
    "tags": [],
    "price": 40,
    "equipped": false,
    "changes": [],
    "contextNotes": [],
    "links": {
      "children": []
    },
    "scriptCalls": [],
    "subType": "gear"
  }
}
