{
  "_id": "xdzgeyaejzeyilhn",
  "name": "Kit, Trickster's",
  "type": "loot",
  "img": "systems/pf1/icons/items/inventory/dice.jpg",
  "sort": 0,
  "flags": {},
  "system": {
    "description": {
      "value": "\r\n<p class=\"source\"><b>Source</b>: <em>PZO9434</em></p>\r\n<p><b>Price</b> 474 gp; <b>Weight</b> 23 lbs.</p>\r\n<p>For those brave enough to match wits with draconic intellects, this kit can help a dragonslayer sneak into or out of a <em>dragon's</em> lair or trick a <em>dragon</em> should the interloper be discovered.</p>\r\n<p>It includes a pot of alchemical grease, a board game, five candles, a candle lamp, a common snorkel, fake footprint shoes, a <em>grappling</em> hook, a mirror, a periscope, a <em>potion of</em> <em>eagle's splendor</em>, two sacks, a <em>scent</em> cloak, 50 feet of silk rope, a <em>smokestick</em>, a dose of sneezing powder, five tindertwigs, and 50 feet of twine.</p>\r\n\r\n"
    },
    "tags": [],
    "weight": {
      "value": 23
    },
    "price": 474,
    "equipped": false,
    "changes": [],
    "contextNotes": [],
    "links": {
      "children": []
    },
    "scriptCalls": [],
    "subType": "gear"
  }
}
