{
  "_id": "yjjcxphmnjpabypf",
  "name": "Kit, Scrivener's",
  "type": "loot",
  "img": "systems/pf1/icons/items/inventory/dice.jpg",
  "sort": 0,
  "flags": {},
  "system": {
    "description": {
      "value": "\r\n<p><b>Price</b> 2 gp; <b>Weight</b> 1 lb.</p>\r\n<p>This soft leather case contains a vial for holding ink, an ink pen, spare pen nibs, a small container of pigment for making <em>ink</em>, a tiny knife for cutting quills into pens, a blotter, and a small ruler.</p>\r\n\r\n"
    },
    "tags": [],
    "weight": {
      "value": 1
    },
    "price": 2,
    "equipped": false,
    "changes": [],
    "contextNotes": [],
    "links": {
      "children": []
    },
    "scriptCalls": [],
    "subType": "gear"
  }
}
