{
  "_id": "ootkkdzkeouimwre",
  "name": "Kit, Tracker's",
  "type": "loot",
  "img": "systems/pf1/icons/items/inventory/dice.jpg",
  "sort": 0,
  "flags": {},
  "system": {
    "description": {
      "value": "\r\n<p class=\"source\"><b>Source</b>: <em>PZO9434</em></p>\r\n<p><b>Price</b> 563 gp; <b>Weight</b> 33 lbs.</p>\r\n<p>The exact location of a <em>dragon's</em> lair must sometimes be learned through exploration. This kit provides tools helpful in tracking a <em>dragon</em> back to its lair and includes an area map, a climber's kit, an elixir of swimming, an everburning torch, a footprint book, a grappling hook, a hammer, eight pitons, four sacks, and 100 feet of silk rope.</p>\r\n\r\n"
    },
    "tags": [],
    "weight": {
      "value": 33
    },
    "price": 563,
    "equipped": false,
    "changes": [],
    "contextNotes": [],
    "links": {
      "children": []
    },
    "scriptCalls": [],
    "subType": "gear"
  }
}
