{
  "_id": "dhlxmunqjelfybbl",
  "name": "Kit, Ghost Hunter's",
  "type": "loot",
  "img": "systems/pf1/icons/items/inventory/dice.jpg",
  "sort": 0,
  "flags": {},
  "system": {
    "description": {
      "value": "\r\n<p class=\"source\"><b>Source</b>: <em>USH</em></p>\r\n<p><b>Price</b> 670 gp; <b>Weight</b> 22 lbs.</p>\r\n<p>This sturdy satchel is the quintessential toolkit for detecting <em>ghosts</em> and sending them to their final slumber. This kit includes 10 candles, three flasks of <em>holy water</em>, one <em>potion of</em> <em>lesser restoration</em>, a crowbar, a folding shovel, four sunrods, one spiritbane spike, and a wooden <em>holy symbol</em>.</p>\r\n\r\n"
    },
    "tags": [],
    "weight": {
      "value": 22
    },
    "price": 670,
    "equipped": false,
    "changes": [],
    "contextNotes": [],
    "links": {
      "children": []
    },
    "scriptCalls": [],
    "subType": "gear"
  }
}
