{
  "_id": "yjvcbiugyvywjjrg",
  "name": "Kit, Juggler's",
  "type": "loot",
  "img": "systems/pf1/icons/items/inventory/dice.jpg",
  "sort": 0,
  "flags": {},
  "system": {
    "description": {
      "value": "\r\n<p><b>Price</b> 15 gp; <b>Weight</b> 10 lbs.</p>\r\n<p>This kit includes multiple sets of well-balanced objects, such as balls, clubs, knives, rings, and torches. It provides a +1 bonus on <em>Perform</em> (act or comedy) checks and checks involving juggling.</p>\r\n\r\n"
    },
    "tags": [],
    "weight": {
      "value": 10
    },
    "price": 15,
    "equipped": false,
    "changes": [],
    "contextNotes": [],
    "links": {
      "children": []
    },
    "scriptCalls": [],
    "subType": "gear"
  }
}
