{
  "_id": "mcdevztugeyrybqm",
  "name": "Kit, Antidote",
  "type": "loot",
  "img": "systems/pf1/icons/items/inventory/dice.jpg",
  "sort": 0,
  "flags": {},
  "system": {
    "description": {
      "value": "\r\n<p><b>Price</b> 100 gp; <b>Weight</b> 3 lbs.</p>\r\n<p>This small box contains a wide variety of remedies and treatments against not only specific poisons but also their most common methods of delivery, including such things as purgatives to eliminate ingested toxins. It grants a +3 <em>circumstance bonus</em> on <em>Heal</em> checks made to treat <em>poison</em>. An antidote kit is exhausted after 10 uses.</p>\r\n\r\n"
    },
    "tags": [],
    "weight": {
      "value": 3
    },
    "price": 100,
    "equipped": false,
    "changes": [],
    "contextNotes": [],
    "links": {
      "children": []
    },
    "scriptCalls": [],
    "subType": "gear"
  }
}
