{
  "_id": "egbdzkdcdlbhlicd",
  "name": "Kit, Cooking",
  "type": "loot",
  "img": "systems/pf1/icons/items/inventory/dice.jpg",
  "sort": 0,
  "flags": {},
  "system": {
    "description": {
      "value": "\r\n<p><b>Price</b> 3 gp; <b>Weight</b> 16 lbs.</p>\r\n<p>This kit contains an iron <em>pot</em>, an iron skillet, a ladle, a skewer, a wooden cutting board, a cutting knife, an iron tripod for the <em>pot</em>, a packet of tinder, and a small selection of local or otherwise easy to find seasonings. You can attach the skewer to the tripod for roasting small game animals. All the component pieces (except the skillet) fit within the <em>pot</em> for easy storage and transport.</p>\r\n\r\n"
    },
    "tags": [],
    "weight": {
      "value": 16
    },
    "price": 3,
    "equipped": false,
    "changes": [],
    "contextNotes": [],
    "links": {
      "children": []
    },
    "scriptCalls": [],
    "subType": "gear"
  }
}
