{
  "_id": "bloffifhzfkoxfpo",
  "name": "Locket, Poisoned",
  "type": "loot",
  "img": "systems/pf1/icons/items/inventory/dice.jpg",
  "sort": 0,
  "flags": {},
  "system": {
    "description": {
      "value": " \n<p class=\"source\"><b>Source</b> PPC:P&amp;P</p> \n<p><b>Price</b> 75 gp; <b>Weight</b> -</p> \n<p>This heart-shaped locket is attached to a thin metal chain made of looped strands of gold or silver. Inside the locket is a small, spring-loaded vial that can hold a single dose of powdered <em>poison</em>. Loading the locket with poison carries the same risks as applying poison to a weapon. When the locket is opened, the vial is shattered by a ball bearing, releasing the powder into the air and treating the poison's type as if it were inhaled. The airborne poison affects all creatures within 10 feet of the locket.</p> \n"
    },
    "tags": [],
    "price": 75,
    "equipped": false,
    "changes": [],
    "contextNotes": [],
    "links": {
      "children": []
    },
    "scriptCalls": [],
    "subType": "gear"
  }
}
