{
  "_id": "bvtdtkfrvjesnawz",
  "name": "Moonrod",
  "type": "loot",
  "img": "systems/pf1/icons/items/inventory/dice.jpg",
  "sort": 0,
  "flags": {},
  "system": {
    "description": {
      "value": "<h4><span id=\"Moonrod\"><a name=\"TOC-Moonrod\"></a>Moonrod</span></h4>\r\n<p class=\"source\"><b>Source</b> <em>PZO1121</em></p>\r\n<p>This 1-foot-long, silver-tipped tin rod glows dimly when struck as a <em>standard action</em>. It sheds dim light in a 30-foot radius. However, the light given off by a moonrod is particularly easily to perceive for creatures with <em>low-light vision</em>. For such creatures, a moonrod increases the light level by one step (to a maximum of normal) for a 60-foot radius. It glows for 6 hours, after which the silver tip is burned out and worthless.</p>\r\n"
    },
    "tags": [],
    "equipped": false,
    "changes": [],
    "contextNotes": [],
    "links": {
      "children": []
    },
    "scriptCalls": [],
    "subType": "gear"
  }
}
