{
  "_id": "sipyivqdvdoyddov",
  "name": "Observations Of The Drowned City",
  "type": "loot",
  "img": "systems/pf1/icons/items/inventory/dice.jpg",
  "sort": 0,
  "flags": {},
  "system": {
    "description": {
      "value": "\r\n<p class=\"source\"><b>Source</b> <em>PPC:DHB</em></p>\r\n<p><b>Price</b> 3,500 gp; <b>Accuracy</b> +5; <b>Associated Skill</b> <em>Knowledge</em> (geography) (DC 25)</p>\r\n<p class=\"divider\"><a name=\"TOC-DESCRIPTION\"></a>DESCRIPTION</p>\r\n<p>Compiled from the recovered diaries of a clerk, this waterproof volume is a useful guide to those exploring the drowned city. Most of the information is dated, but the sketched maps and descriptions of major buildings remain useful.</p>\r\n<p class=\"divider\"><a name=\"TOC-SKILL-BONUSES\"></a>SKILL BONUSES</p>\r\n<ul>\r\n<li>Balance on slippery surface (<em>Acrobatics</em> +4)</li>\r\n</ul>\r\n"
    },
    "tags": [],
    "weight": {
      "value": 2
    },
    "price": 3500,
    "equipped": false,
    "changes": [],
    "contextNotes": [],
    "links": {
      "children": []
    },
    "scriptCalls": [],
    "subType": "gear"
  }
}
