{
  "_id": "nvqjwbgxvvdehfxv",
  "name": "Phosphorus",
  "type": "loot",
  "img": "systems/pf1/icons/items/inventory/dice.jpg",
  "sort": 0,
  "flags": {},
  "system": {
    "description": {
      "value": "\r\n<p class=\"source\"><b>Source</b> <em>PZO9445</em></p>\r\n<p><b>Price</b> 2 sp; <b>Weight</b> -</p>\r\n<p>Phosphorus is a highly reactive mineral that glows faintly in air. Vital to all life, it is most commonly used by alchemists to create fertilizers, poisons, soaps, and tindertwigs. It is obtained by processing uric acid or bone ash.</p>\r\n<p class=\"header\">Alchemical Power Component</p>\r\n<p><b>Doses</b> 10 (2 gp); <b>Spells</b> light descriptor or teleportation subschool</p>\r\n<p>Spells with the [light] descriptor or of the teleportation subschool are cast at +1 caster level for the purpose of determining range.</p>\r\n"
    },
    "tags": [],
    "price": 0.2,
    "equipped": false,
    "changes": [],
    "contextNotes": [],
    "links": {
      "children": []
    },
    "scriptCalls": [],
    "subType": "gear"
  }
}
