{
  "_id": "gtwonlvknrijuisz",
  "name": "Poison Caps",
  "type": "loot",
  "img": "systems/pf1/icons/items/inventory/dice.jpg",
  "sort": 0,
  "flags": {},
  "system": {
    "description": {
      "value": "\r\n<p class=\"source\"><b>Source</b> <em>PPZO9410</em></p>\r\n<p><b>Price</b> 25 gp; <b>Weight</b> 1/2 lb.</p>\r\n<p>These small rubber cones attach to a creature's fangs and allow it to potentially <em>poison</em> those it bites. Poison caps must be filled with an injury <em>poison</em>, and must be attached to a creature's teeth prior to use. A creature equipped with poison caps deals bite damage as a creature one size smaller than usual, but the next time the creature makes a successful bite attack, it also injects the poison from the caps into its target. The price and weight listed above are for a pair of poison caps; both must be used simultaneously in order to be effective. A pair of poison caps can only be used once; they are effectively destroyed after a successful bite attack. The cost of the <em>poison</em> is not included in the cost of the poison caps.</p>\r\n\r\n"
    },
    "tags": [],
    "weight": {
      "value": 0.5
    },
    "price": 25,
    "equipped": false,
    "changes": [],
    "contextNotes": [],
    "links": {
      "children": []
    },
    "scriptCalls": [],
    "subType": "gear"
  }
}
