{
  "_id": "qnfmjnrlogcrltgs",
  "name": "Ring, Signet",
  "type": "loot",
  "img": "systems/pf1/icons/items/inventory/dice.jpg",
  "sort": 0,
  "flags": {},
  "system": {
    "description": {
      "value": " \n<p class=\"source\"><b>Source</b> <em>PZO1110</em></p> \n<p>A ring with a family symbol or crest on it. It is often pressed into hot wax on objects when they are sealed, leaving a family imprint.</p> \n"
    },
    "tags": [],
    "price": 5,
    "equipped": false,
    "changes": [],
    "contextNotes": [],
    "links": {
      "children": []
    },
    "scriptCalls": [],
    "subType": "gear"
  }
}
