{
  "_id": "tvmotdyqsqpmfdsu",
  "name": "Scarf, Filter",
  "type": "loot",
  "img": "systems/pf1/icons/items/inventory/dice.jpg",
  "sort": 0,
  "flags": {},
  "system": {
    "description": {
      "value": " \n<p><b>Price</b> 5 gp; <b>Weight</b> -</p> \n<p>Made of heavy material, this <em>scarf</em> filters out dust, sand, smoke, and other airborne contaminants. When worn over your nose and mouth, this <em>scarf</em> grants you a +1 <em>resistance bonus</em> on saving throws against inhaled poisons and other airborne effects that require breathing.</p> \n"
    },
    "tags": [],
    "price": 5,
    "equipped": false,
    "changes": [],
    "contextNotes": [
      {
        "subTarget": "allSavingThrows",
        "text": "+[[1]] resistance vs. inhaled poisons and other airborne effects that require breathing"
      }
    ],
    "links": {
      "children": []
    },
    "scriptCalls": [],
    "subType": "gear"
  }
}
