{
  "_id": "tH7xOCWHHI1LwtUT",
  "name": "Shovel (Folding)",
  "type": "loot",
  "img": "systems/pf1/icons/items/inventory/dice.jpg",
  "sort": 0,
  "flags": {},
  "system": {
    "description": {
      "value": "<p style=\"box-sizing: border-box; user-select: text; color: #191813; font-size: 13px;\">Source&nbsp;<a style=\"box-sizing: border-box; user-select: text;\" href=\"http://paizo.com/products/btpy8tmc?Pathfinder-Roleplaying-Game-Ultimate-Equipment\" target=\"_blank\" rel=\"noopener\">Ultimate Equipment pg. 57</a><br style=\"box-sizing: border-box; user-select: text;\" />Price&nbsp;2 gp (common), 10 gp (folding);&nbsp;Weight&nbsp;8 lbs. (common), 12 lbs. (folding)</p>\n<h3 style=\"box-sizing: border-box; user-select: text; color: #191813;\">Description</h3>\n<p style=\"box-sizing: border-box; user-select: text; color: #191813; font-size: 13px;\">This tool lets you dig a pit at a rate of 2 cubic feet per minute. If a shovel is used in combat, treat it as a one-handed improvised weapon that deals bludgeoning damage equal to that of a club of its size.<br style=\"box-sizing: border-box; user-select: text;\" /><br style=\"box-sizing: border-box; user-select: text;\" />Folding Shovel: A folding shovel is a full-sized shovel with a sturdy sectional handle that folds into pieces no longer than the shovel blade, allowing it to fit in a smaller space such as a backpack. Converting the shovel from its folded state to usable (or vice versa) is 2 full-round actions.</p>"
    },
    "tags": [],
    "weight": {
      "value": 12
    },
    "price": 10,
    "equipped": false,
    "identifiedName": "Shovel (Folding)",
    "changes": [],
    "contextNotes": [],
    "links": {
      "children": []
    },
    "scriptCalls": [],
    "subType": "gear"
  }
}
