{
  "_id": "pzoofblizyixlcoc",
  "name": "Silversheen",
  "type": "loot",
  "img": "systems/pf1/icons/items/inventory/dice.jpg",
  "sort": 0,
  "flags": {},
  "system": {
    "description": {
      "value": "<p>This shimmering paste-like substance can be applied to a weapon as a&nbsp;<em>standard action</em>. It gives the weapon the properties of&nbsp;<em>alchemical silver</em>&nbsp;for 1 hour, replacing the properties of any other special material it might have. One vial coats a single melee weapon or 20 units of ammunition.</p>"
    },
    "tags": [],
    "price": 250,
    "equipped": false,
    "identifiedName": "Silversheen",
    "cl": 5,
    "aura": {
      "school": "trs"
    },
    "changes": [],
    "contextNotes": [],
    "links": {
      "children": []
    },
    "scriptCalls": [],
    "subType": "gear"
  }
}
