{
  "_id": "GAjmcHlb3OoBDkUn",
  "name": "Spirit planchette",
  "type": "loot",
  "img": "systems/pf1/icons/items/inventory/dice.jpg",
  "sort": 0,
  "flags": {},
  "system": {
    "description": {
      "value": "<p>Source&nbsp;<a href=\"http://paizo.com/store/games/roleplayingGames/p/pathfinderRPG/paizo/pathfinderAdventurePath/carrionCrown/v5748btpy8ihy\" target=\"_blank\" rel=\"noopener\">Pathfinder #43: Haunting of Harrowstone pg. 19</a><br />Aura&nbsp;moderate divination;&nbsp;CL&nbsp;9th<br />Slot&nbsp;none;&nbsp;Price&nbsp;4,000 gp (Brass), 10,000 gp (Cold Iron), 18,000 gp (Silver);&nbsp;Weight&nbsp;5 lbs.</p>\n<h3>Description</h3>\n<p>A&nbsp;spirit planchette&nbsp;is typically found in a wooden case along with a thin wooden board printed with numerous letters and numbers. Nonmagical versions of these divination tools can be purchased in curiosity shops (typically costing 25 gp); while these items can be used as alternative components for augury spells, only magical&nbsp;spirit planchettes&nbsp;allow users to communicate with the other side. Three types of&nbsp;spirit planchettes&nbsp;exist&mdash;brass, cold iron, and silver. Each in turn allows an increasingly potent form of divination effect to be utilized. A&nbsp;spirit planchette&nbsp;requires a board to move upon, but this &ldquo;board&rdquo; can be made up of letters scribed upon any smooth surface&mdash;it need not be a prepared board for a spirit planchette to work.<br /><br />To use a&nbsp;spirit planchette, you must rest your fingers lightly upon the planchette&rsquo;s surface and then concentrate on the planchette (as if maintaining a spell with a duration of concentration) for 2d6 rounds while the planchette attunes itself to the ambient spirits of the area. After this time, the planchette begins to slowly slide in random patterns across the board&mdash;at this point, questions may be asked of the spirits by any of the individuals involved in the s&eacute;ance. The consequences of each question asked of the spirits depends upon what type of planchette is used for the divination, as summarized on the table below. The spirits reply in a language understood by the character who asked the question, but resent such contact and give only brief answers to the questions. All questions are answered with &ldquo;yes,&rdquo; &ldquo;no,&rdquo; or &ldquo;maybe,&rdquo; or by spelling out a single word from the letters arranged on the board. The spirits answer each question either in the same round the question is asked (in the case of a yes, no, or maybe answer) or at a rate of one letter per round (in the case of a single word being spelled out). A&nbsp;spirit planchette&nbsp;may be used once per day&mdash;the maximum number of questions you can ask with it depends on the type of planchette being used (as detailed on the table below).<br /><br />Communication with spirits can be a dangerous task, for many spirits are jealous or hateful of the living. Every time a&nbsp;spirit planchette&nbsp;is used, the user must succeed on a Will save to avoid being temporarily possessed and harmed by the angry spirits. In some areas where the spirits are particularly violent or hateful (such as in Harrowstone), this Will save takes a &ndash;2 penalty. The DC of this save depends on the type of&nbsp;spirit planchette&nbsp;being used. Anyone who fails the Will save becomes confused for a number of rounds (depending on the type of planchette being used), and no answer is received. The spirits in the area are not omniscient&mdash;the GM should decide whether or not the spirits would actually know the answer to the question asked, and if they do not, the answer granted is automatically &ldquo;maybe.&rdquo; If the GM determines that the spirits are knowledgeable about the answer, roll d% to determine whether the spirits speak truthfully or whether they lie.</p>\n<table>\n<tbody>\n<tr>\n<td>Planchette Type</td>\n<td>Questions per Use</td>\n<td>Will Save DC</td>\n<td>Confusion Duration</td>\n<td>True Answer</td>\n<td>Lie</td>\n</tr>\n<tr>\n<td>Brass</td>\n<td>1</td>\n<td>11</td>\n<td>1 round</td>\n<td>01-60</td>\n<td>61-100</td>\n</tr>\n<tr>\n<td>Cold Iron</td>\n<td>3</td>\n<td>15</td>\n<td>2 rounds</td>\n<td>01-75</td>\n<td>76-100</td>\n</tr>\n<tr>\n<td>Silver</td>\n<td>5</td>\n<td>19</td>\n<td>3 rounds</td>\n<td>01-90</td>\n<td>91-100</td>\n</tr>\n</tbody>\n</table>\n<h3>Construction</h3>\n<p>Requirements&nbsp;Craft Wondrous Item,&nbsp;contact other planes,&nbsp;speak with dead;&nbsp;Cost&nbsp;2,000 gp (brass spirit planchette), 5,000 gp (cold iron spirit planchette), 9,000 gp (silver spirit planchette)</p>"
    },
    "tags": [],
    "weight": {
      "value": 5
    },
    "price": 4000,
    "equipped": false,
    "identifiedName": "Spirit planchette",
    "changes": [],
    "contextNotes": [],
    "links": {
      "children": []
    },
    "scriptCalls": [],
    "subType": "gear"
  }
}
