{
  "_id": "kgbciqsmydgmxjmx",
  "name": "Spyglass",
  "type": "loot",
  "img": "systems/pf1/icons/items/inventory/dice.jpg",
  "sort": 0,
  "flags": {},
  "system": {
    "description": {
      "value": "\r\n<p><b>Price</b> 1000 gp; <b>Weight</b> 1 lb.</p>\r\n<p>Objects viewed through a spyglass are magnified to twice their size. Characters using a spyglass take a -1 penalty on Perception skill checks per 20 feet of distance to the target, if the target is visible.</p>\r\n\r\n"
    },
    "tags": [],
    "weight": {
      "value": 1
    },
    "price": 1000,
    "equipped": false,
    "changes": [],
    "contextNotes": [],
    "links": {
      "children": []
    },
    "scriptCalls": [],
    "subType": "gear"
  }
}
