{
  "_id": "pblbzpavsswkwpmx",
  "name": "Thieves' Ring",
  "type": "loot",
  "img": "systems/pf1/icons/items/inventory/dice.jpg",
  "sort": 0,
  "flags": {},
  "system": {
    "description": {
      "value": "\r\n<p class=\"source\"><b>Source</b>: <em>PZO9430</em></p>\r\n<p><b>Price</b> 300 gp; <b>Weight</b> -</p>\r\n<p>This slightly over-sized ring conceals a few lockpicks and other tools coiled inside its band. These discreet tools, made of a metal alloy that springs straight once the tool is removed from the band, are sufficient to attempt <em>Disable Device</em> checks without penalty, and long enough to pick locks on manacles fastened around the wearer's hands (once she slips off the ring). The wearer gains a +2 <em>circumstance bonus</em> on <em>Sleight of Hand</em> checks made to conceal the ring's nature from anyone searching her.</p>\r\n\r\n"
    },
    "tags": [],
    "price": 300,
    "equipped": false,
    "changes": [],
    "contextNotes": [],
    "links": {
      "children": []
    },
    "scriptCalls": [],
    "subType": "gear"
  }
}
