{
  "_id": "esvjgijycbjithsj",
  "name": "Trap, Trapped Scroll Case",
  "type": "loot",
  "img": "systems/pf1/icons/items/inventory/dice.jpg",
  "sort": 0,
  "flags": {},
  "system": {
    "description": {
      "value": "\r\n<p>This seemingly innocuous scroll case contains a glass pellet filled with gaseous <em>poison</em>. This pellet breaks when the case is opened, filling a 5-foot square with toxic gas. This poisonous cloud disperses after 1 round.</p>\r\n<p><b>Type</b> mechanical; <em>Perception</em> DC 20; <em>Disable Device</em> DC 20</p>\r\n<p class=\"divider\">EFFECTS</p>\r\n<p><b>Trigger</b> touch; <b>Reset</b> none <b>Effect</b> <em>poison</em> gas (Ungol dust)</p>\r\n\r\n"
    },
    "tags": [],
    "equipped": false,
    "changes": [],
    "contextNotes": [],
    "links": {
      "children": []
    },
    "scriptCalls": [],
    "subType": "gear"
  }
}
