{
  "_id": "ircamssdnmgdzehw",
  "name": "Urea",
  "type": "loot",
  "img": "systems/pf1/icons/items/inventory/dice.jpg",
  "sort": 0,
  "flags": {},
  "system": {
    "description": {
      "value": "\r\n<p class=\"source\"><b>Source</b> <em>PZO9445</em></p>\r\n<p><b>Price</b> 5 sp; <b>Weight</b> -</p>\r\n<p>Urea is a highly versatile reagent most commonly used in salves and as a stabilizer for particularly volatile alchemical reactions.</p>\r\n<p class=\"header\">Alchemical Power Component</p>\r\n<p><b>Doses</b> 4 (2 gp); <b>Spells</b> cold descriptor</p>\r\n<p>Spells with the [cold] descriptor are cast at +1 caster level for the purpose of all effects.</p>\r\n<h3 style=\"margin-top: 30px;border-bottom-style: solid;border-bottom-width: thin\"><span id=\"Misc_Substances\"><a name=\"TOC-Misc.-Substances\"></a>Misc. Substances</span></h3>\r\n"
    },
    "tags": [],
    "price": 0.5,
    "equipped": false,
    "changes": [],
    "contextNotes": [],
    "links": {
      "children": []
    },
    "scriptCalls": [],
    "subType": "gear"
  }
}
