{
  "_id": "KNEf55faW16QriNb",
  "name": "Agony's Embrace",
  "type": "feat",
  "img": "systems/pf1/icons/skills/red_05.jpg",
  "sort": 0,
  "flags": {},
  "system": {
    "description": {
      "value": "<p>At 12th level, whenever you’re hit by a critical hit, your morale bonus to Strength from your bloodrage increases by 2 for 1d6 rounds or until your rage ends.</p>\n<p>The bonus to Strength instead increases by 4 at 16th level and by +6 at 20th level.</p>"
    },
    "tags": [],
    "actions": [],
    "attackNotes": [],
    "effectNotes": [],
    "changes": [],
    "contextNotes": [],
    "links": {
      "children": [],
      "charges": []
    },
    "tag": "classFeat_agonysEmbrace",
    "useCustomTag": true,
    "armorProf": {
      "value": []
    },
    "weaponProf": {
      "value": []
    },
    "languages": {
      "value": []
    },
    "scriptCalls": [],
    "subType": "classFeat",
    "associations": {
      "classes": [["Bloodrager"]]
    },
    "abilityType": "su"
  }
}
