{
  "_id": "YlCHx4NPdQR6Ttz7",
  "name": "Arcane Vessel",
  "type": "feat",
  "img": "systems/pf1/icons/items/inventory/banner-red.jpg",
  "sort": 0,
  "flags": {},
  "system": {
    "description": {
      "value": "<p>At 8th level, whenever the cavalier gains a bonus on attack rolls, saving throws, or damage rolls from a spell or spell-like ability cast by another creature, the cavalier also gains a number of temporary hit points equal to the level of the spell or spell-like ability. Temporary hit points gained from this ability from different spells stack, but only to a maximum number of temporary hit points equal to the cavalier’s level. These temporary hit points last for 10 minutes.</p>"
    },
    "tags": [],
    "actions": [],
    "attackNotes": [],
    "effectNotes": [],
    "changes": [],
    "contextNotes": [],
    "links": {
      "children": [],
      "charges": []
    },
    "tag": "classFeat_arcaneVessel",
    "useCustomTag": true,
    "armorProf": {
      "value": []
    },
    "weaponProf": {
      "value": []
    },
    "languages": {
      "value": []
    },
    "scriptCalls": [],
    "subType": "classFeat",
    "associations": {
      "classes": [["Cavalier"]]
    },
    "abilityType": "ex"
  }
}
