{
  "_id": "Y926YHNobEojovx4",
  "name": "Arcane Bloodline",
  "type": "feat",
  "img": "systems/pf1/icons/spells/protect-sky-3.jpg",
  "sort": 0,
  "flags": {},
  "system": {
    "description": {
      "value": "<p><em>Your family has always been skilled in the eldritch art of magic. While many of your relatives were accomplished wizards, your powers developed without the need for study and practice.</em></p>\n<p><strong>Class Skill:</strong>&nbsp;<em>Knowledge</em>&nbsp;(any one).</p>\n<p><strong>Bonus Spells:</strong></p>\n<ul>\n<li>@Compendium[pf1.spells.llxrra87kbofmyhl]{Identify}&nbsp;(3rd),</li>\n<li>@Compendium[pf1.spells.oylikodnyku2zewu]{Invisibility}&nbsp;(5th),</li>\n<li>@Compendium[pf1.spells.gmgwyjfpeuuc4t4o]{Dispel Magic}&nbsp;(7th),</li>\n<li>@Compendium[pf1.spells.ojwg1ki98tq8xyh9]{Dimension Door}&nbsp;(9th),</li>\n<li>@Compendium[pf1.spells.wqvy12w1xgk6l9b0]{Overland Flight}&nbsp;(11th),</li>\n<li>@Compendium[pf1.spells.jbqo4o2b2tmdz7wv]{True Seeing}&nbsp;(13th),</li>\n<li>@Compendium[pf1.spells.5cdmojmydhwowzy1]{Teleport, Greater}&nbsp;(15th),</li>\n<li>@Compendium[pf1.spells.ol9newf4vrcx0kpf]{Power Word Stun}&nbsp;(17th),</li>\n<li>@Compendium[pf1.spells.nnj51dwfkwd15ngj]{Wish}&nbsp;(19th).</li>\n</ul>\n<p><strong>Bonus Feats:</strong></p>\n<ul>\n<li>@Compendium[pf1.feats.u7rGDZUL296QIuA0]{Combat Casting},</li>\n<li>@Compendium[pf1.feats.V8GIvVaAofyw9xIl]{Improved Counterspell},</li>\n<li>@Compendium[pf1.feats.Uuiu3p982omhMEPj]{Improved Initiative},</li>\n<li>@Compendium[pf1.feats.iAbIGhm7T2OK9Brt]{Iron Will},</li>\n<li>@Compendium[pf1.feats.tlRu8SYjzA7WCHN7]{Scribe Scroll},</li>\n<li>@Compendium[pf1.feats.7zJTztNW7hdaqjKc]{Skill Focus}&nbsp;(<em>Knowledge</em>&nbsp;[arcana]),</li>\n<li>@Compendium[pf1.feats.V2zY7BltkpSXwejy]{Spell Focus},</li>\n<li>@Compendium[pf1.feats.jVFjMIyQD6TOAsmj]{Still Spell}.</li>\n</ul>\n<p><a name=\"TOC-Bloodline-Arcana\"></a><strong>Bloodline Arcana: </strong>Whenever you apply a&nbsp;<em>metamagic feat</em> to a spell that increases the slot used by at least one level, increase the spell’s DC by +1. This bonus does not stack with itself and does not apply to spells modified by the @Compendium[pf1.feats.O109YFcItBFUDHvu]{Heighten Spell} feat.</p>"
    },
    "tags": [],
    "actions": [],
    "attackNotes": [],
    "effectNotes": [],
    "changes": [],
    "contextNotes": [],
    "links": {
      "children": [],
      "charges": []
    },
    "tag": "classFeat_arcaneBloodline",
    "useCustomTag": true,
    "armorProf": {
      "value": []
    },
    "weaponProf": {
      "value": []
    },
    "languages": {
      "value": []
    },
    "scriptCalls": [],
    "subType": "classFeat",
    "associations": {
      "classes": [["Sorcerer"]]
    }
  }
}
