{
  "_id": "QKE50owA3SkjjESt",
  "name": "Arson Subdomain",
  "type": "feat",
  "img": "systems/pf1/icons/spells/explosion-orange-3.jpg",
  "sort": 0,
  "flags": {},
  "system": {
    "description": {
      "value": "<p><strong>Replacement Domain Spells:</strong></p>\n<ul>\n<li>2nd—@Compendium[pf1.spells.lzos34s87qsc620l]{Flaming Sphere}</li>\n<li>5th—@Compendium[pf1.spells.gmugktarbieojt59]{Flame Strike}</li>\n<li>7th—@Compendium[pf1.spells.cm3l4h4mld9j8lar]{Delayed Blast Fireball}</li>\n</ul>"
    },
    "tags": [],
    "actions": [],
    "attackNotes": [],
    "effectNotes": [],
    "changes": [],
    "contextNotes": [],
    "links": {
      "children": [],
      "charges": []
    },
    "tag": "classFeat_arsonSubdomain",
    "useCustomTag": true,
    "armorProf": {
      "value": []
    },
    "weaponProf": {
      "value": []
    },
    "languages": {
      "value": []
    },
    "scriptCalls": [],
    "subType": "classFeat",
    "associations": {
      "classes": [["Cleric"]]
    }
  }
}
