{
  "_id": "wa9VINqzFWWOnS6g",
  "name": "Beguiling Touch",
  "type": "feat",
  "img": "systems/pf1/icons/skills/light_08.jpg",
  "sort": 0,
  "flags": {},
  "system": {
    "description": {
      "value": "<p>You can charm a living creature by touching it. Creatures with more&nbsp;<em>Hit Dice</em>&nbsp;than your wizard level are unaffected, as are creatures in combat and those with an attitude of hostile toward you. Creatures receive a&nbsp;<em>Will</em>&nbsp;<em>saving throw</em>&nbsp;to negate the effect. The DC of this save is equal to 10 + 1/2 your wizard level + your&nbsp;<em>Intelligence</em>&nbsp;modifier. Creatures that fail their save are affected by @Compendium[pf1.spells.smbkd2yobhshbpqf]{Charm Monster}&nbsp;for a number of rounds equal to 1/2 your wizard level (minimum 1). This is a mind-affecting effect. You can use this ability a number of times per day equal to 3 + your&nbsp;<em>Intelligence</em>&nbsp;modifier.</p>"
    },
    "tags": [],
    "actions": [
      {
        "_id": "8py47srt072pt7sw",
        "name": "Use",
        "img": "systems/pf1/icons/skills/light_08.jpg",
        "description": "",
        "tag": "",
        "activation": {
          "cost": 1,
          "type": "standard"
        },
        "unchainedAction": {
          "activation": {
            "cost": 2,
            "type": "action"
          }
        },
        "duration": {
          "value": "@classes.wizard.level < 4 ? 1 : (floor(@classes.wizard.level / 2))",
          "units": "round"
        },
        "target": {
          "value": ""
        },
        "range": {
          "value": null,
          "units": "",
          "maxIncrements": 1,
          "minValue": null,
          "minUnits": ""
        },
        "uses": {
          "autoDeductChargesCost": "",
          "self": {
            "value": 0,
            "maxFormula": "",
            "per": null
          },
          "per": "day",
          "value": 0,
          "maxFormula": "3 + @abilities.int.mod"
        },
        "measureTemplate": {
          "type": "",
          "size": "0",
          "overrideColor": false,
          "customColor": "",
          "overrideTexture": false,
          "customTexture": ""
        },
        "attackName": "",
        "actionType": "",
        "attackBonus": "",
        "critConfirmBonus": "",
        "damage": {
          "parts": [],
          "critParts": [],
          "nonCritParts": []
        },
        "attackParts": [],
        "formulaicAttacks": {
          "count": {
            "formula": ""
          },
          "bonus": {
            "formula": ""
          },
          "label": null
        },
        "formula": "",
        "ability": {
          "attack": null,
          "damage": null,
          "damageMult": 1,
          "critRange": 20,
          "critMult": 2
        },
        "save": {
          "dc": 0,
          "type": "",
          "description": ""
        },
        "effectNotes": [],
        "attackNotes": [],
        "soundEffect": "",
        "powerAttack": {
          "multiplier": "",
          "damageBonus": 2,
          "critMultiplier": 1
        },
        "naturalAttack": {
          "primaryAttack": true,
          "secondary": {
            "attackBonus": "-5",
            "damageMult": 0.5
          }
        },
        "nonlethal": false,
        "usesAmmo": false,
        "spellEffect": "",
        "spellArea": "",
        "conditionals": [],
        "enh": {
          "value": null
        }
      }
    ],
    "uses": {
      "per": "day",
      "maxFormula": "3 + @abilities.int.mod"
    },
    "attackNotes": [],
    "effectNotes": [],
    "changes": [],
    "contextNotes": [],
    "links": {
      "children": [],
      "charges": []
    },
    "tag": "classFeat_beguilingTouch",
    "useCustomTag": true,
    "armorProf": {
      "value": []
    },
    "weaponProf": {
      "value": []
    },
    "languages": {
      "value": []
    },
    "scriptCalls": [],
    "subType": "classFeat",
    "associations": {
      "classes": [["Wizard"]]
    },
    "abilityType": "sp"
  }
}
