{
  "_id": "ZxHaCKDC5p0ZbhQD",
  "name": "Bleeding Blow (UC)",
  "type": "feat",
  "img": "systems/pf1/icons/feats/deafening-critical.jpg",
  "sort": 0,
  "flags": {},
  "system": {
    "description": {
      "value": "<p>While in the powerful stance, the barbarian can make an attack that causes her enemies to bleed profusely. Once per round, she can have one of her attacks deal an amount of bleed damage equal to 1/2 her bonus damage from powerful stance. This bleed damage bypasses damage reduction. This bleed damage doesn’t stack with itself.</p>\n<p>A barbarian must have the powerful stance rage power and be at least 8th level to select this rage power.</p>"
    },
    "tags": [],
    "actions": [],
    "attackNotes": [],
    "effectNotes": [],
    "changes": [],
    "contextNotes": [],
    "links": {
      "children": [],
      "charges": []
    },
    "tag": "classFeat_bleedingBlowUc",
    "useCustomTag": true,
    "armorProf": {
      "value": []
    },
    "weaponProf": {
      "value": []
    },
    "languages": {
      "value": []
    },
    "scriptCalls": [],
    "subType": "classFeat",
    "associations": {
      "classes": [["Barbarian (Unchained)"]]
    },
    "abilityType": "ex"
  }
}
