{
  "_id": "4OxtLoXhxTOvi96Q",
  "name": "Blessed Correction",
  "type": "feat",
  "img": "systems/pf1/icons/items/inventory/badge-cross.jpg",
  "sort": 0,
  "flags": {},
  "system": {
    "description": {
      "value": "<p>At 4th level, when you make a Diplomacy, Intimidate, or Perform (oratory) check, you may roll twice and take the more favorable result. You can use this ability a number of times per day equal to your Wisdom bonus.</p>"
    },
    "tags": [],
    "actions": [
      {
        "_id": "k63rxi0bbnms0s0g",
        "name": "Use",
        "img": "systems/pf1/icons/items/inventory/badge-cross.jpg",
        "description": "",
        "tag": "",
        "activation": {
          "cost": 1,
          "type": "free"
        },
        "unchainedAction": {
          "activation": {
            "cost": 1,
            "type": "free"
          }
        },
        "duration": {
          "value": null,
          "units": "inst"
        },
        "target": {
          "value": "self"
        },
        "range": {
          "value": null,
          "units": "personal",
          "maxIncrements": 1,
          "minValue": null,
          "minUnits": ""
        },
        "uses": {
          "autoDeductChargesCost": "",
          "self": {
            "value": 0,
            "maxFormula": "",
            "per": null
          },
          "per": "day",
          "value": 0,
          "maxFormula": "@abilities.wis.mod"
        },
        "measureTemplate": {
          "type": "",
          "size": "",
          "overrideColor": false,
          "customColor": "",
          "overrideTexture": false,
          "customTexture": ""
        },
        "attackName": "",
        "actionType": "",
        "attackBonus": "",
        "critConfirmBonus": "",
        "damage": {
          "parts": [],
          "critParts": [],
          "nonCritParts": []
        },
        "attackParts": [],
        "formulaicAttacks": {
          "count": {
            "formula": ""
          },
          "bonus": {
            "formula": ""
          },
          "label": null
        },
        "formula": "",
        "ability": {
          "attack": null,
          "damage": null,
          "damageMult": 1,
          "critRange": 20,
          "critMult": 2
        },
        "save": {
          "dc": 0,
          "type": "",
          "description": ""
        },
        "effectNotes": [],
        "attackNotes": [],
        "soundEffect": "",
        "powerAttack": {
          "multiplier": "",
          "damageBonus": 2,
          "critMultiplier": 1
        },
        "naturalAttack": {
          "primaryAttack": true,
          "secondary": {
            "attackBonus": "-5",
            "damageMult": 0.5
          }
        },
        "nonlethal": false,
        "usesAmmo": false,
        "spellEffect": "",
        "spellArea": "",
        "conditionals": [],
        "enh": {
          "value": null
        }
      }
    ],
    "uses": {
      "per": "day",
      "maxFormula": "@abilities.wis.mod"
    },
    "attackNotes": [],
    "effectNotes": [],
    "changes": [],
    "contextNotes": [],
    "links": {
      "children": [],
      "charges": []
    },
    "tag": "classFeat_blessedCorrection",
    "useCustomTag": true,
    "armorProf": {
      "value": []
    },
    "weaponProf": {
      "value": []
    },
    "languages": {
      "value": []
    },
    "scriptCalls": [],
    "subType": "classFeat",
    "associations": {
      "classes": [["Inquisitor"]]
    },
    "abilityType": "ex"
  }
}
