{
  "_id": "juK8HvhwNpAxgFPY",
  "name": "Blurring Movement",
  "type": "feat",
  "img": "systems/pf1/icons/skills/red_05.jpg",
  "sort": 0,
  "flags": {},
  "system": {
    "description": {
      "value": "<p>At 8th level, you become a blur of motion when you move. As long as you move at least 10 feet, you gain the effects of @Compendium[pf1.spells.18kryvj2dfuymk9d]{Blur}&nbsp;for 1 round.</p>"
    },
    "tags": [],
    "actions": [],
    "attackNotes": [],
    "effectNotes": [],
    "changes": [],
    "contextNotes": [],
    "links": {
      "children": [],
      "charges": []
    },
    "tag": "classFeat_blurringMovement",
    "useCustomTag": true,
    "armorProf": {
      "value": []
    },
    "weaponProf": {
      "value": []
    },
    "languages": {
      "value": []
    },
    "scriptCalls": [],
    "subType": "classFeat",
    "associations": {
      "classes": [["Bloodrager"]]
    },
    "abilityType": "su"
  }
}
