{
  "_id": "uMoup6Tz8WoZX2Z9",
  "name": "Bonded Mount",
  "type": "feat",
  "img": "systems/pf1/icons/spells/light-royal-1.jpg",
  "sort": 0,
  "flags": {},
  "system": {
    "description": {
      "value": "<p>You gain the service of an unusually intelligent, strong, and loyal mount. The creature must be one that you are capable of riding and is suitable as a mount. A Medium oracle can select a camel or a horse. A Small oracle can select a pony or wolf, but can also select a boar or a dog if she is at least 4th level. This mount functions as a druid's animal companion, using your oracle level as your effective druid level. Bonded mounts have an Intelligence score of at least 6.</p>"
    },
    "tags": [],
    "actions": [],
    "attackNotes": [],
    "effectNotes": [],
    "changes": [],
    "contextNotes": [],
    "links": {
      "children": [],
      "charges": []
    },
    "tag": "classFeat_bondedMount",
    "useCustomTag": true,
    "armorProf": {
      "value": []
    },
    "weaponProf": {
      "value": []
    },
    "languages": {
      "value": []
    },
    "scriptCalls": [],
    "subType": "classFeat",
    "associations": {
      "classes": [["Oracle"]]
    },
    "abilityType": "su"
  }
}
