{
  "_id": "u4fhJeqqaKr2ofz2",
  "name": "Break Stupor",
  "type": "feat",
  "img": "systems/pf1/icons/skills/violet_26.jpg",
  "sort": 0,
  "flags": {},
  "system": {
    "description": {
      "value": "<p>The mesmerist can trigger this trick whenever the subject is under an effect such as the fascinated condition or magical slumber as per the&nbsp;sleep&nbsp;spell that would be ended by the subject taking damage or by an obvious threat. The trick sends a momentary phantom threat and sensation of pain, ending the effect. This ability works fast enough to prevent a sleeping creature from falling prone or dropping what it is holding, if the mesmerist uses it immediately.</p>\n<p>The mesmerist can also trigger the trick if the subject becomes confused as per&nbsp;confusion, but if he does so, the subject attacks the mesmerist on its next turn, as if the mesmerist attacked the subject.</p>"
    },
    "tags": [],
    "actions": [],
    "attackNotes": [],
    "effectNotes": [],
    "changes": [],
    "contextNotes": [],
    "links": {
      "children": [],
      "charges": []
    },
    "tag": "classFeat_breakStupor",
    "useCustomTag": true,
    "armorProf": {
      "value": []
    },
    "weaponProf": {
      "value": []
    },
    "languages": {
      "value": []
    },
    "scriptCalls": [],
    "subType": "classFeat",
    "associations": {
      "classes": [["Mesmerist"]]
    }
  }
}
