{
  "_id": "jiehyINCpnoyOLv4",
  "name": "Brutal Maneuver",
  "type": "feat",
  "img": "systems/pf1/icons/feats/deceitful.jpg",
  "sort": 0,
  "flags": {},
  "system": {
    "description": {
      "value": "<p>The first time each round that the vigilante uses a weapon, including a natural attack or unarmed strike, to perform a combat maneuver in place of making an attack (such as by performing a disarm, sunder, or trip combat maneuver in place of making a melee attack), he can choose to take a –5 penalty on all his attack rolls during the round. If he does so and succeeds at his combat maneuver check, the vigilante deals damage to the target of his combat maneuver as if he had hit that target with a normal hit from his weapon.</p>"
    },
    "tags": [],
    "actions": [],
    "attackNotes": [],
    "effectNotes": [],
    "changes": [],
    "contextNotes": [],
    "links": {
      "children": [],
      "charges": []
    },
    "tag": "classFeat_brutalManeuver",
    "useCustomTag": true,
    "armorProf": {
      "value": []
    },
    "weaponProf": {
      "value": []
    },
    "languages": {
      "value": []
    },
    "scriptCalls": [],
    "subType": "classFeat",
    "associations": {
      "classes": [["Vigilante"]]
    }
  }
}
