{
  "_id": "Zu3Amhv4wWbqHr8f",
  "name": "Celebrity Discount",
  "type": "feat",
  "img": "systems/pf1/icons/skills/light_07.jpg",
  "sort": 0,
  "flags": {},
  "system": {
    "description": {
      "value": "<p>The vigilante’s social identity is popular enough to receive discounts in his area of renown. Whenever he buys an item in his area of renown that costs 500 gp or less, he can buy it at 90% of the market price, rather than the full price. If he has the great renown social talent, the gp limit increases to 2,000 gp, and if he possesses the incredible renown social talent, the gp limit increases to 8,000 gp.</p>\n<p>A vigilante must be at least 3rd level and have the renown social talent to select this talent.</p>"
    },
    "tags": [],
    "actions": [],
    "attackNotes": [],
    "effectNotes": [],
    "changes": [],
    "contextNotes": [],
    "links": {
      "children": [],
      "charges": []
    },
    "tag": "classFeat_celebrityDiscount",
    "useCustomTag": true,
    "armorProf": {
      "value": []
    },
    "weaponProf": {
      "value": []
    },
    "languages": {
      "value": []
    },
    "scriptCalls": [],
    "subType": "classFeat",
    "associations": {
      "classes": [["Vigilante"]]
    },
    "abilityType": "ex"
  }
}
