{
  "_id": "YZuN3q44woBQJ8J2",
  "name": "Chain Infusion",
  "type": "feat",
  "img": "systems/pf1/icons/spells/lightning-blue-1.jpg",
  "sort": 0,
  "flags": {},
  "system": {
    "description": {
      "value": "<p><strong>Element</strong>&nbsp;air;<strong>&nbsp;Type</strong>&nbsp;form infusion;&nbsp;<strong>Level</strong>&nbsp;5;&nbsp;<strong>Burn</strong>&nbsp;3<br><strong>Associated Blasts</strong>&nbsp;electric<br><strong>Saving Throw&nbsp;</strong>none</p>\n<p>Your electric blast leaps from target to target. When you hit a target with your infused blast, you can attempt a ranged touch attack against an additional target that is within 30 feet of the first. Each additional attack originates from the previous target, which could alter cover and other conditions. Each additional target takes 1d6 fewer points of damage than the last (for example, 3d6 becomes 2d6), and you can’t chain the blast back to a previous target.</p>\n<p>You can continue chaining your blasts until a blast misses or fails to deal damage, or until your blast is reduced to a single damage die.</p>"
    },
    "tags": [],
    "actions": [],
    "attackNotes": [],
    "effectNotes": [],
    "changes": [],
    "contextNotes": [],
    "links": {
      "children": [],
      "charges": []
    },
    "tag": "classFeat_chainInfusion",
    "useCustomTag": true,
    "armorProf": {
      "value": []
    },
    "weaponProf": {
      "value": []
    },
    "languages": {
      "value": []
    },
    "scriptCalls": [],
    "subType": "classFeat",
    "associations": {
      "classes": [["Kineticist"]]
    }
  }
}
