{
  "_id": "HGkzeHj4l5WGcaPV",
  "name": "Charm of Wisdom",
  "type": "feat",
  "img": "systems/pf1/icons/items/inventory/badge-cross.jpg",
  "sort": 0,
  "flags": {},
  "system": {
    "description": {
      "value": "<p>You use your Wisdom modifier instead of your Charisma modifier when making Bluff, Diplomacy, and Intimidate checks.</p>"
    },
    "tags": [],
    "actions": [],
    "attackNotes": [],
    "effectNotes": [],
    "changes": [
      {
        "_id": "d9bhmqq4",
        "formula": "@abilities.wis.mod - @abilities.cha.mod",
        "operator": "add",
        "subTarget": "skill.blf",
        "modifier": "untyped",
        "priority": 0,
        "value": 0,
        "target": "skill"
      },
      {
        "_id": "u3k6i3nk",
        "formula": "@abilities.wis.mod - @abilities.cha.mod",
        "operator": "add",
        "subTarget": "skill.dip",
        "modifier": "untyped",
        "priority": 0,
        "value": 0,
        "target": "skill"
      },
      {
        "_id": "kr0ejrtm",
        "formula": "@abilities.wis.mod - @abilities.cha.mod",
        "operator": "add",
        "subTarget": "skill.int",
        "modifier": "untyped",
        "priority": 0,
        "value": 0,
        "target": "skill"
      }
    ],
    "contextNotes": [],
    "links": {
      "children": [],
      "charges": []
    },
    "tag": "classFeat_charmOfWisdom",
    "useCustomTag": true,
    "armorProf": {
      "value": []
    },
    "weaponProf": {
      "value": []
    },
    "languages": {
      "value": []
    },
    "scriptCalls": [],
    "subType": "classFeat",
    "associations": {
      "classes": [["Inquisitor"]]
    },
    "abilityType": "ex"
  }
}
