{
  "_id": "pcdsMAXhazLmEnjK",
  "name": "Claimed Turf",
  "type": "feat",
  "img": "systems/pf1/icons/items/weapons/dagger.PNG",
  "sort": 0,
  "flags": {},
  "system": {
    "description": {
      "value": "<p>The rogue is well known in a specific community in which she gains the benefits of renown. She gains the renown vigilante social talent (Pathfinder RPG Ultimate Intrigue 12). This community can be an entire settlement or portions of a settlement (such as a particular district or neighborhood), depending on the population as allowed by the renown social talent. Anytime she could select another rogue talent, the rogue can also select from the following list of social talents (from pages 10–13 of&nbsp;Ultimate Intrigue), using her rogue level as her vigilante level for the purpose meeting of prerequisites: celebrity discount, celebrity perks, gossip collector, great renown, incredible renown, loyal aid, and safe house. For the purposes of vigilante social talents, the rogue does not have a vigilante identity and is always considered to be in her social identity.</p>"
    },
    "tags": [],
    "actions": [],
    "attackNotes": [],
    "effectNotes": [],
    "changes": [],
    "contextNotes": [],
    "links": {
      "children": [],
      "charges": []
    },
    "tag": "classFeat_claimedTurf",
    "useCustomTag": true,
    "armorProf": {
      "value": []
    },
    "weaponProf": {
      "value": []
    },
    "languages": {
      "value": []
    },
    "scriptCalls": [],
    "subType": "classFeat",
    "associations": {
      "classes": [["Rogue"]]
    },
    "abilityType": "ex"
  }
}
