{
  "_id": "RF8ioMkLc7LNnNT1",
  "name": "Countersong",
  "type": "feat",
  "img": "systems/pf1/icons/feats/deafening-critical.jpg",
  "sort": 0,
  "flags": {},
  "system": {
    "description": {
      "value": "<p>At 1st level, a bard learns to counter magic effects that depend on sound (but not spells that have verbal&nbsp;<em>components</em>.) Each round of the countersong he makes a&nbsp;<em>Perform</em>&nbsp;(keyboard, percussion, wind, string, or sing) skill check. Any creature within 30 feet of the bard (including the bard himself) that is affected by a sonic or language-dependent magical attack may use the bard’s&nbsp;<em>Perform</em>&nbsp;check result in place of its saving throw if, after the saving throw is rolled, the&nbsp;<em>Perform</em>&nbsp;check result proves to be higher. If a creature within range of the countersong is already under the effect of a non-instantaneous sonic or language-dependent magical attack, it gains another saving throw against the effect each round it hears the countersong, but it must use the bard’s&nbsp;<em>Perform</em>&nbsp;skill check result for the save. Countersong does not work on effects that don’t allow saves. Countersong relies on audible components.</p>"
    },
    "tags": [],
    "actions": [],
    "attackNotes": [],
    "effectNotes": [],
    "changes": [],
    "contextNotes": [],
    "links": {
      "children": [],
      "charges": []
    },
    "tag": "classFeat_countersong",
    "useCustomTag": true,
    "armorProf": {
      "value": []
    },
    "weaponProf": {
      "value": []
    },
    "languages": {
      "value": []
    },
    "scriptCalls": [],
    "subType": "classFeat",
    "associations": {
      "classes": [["Bard"]]
    },
    "abilityType": "su"
  }
}
