{
  "_id": "ys1lPKXDsg8Yuca2",
  "name": "Counterspell Subschool",
  "type": "feat",
  "img": "systems/pf1/icons/spells/link-spirit-3.jpg",
  "sort": 0,
  "flags": {},
  "system": {
    "description": {
      "value": "<p><strong>Associated School:</strong>&nbsp;<em>Abjuration</em>.</p>\n<p><strong>Replacement Powers:</strong> This subschool replaces the protective ward power and the energy absorption power of the&nbsp;<em>abjuration</em>&nbsp;school.</p>"
    },
    "tags": [],
    "actions": [],
    "attackNotes": [],
    "effectNotes": [],
    "changes": [],
    "contextNotes": [],
    "links": {
      "children": [],
      "charges": []
    },
    "tag": "classFeat_counterspellSubschool",
    "useCustomTag": true,
    "armorProf": {
      "value": []
    },
    "weaponProf": {
      "value": []
    },
    "languages": {
      "value": []
    },
    "scriptCalls": [],
    "subType": "classFeat",
    "associations": {
      "classes": [["Wizard"]]
    }
  }
}
