{
  "_id": "xJDCdJ1QGioNqu7T",
  "name": "Crashing Waves",
  "type": "feat",
  "img": "systems/pf1/icons/skills/green_03.jpg",
  "sort": 0,
  "flags": {},
  "system": {
    "description": {
      "value": "<p>The force of a waves shaman’s water spells can bring even the mightiest of foes to the ground. When the shaman casts a spell with the water descriptor, she does so at 1 caster level higher. If that spell deals damage, the target must succeed at a Fortitude saving throw or be knocked prone.</p>\n<p>At 8th level, the shaman casts water spells at 2 caster levels higher.</p>\n<p>At 16th level, her ability to knock creatures prone extends to any spell that deals damage.</p>"
    },
    "tags": [],
    "actions": [],
    "attackNotes": [],
    "effectNotes": [],
    "changes": [],
    "contextNotes": [],
    "links": {
      "children": [],
      "charges": []
    },
    "tag": "classFeat_crashingWaves",
    "useCustomTag": true,
    "armorProf": {
      "value": []
    },
    "weaponProf": {
      "value": []
    },
    "languages": {
      "value": []
    },
    "scriptCalls": [],
    "subType": "classFeat",
    "associations": {
      "classes": [["Shaman"]]
    },
    "abilityType": "su"
  }
}
