{
  "_id": "QJi75fvhCPwa2e5U",
  "name": "Dark Tapestry Subdomain",
  "type": "feat",
  "img": "systems/pf1/icons/spells/shielding-eerie-1.jpg",
  "sort": 0,
  "flags": {},
  "system": {
    "description": {
      "value": "<p><strong>Replacement Domain Spells:</strong></p>\n<ul>\n<li>2nd -@Compendium[pf1.spells.26vm5jhjkxpq1xm3]{Summon Monster II}</li>\n<li>5th - @Compendium[pf1.spells.hd7ukybisvv7j5r6]{Summon Monster V}</li>\n<li>7th - @Compendium[pf1.spells.s6q72tw2zra9sycu]{Insanity}</li>\n</ul>"
    },
    "tags": [],
    "actions": [],
    "attackNotes": [],
    "effectNotes": [],
    "changes": [],
    "contextNotes": [],
    "links": {
      "children": [],
      "charges": []
    },
    "tag": "classFeat_darkTapestrySubdomain",
    "useCustomTag": true,
    "armorProf": {
      "value": []
    },
    "weaponProf": {
      "value": []
    },
    "languages": {
      "value": []
    },
    "scriptCalls": [],
    "subType": "classFeat",
    "associations": {
      "classes": [["Cleric"]]
    }
  }
}
