{
  "_id": "N6J8otTUB2B6Ru95",
  "name": "Deceptive Shapes",
  "type": "feat",
  "img": "systems/pf1/icons/spells/slice-spirit-3.jpg",
  "sort": 0,
  "flags": {},
  "system": {
    "description": {
      "value": "<p>At 5th level, you learn the hag’s art of concealing your true face to get what you want. You can change into any Small or Medium humanoid at will as @Compendium[pf1.spells.kouqz0pm1xl8xilm]{Alter Self}, though you don’t gain any special abilities or ability score adjustments. You can’t replicate a specific person using this ability.</p>"
    },
    "tags": [],
    "actions": [],
    "attackNotes": [],
    "effectNotes": [],
    "changes": [],
    "contextNotes": [],
    "links": {
      "children": [],
      "charges": []
    },
    "tag": "classFeat_deceptiveShapes",
    "useCustomTag": true,
    "armorProf": {
      "value": []
    },
    "weaponProf": {
      "value": []
    },
    "languages": {
      "value": []
    },
    "scriptCalls": [],
    "subType": "classFeat",
    "associations": {
      "classes": [["Psychic"]]
    },
    "abilityType": "su"
  }
}
