{
  "_id": "V3Cp48XNxBVzWP8K",
  "name": "Deception Subschool",
  "type": "feat",
  "img": "systems/pf1/icons/skills/shadow_11.jpg",
  "sort": 0,
  "flags": {},
  "system": {
    "description": {
      "value": "<p>Some illusionists rely more on their natural talents and less on flashy figments. Focused arcane schools replace one or more powers granted by a&nbsp;<em>wizard’s</em>&nbsp;arcane school.</p>\n<p><strong>Associated School:</strong> Illusion.</p>\n<p><strong>Replacement Powers: </strong>This subschool replaces the blinding ray and extended illusions powers of the illusion school.</p>"
    },
    "tags": [],
    "actions": [],
    "attackNotes": [],
    "effectNotes": [],
    "changes": [],
    "contextNotes": [],
    "links": {
      "children": [],
      "charges": []
    },
    "tag": "classFeat_deceptionSubschool",
    "useCustomTag": true,
    "armorProf": {
      "value": []
    },
    "weaponProf": {
      "value": []
    },
    "languages": {
      "value": []
    },
    "scriptCalls": [],
    "subType": "classFeat",
    "associations": {
      "classes": [["Wizard"]]
    }
  }
}
