{
  "_id": "El5wI6z3Lg7VO6G3",
  "name": "Deep Earth Bloodline",
  "type": "feat",
  "img": "systems/pf1/icons/skills/yellow_13.jpg",
  "sort": 0,
  "flags": {},
  "system": {
    "description": {
      "value": "<p><em>The echoing cave-songs and the rumble and creak of primal spirits deep below the ground thrum in your soul and in all your family line. You are likely slow, steady, and stable in your thinking, little prone to wandering and preferring to instead find depth in contemplation.</em></p>\n<p><strong>Class Skill:</strong>&nbsp;<em>Knowledge</em>&nbsp;(dungeoneering).</p>\n<p><strong>Bonus Spells</strong>:</p>\n<ul>\n<li>@Compendium[pf1.spells.3v1k7qnzd13s5dj3]{Expeditious Excavation} (3rd),</li>\n<li>@Compendium[pf1.spells.mz9yr5yhr0f3oqtp]{Darkvision}&nbsp;(5th),</li>\n<li>@Compendium[pf1.spells.gfpijdqnckv9i34s]{Shifting Sand} (7th),</li>\n<li>@Compendium[pf1.spells.knyako6zopc1chrv]{Stoneskin}&nbsp;(9th),</li>\n<li>@Compendium[pf1.spells.hfyycpn0wdimx1n9]{Spike Stones} (11th),</li>\n<li>@Compendium[pf1.spells.wgm8mm1za909pwch]{Stone Tell}&nbsp;(13th),</li>\n<li>@Compendium[pf1.spells.oeemcnfjod9zd7my]{Repel Metal or Stone}&nbsp;(15th),</li>\n<li>@Compendium[pf1.spells.a5gcbpwfhu4hh5ic]{Earthquake}&nbsp;(17th),</li>\n<li>@Compendium[pf1.spells.o8jhvddxgunzx94i]{Clashing Rocks}&nbsp;(19th).</li>\n</ul>\n<p><strong>Bonus Feats</strong>:</p>\n<ul>\n<li>@Compendium[pf1.feats.B6wEQOUMv2ifm2Nj]{Acrobatic Steps},</li>\n<li>@Compendium[pf1.feats.Q1cY8r0Pvb66pMG0]{Alertness},</li>\n<li>@Compendium[pf1.feats.pmAO1Sni8xx71pLF]{Blind-Fight},</li>\n<li>@Compendium[pf1.feats.HVu9JzllWoLzKKqH]{Forge Ring},</li>\n<li>@Compendium[pf1.feats.VMVAqGze4cs3naya]{Nimble Moves},</li>\n<li>@Compendium[pf1.feats.7zJTztNW7hdaqjKc]{Skill Focus}&nbsp;(<em>Perception</em>),</li>\n<li>@Compendium[pf1.feats.f5FPqAYWlKj3zCIY]{Stealthy},</li>\n<li>@Compendium[pf1.feats.jVFjMIyQD6TOAsmj]{Still Spell}.</li>\n</ul>\n<p><a name=\"TOC-Bloodline-Arcana\"></a><strong>Bloodline Arcana:</strong> Whenever you and the target of your spell are both underground, increase the spell’s save DC by +1.</p>"
    },
    "tags": [],
    "actions": [],
    "attackNotes": [],
    "effectNotes": [],
    "changes": [],
    "contextNotes": [],
    "links": {
      "children": [],
      "charges": []
    },
    "tag": "classFeat_deepEarthBloodline",
    "useCustomTag": true,
    "armorProf": {
      "value": []
    },
    "weaponProf": {
      "value": []
    },
    "languages": {
      "value": []
    },
    "scriptCalls": [],
    "subType": "classFeat",
    "associations": {
      "classes": [["Sorcerer"]]
    }
  }
}
