{
  "_id": "dPArYPqJKivFfE3O",
  "name": "Didactic Strike",
  "type": "feat",
  "img": "systems/pf1/icons/items/weapons/sword-cane.png",
  "sort": 0,
  "flags": {},
  "system": {
    "description": {
      "value": "<p>When the investigator activates his studied strike, he can end his studied combat and choose not to deal his studied strike damage. He is instead able to show any allies within 30 feet who can see him a weak spot on the target. Until the beginning of the investigator’s next turn, each affected ally’s first attack that hits the target deals additional damage equal to one-third the investigator’s level.</p>\n<p>He can end this effect as an immediate action to instead cause an affected ally’s first successful attack to deal the investigator’s studied strike damage. This additional damage is precision damage and does not affect creatures that are immune to sneak attacks.</p>"
    },
    "tags": [],
    "actions": [],
    "attackNotes": [],
    "effectNotes": [],
    "changes": [],
    "contextNotes": [],
    "links": {
      "children": [],
      "charges": []
    },
    "tag": "classFeat_didacticStrike",
    "useCustomTag": true,
    "armorProf": {
      "value": []
    },
    "weaponProf": {
      "value": []
    },
    "languages": {
      "value": []
    },
    "scriptCalls": [],
    "subType": "classFeat",
    "associations": {
      "classes": [["Investigator"]]
    }
  }
}
