{
  "_id": "7AZG7JFuBKDQX9hs",
  "name": "Distant Spellstrike",
  "type": "feat",
  "img": "systems/pf1/icons/spells/enchant-red-3.jpg",
  "sort": 0,
  "flags": {},
  "system": {
    "description": {
      "value": "<p>The range of any spell the magus delivers through a ranged weapon attack increases to the maximum range of the weapon if that is greater than the spell’s range.</p>\n<p>The magus must be at least 12th level and must have ranged spellstrike to select this arcana.</p>"
    },
    "tags": [],
    "actions": [],
    "attackNotes": [],
    "effectNotes": [],
    "changes": [],
    "contextNotes": [],
    "links": {
      "children": [],
      "charges": []
    },
    "tag": "classFeat_distantSpellstrike",
    "useCustomTag": true,
    "armorProf": {
      "value": []
    },
    "weaponProf": {
      "value": []
    },
    "languages": {
      "value": []
    },
    "scriptCalls": [],
    "subType": "classFeat",
    "associations": {
      "classes": [["Magus"]]
    },
    "abilityType": "su"
  }
}
