{
  "_id": "Nq0fTEqWL237nmz8",
  "name": "Djinni Bloodline",
  "type": "feat",
  "img": "systems/pf1/icons/items/inventory/element-air.jpg",
  "sort": 0,
  "flags": {},
  "system": {
    "description": {
      "value": "<p><em>You were born with the power of air genies, and the magic of the djinn is strong in you.</em></p>\n<p><strong>Class Skill:</strong>&nbsp;<em>Knowledge</em>&nbsp;(planes).</p>\n<p><strong>Bonus Spells:</strong></p>\n<ul>\n<li>@Compendium[pf1.spells.33pe0bge7b7aq3io]{Shocking Grasp} (3rd),</li>\n<li>@Compendium[pf1.spells.oylikodnyku2zewu]{Invisibility}&nbsp;(5th),</li>\n<li>@Compendium[pf1.spells.7d6sv5ecvi7kho3m]{Fly}&nbsp;(7th),</li>\n<li>@Compendium[pf1.spells.jsvjsax2eabrlx8g]{Minor Creation}&nbsp;(9th),</li>\n<li>@Compendium[pf1.spells.wqvy12w1xgk6l9b0]{Overland Flight}&nbsp;(11th),</li>\n<li>@Compendium[pf1.spells.6vfauefzzmwl4az7]{Chain Lightning}&nbsp;(13th),</li>\n<li>@Compendium[pf1.spells.q3st18udsalnyz5v]{Plane Shift} (15th),</li>\n<li>@Compendium[pf1.spells.bbmd0fj17jsf5300]{Planar Binding, Greater}&nbsp;(17th),</li>\n<li>@Compendium[pf1.spells.nnj51dwfkwd15ngj]{Wish}&nbsp;(19th).</li>\n</ul>\n<p><strong>Bonus Feats:</strong></p>\n<ul>\n<li>@Compendium[pf1.feats.JreaiTHdyWFNj3Tb]{Dodge},</li>\n<li>@Compendium[pf1.feats.77gXSucrxfrE9yWk]{Empower Spell},</li>\n<li>@Compendium[pf1.feats.fVRnBIHR4Jq6btvm]{Great Fortitude},</li>\n<li>@Compendium[pf1.feats.Uuiu3p982omhMEPj]{Improved Initiative},</li>\n<li>@Compendium[pf1.feats.0bZf3SDkvVOe2ujH]{Lightning Reflexes},</li>\n<li>@Compendium[pf1.feats.FUW5mIXHNBBIQ1Sq]{Power Attack},</li>\n<li>@Compendium[pf1.feats.7zJTztNW7hdaqjKc]{Skill Focus}&nbsp;(<em>Knowledge</em>&nbsp;[planes]),</li>\n<li>@Compendium[pf1.feats.vWiTqHC4Y3Xn1Pme]{Weapon Finesse}.</li>\n</ul>\n<p><strong>Bloodline Arcana:</strong> Whenever you cast a spell that deals energy damage, you can change the type of damage to electricity. This also changes the spell’s descriptors to match this energy type.</p>"
    },
    "tags": [],
    "actions": [],
    "attackNotes": [],
    "effectNotes": [],
    "changes": [],
    "contextNotes": [],
    "links": {
      "children": [],
      "charges": []
    },
    "tag": "classFeat_djinniBloodline",
    "useCustomTag": true,
    "armorProf": {
      "value": []
    },
    "weaponProf": {
      "value": []
    },
    "languages": {
      "value": []
    },
    "scriptCalls": [],
    "subType": "classFeat",
    "associations": {
      "classes": [["Sorcerer"]]
    }
  }
}
