{
  "_id": "QrVcjfFLqFJwKWha",
  "name": "Dread Bomb",
  "type": "feat",
  "img": "systems/pf1/icons/items/potions/unique-3.jpg",
  "sort": 0,
  "flags": {},
  "system": {
    "description": {
      "value": "<p>Your anguish bombs are tainted with fear and dread. Creatures who take damage from your anguish bombs become frightened for 1d6 rounds. A target that succeeds at a Will saving throw is instead shaken for a single round.</p>\n<p>An alchemist must be 6th level and have the anguish bomb class feature or the anguish bomb discovery before selecting this discovery.</p>"
    },
    "tags": [],
    "actions": [],
    "attackNotes": [],
    "effectNotes": [],
    "changes": [],
    "contextNotes": [],
    "links": {
      "children": [],
      "charges": []
    },
    "tag": "classFeat_dreadBomb",
    "useCustomTag": true,
    "armorProf": {
      "value": []
    },
    "weaponProf": {
      "value": []
    },
    "languages": {
      "value": []
    },
    "scriptCalls": [],
    "subType": "classFeat",
    "associations": {
      "classes": [["Alchemist"]]
    }
  }
}
