{
  "_id": "h6TzHSq6iUwHfm6n",
  "name": "Earth Totem, Greater",
  "type": "feat",
  "img": "systems/pf1/icons/feats/deafening-critical.jpg",
  "sort": 0,
  "flags": {},
  "system": {
    "description": {
      "value": "<p>While raging, the barbarian’s skin becomes as hard as stone. If the barbarian is hit with a manufactured weapon while raging, the weapon takes an amount of damage equal to half that dealt to the barbarian (ignoring damage reduction).</p>"
    },
    "tags": [],
    "actions": [],
    "attackNotes": [],
    "effectNotes": [],
    "changes": [],
    "contextNotes": [],
    "links": {
      "children": [],
      "charges": []
    },
    "tag": "classFeat_earthTotemGreater",
    "useCustomTag": true,
    "armorProf": {
      "value": []
    },
    "weaponProf": {
      "value": []
    },
    "languages": {
      "value": []
    },
    "scriptCalls": [],
    "subType": "classFeat",
    "associations": {
      "classes": [["Barbarian"], ["Skald"]]
    },
    "abilityType": "su"
  }
}
