{
  "_id": "cILuW33UDhe2DYsk",
  "name": "Education Subdomain",
  "type": "feat",
  "img": "systems/pf1/icons/items/inventory/book-tan.jpg",
  "sort": 0,
  "flags": {},
  "system": {
    "description": {
      "value": "<p><strong>Replacement Domain Spells:</strong></p>\n<ul>\n<li>1st—@Compendium[pf1.spells.sq6nz4vdj7qlzrdl]{Know The Enemy}</li>\n<li>2nd—@Compendium[pf1.spells.743anqr1ahefv8zd]{Fox's Cunning}</li>\n<li>6th—@Compendium[pf1.spells.eg3i21asvo69mbma]{Battlemind Link}</li>\n<li>8th—@Compendium[pf1.spells.y4881ol4t79wj7sf]{Circle Of Clarity}</li>\n</ul>"
    },
    "tags": [],
    "actions": [],
    "attackNotes": [],
    "effectNotes": [],
    "changes": [],
    "contextNotes": [],
    "links": {
      "children": [],
      "charges": []
    },
    "tag": "classFeat_educationSubdomain",
    "useCustomTag": true,
    "armorProf": {
      "value": []
    },
    "weaponProf": {
      "value": []
    },
    "languages": {
      "value": []
    },
    "scriptCalls": [],
    "subType": "classFeat",
    "associations": {
      "classes": [["Cleric"]]
    }
  }
}
