{
  "_id": "PuzIaPLe5w4eF72t",
  "name": "Empowered Consciousness",
  "type": "feat",
  "img": "systems/pf1/icons/skills/emerald_09.jpg",
  "sort": 0,
  "flags": {},
  "system": {
    "description": {
      "value": "<p>At 20th level, while a spiritualist’s phantom is confined in her consciousness, she is immune to mind-affecting effects and spells and effects that involve possession, such as @Compendium[pf1.spells.8ai7fslz4zu8xe9s]{Magic Jar}&nbsp;and @Compendium[pf1.spells.4mw83czf7b62rar3]{Possession}.</p>"
    },
    "tags": [],
    "actions": [],
    "attackNotes": [],
    "effectNotes": [],
    "changes": [],
    "contextNotes": [],
    "links": {
      "children": [],
      "charges": []
    },
    "tag": "classFeat_empoweredConsciousness",
    "useCustomTag": true,
    "armorProf": {
      "value": []
    },
    "weaponProf": {
      "value": []
    },
    "languages": {
      "value": []
    },
    "scriptCalls": [],
    "subType": "classFeat",
    "associations": {
      "classes": [["Spiritualist"]]
    },
    "abilityType": "su"
  }
}
