{
  "_id": "uSsuiCjyiA4VO948",
  "name": "Eruption Infusion",
  "type": "feat",
  "img": "systems/pf1/icons/spells/fireball-red-3.jpg",
  "sort": 0,
  "flags": {},
  "system": {
    "description": {
      "value": "<p><strong>Element&nbsp;</strong>fire;&nbsp;<strong>Type&nbsp;</strong>form infusion;&nbsp;<strong>Level&nbsp;</strong>3;&nbsp;<strong>Burn&nbsp;</strong>2<br><strong>Prerequisite&nbsp;</strong>extended range<br><strong>Associated Blasts&nbsp;</strong>blue flame, fire, magma, steam<br><strong>Saving Throw&nbsp;</strong>Reflex half</p>\n<p>Your kinetic blast erupts from the ground in a pillar centered anywhere within 120 feet of you. The pillar affects all creatures and objects in a 10-foot-radius cylinder that extends 40 feet above the ground. An energy blast infused with eruption deals its normal damage to each target, while a physical blast deals half its normal amount of damage. The saving throw DC is Dexterity-based.</p>"
    },
    "tags": [],
    "actions": [],
    "attackNotes": [],
    "effectNotes": [],
    "changes": [],
    "contextNotes": [],
    "links": {
      "children": [],
      "charges": []
    },
    "tag": "classFeat_eruptionInfusion",
    "useCustomTag": true,
    "armorProf": {
      "value": []
    },
    "weaponProf": {
      "value": []
    },
    "languages": {
      "value": []
    },
    "scriptCalls": [],
    "subType": "classFeat",
    "associations": {
      "classes": [["Kineticist"]]
    }
  }
}
