{
  "_id": "ECLY6q5Wz84xvElu",
  "name": "Fire Totem, Greater",
  "type": "feat",
  "img": "systems/pf1/icons/feats/deafening-critical.jpg",
  "sort": 0,
  "flags": {},
  "system": {
    "description": {
      "value": "<p>While raging, the barbarian can envelope herself in a cloud of smoke that fills a 10-foot-radius sphere and follows her as she moves. Creatures in the affected area must succeed at Fortitude saves each round or&nbsp;<a href=\"https://aonprd.com/Rules.aspx?Name=Smoke%20Effects&amp;Category=Environmental%20Rules\">suffer the effects of breathing heavy smoke</a>. The barbarian is immune to the smoke’s effects, including vision obstruction. She can end this smoke as a free action, or it can be dispersed by wind in the same manner as a @Compendium[pf1.spells.g33euis7yi9pwddy]{Fog Cloud}&nbsp;spell.</p>"
    },
    "tags": [],
    "actions": [],
    "attackNotes": [],
    "effectNotes": [],
    "changes": [],
    "contextNotes": [],
    "links": {
      "children": [],
      "charges": []
    },
    "tag": "classFeat_fireTotemGreater",
    "useCustomTag": true,
    "armorProf": {
      "value": []
    },
    "weaponProf": {
      "value": []
    },
    "languages": {
      "value": []
    },
    "scriptCalls": [],
    "subType": "classFeat",
    "associations": {
      "classes": [["Barbarian"], ["Skald"]]
    },
    "abilityType": "su"
  }
}
