{
  "_id": "RIES66UkylfadaSf",
  "name": "Fist of the Avenger",
  "type": "feat",
  "img": "systems/pf1/icons/feats/deceitful.jpg",
  "sort": 0,
  "flags": {},
  "system": {
    "description": {
      "value": "<p>The vigilante gains @Compendium[pf1.feats.2aTFNMs3pW6nUBlr]{Improved Unarmed Strike} as a bonus feat, if he doesn’t have this feat already. In addition, whenever he successfully attacks with his fist or a gauntlet, he gains a bonus on damage rolls equal to half his vigilante level (minimum +1, maximum of +5).</p>\n<p>Only an avenger vigilante can select this talent.</p>"
    },
    "tags": [],
    "actions": [],
    "attackNotes": [],
    "effectNotes": [],
    "changes": [],
    "contextNotes": [],
    "links": {
      "children": [],
      "charges": []
    },
    "tag": "classFeat_fistOfTheAvenger",
    "useCustomTag": true,
    "armorProf": {
      "value": []
    },
    "weaponProf": {
      "value": []
    },
    "languages": {
      "value": []
    },
    "scriptCalls": [],
    "subType": "classFeat",
    "associations": {
      "classes": [["Vigilante"]]
    },
    "abilityType": "ex"
  }
}
