{
  "_id": "NTfhSmNoNuQ5mBNs",
  "name": "Flight Hex",
  "type": "feat",
  "img": "systems/pf1/icons/skills/violet_02.jpg",
  "sort": 0,
  "flags": {},
  "system": {
    "description": {
      "value": "<p>The witch grows lighter as she gains power, eventually gaining the ability to fly.</p>\n<p>At 1st level, the witch can use&nbsp;feather fall&nbsp;at will and gains a +4 racial bonus on Swim checks.</p>\n<p>At 3rd level, she can cast&nbsp;levitate&nbsp;once per day.</p>\n<p>At 5th level, she can fly, as per the spell, for a number of minutes per day equal to her level.</p>\n<p>These minutes do not need to be consecutive, but they must be spent in 1-minute increments. This hex only affects the witch.</p>"
    },
    "tags": [],
    "actions": [],
    "attackNotes": [],
    "effectNotes": [],
    "changes": [],
    "contextNotes": [],
    "links": {
      "children": [],
      "charges": []
    },
    "tag": "classFeat_flightHex",
    "useCustomTag": true,
    "armorProf": {
      "value": []
    },
    "weaponProf": {
      "value": []
    },
    "languages": {
      "value": []
    },
    "scriptCalls": [],
    "subType": "classFeat",
    "associations": {
      "classes": [["Witch"]]
    },
    "abilityType": "su"
  }
}
