{
  "_id": "TaBxJdJQp5SFDPyn",
  "name": "Flurry of Blows (UC)",
  "type": "feat",
  "img": "systems/pf1/icons/items/weapons/cestus.png",
  "sort": 0,
  "flags": {},
  "system": {
    "description": {
      "value": "<p>At 1st level, a monk can make a flurry of blows as a full-attack action. When making a flurry of blows, the monk can make one additional attack at his highest base attack bonus. This additional attack stacks with the bonus attacks from haste and other similar effects. When using this ability, the monk can make these attacks with any combination of his unarmed strikes and weapons that have the monk special weapon quality. He takes no penalty for using multiple weapons when making a flurry of blows, but he does not gain any additional attacks beyond what’s already granted by the flurry for doing so. (He can still gain additional attacks from a high base attack bonus, from this ability, and from haste and similar effects).<br><br>At 11th level, a monk can make an additional attack at his highest base attack bonus whenever he makes a flurry of blows. This stacks with the first attack from this ability and additional attacks from&nbsp;haste&nbsp;and similar effects.</p>"
    },
    "tags": [],
    "actions": [
      {
        "_id": "ayzdgxjqnttq48zt",
        "name": "Use",
        "img": "systems/pf1/icons/items/weapons/cestus.png",
        "description": "",
        "tag": "",
        "activation": {
          "cost": 1,
          "type": "full"
        },
        "unchainedAction": {
          "activation": {
            "cost": 3,
            "type": "action"
          }
        },
        "duration": {
          "value": null,
          "units": ""
        },
        "target": {
          "value": ""
        },
        "range": {
          "value": null,
          "units": "",
          "maxIncrements": 1,
          "minValue": null,
          "minUnits": ""
        },
        "uses": {
          "autoDeductChargesCost": "0",
          "self": {
            "value": 0,
            "maxFormula": "",
            "per": null
          },
          "per": "",
          "value": 0,
          "maxFormula": ""
        },
        "measureTemplate": {
          "type": "",
          "size": "",
          "overrideColor": false,
          "customColor": "",
          "overrideTexture": false,
          "customTexture": ""
        },
        "attackName": "",
        "actionType": "",
        "attackBonus": "",
        "critConfirmBonus": "",
        "damage": {
          "parts": [],
          "critParts": [],
          "nonCritParts": []
        },
        "attackParts": [],
        "formulaicAttacks": {
          "count": {
            "formula": ""
          },
          "bonus": {
            "formula": ""
          },
          "label": null
        },
        "formula": "",
        "ability": {
          "attack": null,
          "damage": null,
          "damageMult": 1,
          "critRange": 20,
          "critMult": 2
        },
        "save": {
          "dc": 0,
          "type": "",
          "description": ""
        },
        "effectNotes": [],
        "attackNotes": [],
        "soundEffect": "",
        "powerAttack": {
          "multiplier": "",
          "damageBonus": 2,
          "critMultiplier": 1
        },
        "naturalAttack": {
          "primaryAttack": true,
          "secondary": {
            "attackBonus": "-5",
            "damageMult": 0.5
          }
        },
        "nonlethal": false,
        "usesAmmo": false,
        "spellEffect": "",
        "spellArea": "",
        "conditionals": [],
        "enh": {
          "value": null
        }
      }
    ],
    "uses": {
      "per": ""
    },
    "attackNotes": [],
    "effectNotes": [],
    "changes": [],
    "contextNotes": [],
    "links": {
      "children": [],
      "charges": []
    },
    "tag": "classFeat_flurryOfBlowsUc",
    "useCustomTag": true,
    "armorProf": {
      "value": []
    },
    "weaponProf": {
      "value": []
    },
    "languages": {
      "value": []
    },
    "scriptCalls": [],
    "subType": "classFeat",
    "associations": {
      "classes": [["Monk (Unchained)"]]
    },
    "abilityType": "ex"
  }
}
