{
  "_id": "iFDhUcsaN8l5HY5B",
  "name": "Friend to Nature",
  "type": "feat",
  "img": "systems/pf1/icons/skills/green_13.jpg",
  "sort": 0,
  "flags": {},
  "system": {
    "description": {
      "value": "<p>At 9th level, once per day you can create a spear of pure light and throw it at a creature within 60 feet as a&nbsp;<em>standard action</em>. This is a ranged&nbsp;<em>touch attack</em>&nbsp;that uses your&nbsp;<em>Charisma</em>&nbsp;modifier in place of your&nbsp;<em>Dexterity</em>&nbsp;modifier to determine the&nbsp;<em>attack bonus</em>. The&nbsp;<em>spear</em>&nbsp;deals 1d6 points of damage per&nbsp;<em>sorcerer</em>&nbsp;level and ignores all&nbsp;<em>damage reduction</em>&nbsp;and&nbsp;<em>hardness</em>. This damage increases to 1d8 points of damage per&nbsp;<em>sorcerer</em>&nbsp;level against an evil creature. At 13th level, you can use this ability twice per day. At 17th level, you can use this ability three times per day.</p>"
    },
    "tags": [],
    "actions": [
      {
        "_id": "shwknhq1mva6ho7d",
        "name": "Use",
        "img": "systems/pf1/icons/skills/green_13.jpg",
        "description": "",
        "tag": "",
        "activation": {
          "cost": 1,
          "type": "free"
        },
        "unchainedAction": {
          "activation": {
            "cost": 1,
            "type": "free"
          }
        },
        "duration": {
          "value": null,
          "units": ""
        },
        "target": {
          "value": ""
        },
        "range": {
          "value": null,
          "units": "",
          "maxIncrements": 1,
          "minValue": null,
          "minUnits": ""
        },
        "uses": {
          "autoDeductChargesCost": "",
          "self": {
            "value": 0,
            "maxFormula": "",
            "per": null
          },
          "per": "",
          "value": 0,
          "maxFormula": ""
        },
        "measureTemplate": {
          "type": "",
          "size": "0",
          "overrideColor": false,
          "customColor": "",
          "overrideTexture": false,
          "customTexture": ""
        },
        "attackName": "",
        "actionType": "",
        "attackBonus": "",
        "critConfirmBonus": "",
        "damage": {
          "parts": [],
          "critParts": [],
          "nonCritParts": []
        },
        "attackParts": [],
        "formulaicAttacks": {
          "count": {
            "formula": ""
          },
          "bonus": {
            "formula": ""
          },
          "label": null
        },
        "formula": "",
        "ability": {
          "attack": null,
          "damage": null,
          "damageMult": 1,
          "critRange": 20,
          "critMult": 2
        },
        "save": {
          "dc": 0,
          "type": "",
          "description": ""
        },
        "effectNotes": [],
        "attackNotes": [],
        "soundEffect": "",
        "powerAttack": {
          "multiplier": "",
          "damageBonus": 2,
          "critMultiplier": 1
        },
        "naturalAttack": {
          "primaryAttack": true,
          "secondary": {
            "attackBonus": "-5",
            "damageMult": 0.5
          }
        },
        "nonlethal": false,
        "usesAmmo": false,
        "spellEffect": "",
        "spellArea": "",
        "conditionals": [],
        "enh": {
          "value": null
        }
      }
    ],
    "uses": {
      "per": ""
    },
    "attackNotes": [],
    "effectNotes": [],
    "changes": [],
    "contextNotes": [],
    "links": {
      "children": [],
      "charges": []
    },
    "tag": "classFeat_friendToNature",
    "useCustomTag": true,
    "armorProf": {
      "value": []
    },
    "weaponProf": {
      "value": []
    },
    "languages": {
      "value": []
    },
    "scriptCalls": [],
    "subType": "classFeat",
    "associations": {
      "classes": [["Sorcerer"]]
    },
    "abilityType": "su"
  }
}
