{
  "_id": "wF0YVRxTZrrQ7uGl",
  "name": "Frost Spirit Manifestation",
  "type": "feat",
  "img": "systems/pf1/icons/skills/violet_20.jpg",
  "sort": 0,
  "flags": {},
  "system": {
    "description": {
      "value": "<p>Upon reaching 20th level, the shaman becomes a being of ice and snow. The shaman gains immunity to cold. She can also apply any one of the following feats to any spell with the cold descriptor that she casts without increasing the spell’s level or casting time:&nbsp;</p>\n<ul>\n<li>@Compendium[pf1.feats.9mcYid7xJY9NiySx]{Enlarge Spell}</li>\n<li>@Compendium[pf1.feats.btXWioB3SKJv8YEG]{Extend Spell}</li>\n<li>@Compendium[pf1.feats.2YuxcUNFMPNBpekG]{Silent Spell}</li>\n<li>@Compendium[pf1.feats.jVFjMIyQD6TOAsmj]{Still Spell}</li>\n</ul>\n<p>She doesn’t need to have these feats to use this ability.</p>"
    },
    "tags": [],
    "actions": [],
    "attackNotes": [],
    "effectNotes": [],
    "changes": [],
    "contextNotes": [],
    "links": {
      "children": [],
      "charges": []
    },
    "tag": "classFeat_frostSpiritManifestation",
    "useCustomTag": true,
    "armorProf": {
      "value": []
    },
    "weaponProf": {
      "value": []
    },
    "languages": {
      "value": []
    },
    "scriptCalls": [],
    "subType": "classFeat",
    "associations": {
      "classes": [["Shaman"]]
    }
  }
}
