{
  "_id": "G6ndTlrH7vQ8DF3b",
  "name": "Frost Spirit",
  "type": "feat",
  "img": "systems/pf1/icons/skills/violet_11.jpg",
  "sort": 0,
  "flags": {},
  "system": {
    "description": {
      "value": "<p><em>Far to the north, Erutaki tribes have adapted to life in the bitter cold of the Crown of the World. The frost spirit is seen by some Erutaki as a protector of their way of life, and shamans who commune with the spirit are shown great respect in their communities.</em><br><br><em>A shaman who selects the frost spirit has coarse white hair and always feels cold to the touch.</em><br><br><strong>Spirit Magic Spells:&nbsp;</strong></p>\n<ul>\n<li>@Compendium[pf1.spells.grgpvfexq2dh31fq]{Frostbite} (1st),&nbsp;</li>\n<li>@Compendium[pf1.spells.jgx8sur7w4k93mql]{Elemental Touch} (cold only) (2nd),&nbsp;</li>\n<li>@Compendium[pf1.spells.q35l6m4pggb4y98v]{Elemental Aura} (cold only) (3rd),&nbsp;</li>\n<li>@Compendium[pf1.spells.t1uhggjfimtabp4v]{Ice Storm} (4th),&nbsp;</li>\n<li>@Compendium[pf1.spells.hd7ukybisvv7j5r6]{Summon Monster V} (ice elementals only) (5th),&nbsp;</li>\n<li>@Compendium[pf1.spells.ol05jfb606v0lzj9]{Freezing Sphere} (6th),&nbsp;</li>\n<li>@Compendium[pf1.spells.qubzqiz5mqs8tbqr]{Ice Body} (7th),&nbsp;</li>\n<li>@Compendium[pf1.spells.8jq1atxonnerix55]{Polar Ray} (8th),&nbsp;</li>\n<li>@Compendium[pf1.spells.ezpm33cvtlq8aswa]{Icy Prison, Mass} (9th).</li>\n</ul>\n<p><strong>Spirit Animal:</strong> The shaman’s spirit animal is covered in a light layer of glimmering frost, and its breath comes out as mist regardless of the temperature. The animal has resistance 5 to cold and electricity.</p>"
    },
    "tags": [],
    "actions": [],
    "attackNotes": [],
    "effectNotes": [],
    "changes": [],
    "contextNotes": [],
    "links": {
      "children": [],
      "charges": []
    },
    "tag": "classFeat_frostSpirit",
    "useCustomTag": true,
    "armorProf": {
      "value": []
    },
    "weaponProf": {
      "value": []
    },
    "languages": {
      "value": []
    },
    "scriptCalls": [],
    "subType": "classFeat",
    "associations": {
      "classes": [["Shaman"]]
    }
  }
}
