{
  "_id": "O3bwBwC5tWrnKmbk",
  "name": "Greater Spell Resistance",
  "type": "feat",
  "img": "systems/pf1/icons/spells/runes-blue-3.jpg",
  "sort": 0,
  "flags": {},
  "system": {
    "description": {
      "value": "<p>Whenever the arcanist uses the spell resistance exploit, the spell resistance is equal to 11 + the arcanist’s level.</p>\n<p>The arcanist must have the spell resistance exploit to select this exploit.</p>"
    },
    "tags": [],
    "actions": [],
    "attackNotes": [],
    "effectNotes": [],
    "changes": [],
    "contextNotes": [],
    "links": {
      "children": [],
      "charges": []
    },
    "tag": "classFeat_greaterSpellResistance",
    "useCustomTag": true,
    "armorProf": {
      "value": []
    },
    "weaponProf": {
      "value": []
    },
    "languages": {
      "value": []
    },
    "scriptCalls": [],
    "subType": "classFeat",
    "associations": {
      "classes": [["Arcanist"]]
    },
    "abilityType": "su"
  }
}
