{
  "_id": "gZ1NHJ3s6IcxmdGQ",
  "name": "Horse Aspect",
  "type": "feat",
  "img": "systems/pf1/icons/skills/blue_29.jpg",
  "sort": 0,
  "flags": {},
  "system": {
    "description": {
      "value": "<p><em>The aspect of the horse grants speed and maneuverability. A horse’s alternate attack is hoof (B).</em><br><br><strong>Minor Form:</strong> You gain the @Compendium[pf1.feats.ehqx8txNRGMaNOPt]{Endurance}&nbsp;feat as well as an enhancement bonus of +5 feet to your base speed.</p>\n<p>At 8th level, you gain the @Compendium[pf1.feats.bXeW4kLCErPBFpNB]{Run} feat. If you already have the @Compendium[pf1.feats.bXeW4kLCErPBFpNB]{Run}&nbsp;feat, you instead can run at 6 times your base speed when using the Run feat.</p>\n<p>At 15th level, your enhancement bonus to your base speed increases to +15.<br><br><strong>Major Form: </strong>Your shape changes to that of a&nbsp;<a href=\"https://www.aonprd.com/MonsterDisplay.aspx?ItemName=Horse\">horse</a>. While in this form, you gain a base speed of 50 feet, low-light vision, scent (30 feet), and the ability to move before and after an attack, as if you had the @Compendium[pf1.feats.liPAO5urMI9chctT]{Ride-By Attack}&nbsp;feat.</p>\n<p>At 8th level, you can move through threatened squares without provoking attacks of opportunity, and you gain&nbsp;<a href=\"https://www.aonprd.com/UMR.aspx?ItemName=Trample\">trample</a>, as the universal monster rule, dealing your shifter claw damage.</p>\n<p>At 15th level, you gain @Compendium[pf1.feats.go4xOiSUP8R1QJ5N]{Improved Overrun}&nbsp;as a bonus feat, even if you do not meet the prerequisites.<br><br><strong>Alternate Natural Attacks:</strong> Hoof (B)</p>"
    },
    "tags": [],
    "actions": [],
    "attackNotes": [],
    "effectNotes": [],
    "changes": [],
    "contextNotes": [],
    "links": {
      "children": [],
      "charges": []
    },
    "tag": "classFeat_horseAspect",
    "useCustomTag": true,
    "armorProf": {
      "value": []
    },
    "weaponProf": {
      "value": []
    },
    "languages": {
      "value": []
    },
    "scriptCalls": [],
    "subType": "classFeat",
    "associations": {
      "classes": [["Shifter"]]
    }
  }
}
