{
  "_id": "bYP0k1103HwPoCjr",
  "name": "Kinetic Whip Infusion",
  "type": "feat",
  "img": "systems/pf1/icons/spells/runes-blue-1.jpg",
  "sort": 0,
  "flags": {},
  "system": {
    "description": {
      "value": "<p><strong>Element&nbsp;</strong>universal;&nbsp;<strong>Type&nbsp;</strong>form infusion;&nbsp;<strong>Level&nbsp;</strong>3;&nbsp;<strong>Burn&nbsp;</strong>2<br><strong>Prerequisite&nbsp;</strong>kinetic blade<br><strong>Associated Blasts&nbsp;</strong>any<br><strong>Saving Throw&nbsp;</strong>none</p>\n<p>You form a long tendril of energy or elemental matter. This functions as kinetic blade but counts as a reach weapon appropriate for your size. Unlike most reach weapons, the kinetic whip can also attack nearby creatures.</p>\n<p>The kinetic whip disappears at the beginning of your next turn, but in the intervening time, it threatens all squares within its reach, allowing you to make attacks of opportunity that deal the whip’s usual damage.</p>"
    },
    "tags": [],
    "actions": [],
    "attackNotes": [],
    "effectNotes": [],
    "changes": [],
    "contextNotes": [],
    "links": {
      "children": [],
      "charges": []
    },
    "tag": "classFeat_kineticWhipInfusion",
    "useCustomTag": true,
    "armorProf": {
      "value": []
    },
    "weaponProf": {
      "value": []
    },
    "languages": {
      "value": []
    },
    "scriptCalls": [],
    "subType": "classFeat",
    "associations": {
      "classes": [["Kineticist"]]
    }
  }
}
