{
  "_id": "TORqMF1tKapqJ3Se",
  "name": "Knockback",
  "type": "feat",
  "img": "systems/pf1/icons/feats/deafening-critical.jpg",
  "sort": 0,
  "flags": {},
  "system": {
    "description": {
      "value": "<p>Once per round, the barbarian can make a bull rush attempt against one target in place of a melee attack. If successful, the target takes damage equal to the barbarian's Strength modifier and is moved back as normal. The barbarian does not need to move with the target if successful. This does not provoke an attack of opportunity.</p>"
    },
    "tags": [],
    "actions": [],
    "attackNotes": [],
    "effectNotes": [],
    "changes": [],
    "contextNotes": [],
    "links": {
      "children": [],
      "charges": []
    },
    "tag": "classFeat_knockback",
    "useCustomTag": true,
    "armorProf": {
      "value": []
    },
    "weaponProf": {
      "value": []
    },
    "languages": {
      "value": []
    },
    "scriptCalls": [],
    "subType": "classFeat",
    "associations": {
      "classes": [["Barbarian"], ["Skald"]]
    },
    "abilityType": "ex"
  }
}
