{
  "_id": "dpfUou1h90OdbvaZ",
  "name": "Leshy Caller",
  "type": "feat",
  "img": "systems/pf1/icons/skills/green_04.jpg",
  "sort": 0,
  "flags": {},
  "system": {
    "description": {
      "value": "<p>You can spontaneously swap out any of your domain spells for a&nbsp;summon nature’s ally&nbsp;spell of the same level or lower, to a maximum of&nbsp;summon nature’s ally VII. If you do, you must use the spell to summon one or more leshys. Add leaf leshy, gourd leshy, fungus leshy, seaweed leshy, and lotus leshy to your&nbsp;summon nature’s ally I,&nbsp;II,&nbsp;III,&nbsp;IV, and&nbsp;V&nbsp;lists, respectively. You count as a plant creature for the purpose of creating leshys (Pathfinder RPG Bestiary 3&nbsp;176).<br><br>As a standard action, you can grant a single leshy within 30 feet a +4 sacred bonus on its next attack roll before the start of your next turn. You can use this ability a number of times per day equal to 3 + your Wisdom modifier.</p>\n<p>This power replaces the Wooden Fist power of the Plant Domain.</p>"
    },
    "tags": [],
    "actions": [
      {
        "_id": "022rgnzfwh8mlrrm",
        "name": "Use",
        "img": "systems/pf1/icons/skills/green_04.jpg",
        "description": "",
        "tag": "",
        "activation": {
          "cost": 1,
          "type": "standard"
        },
        "unchainedAction": {
          "activation": {
            "cost": 2,
            "type": "action"
          }
        },
        "duration": {
          "value": "1",
          "units": "round"
        },
        "target": {
          "value": "one leshy"
        },
        "range": {
          "value": "30",
          "units": "ft",
          "maxIncrements": 1,
          "minValue": null,
          "minUnits": ""
        },
        "uses": {
          "autoDeductChargesCost": "",
          "self": {
            "value": 0,
            "maxFormula": "",
            "per": null
          },
          "per": "day",
          "value": 0,
          "maxFormula": "3 + @abilities.wis.mod"
        },
        "measureTemplate": {
          "type": "",
          "size": "0",
          "overrideColor": false,
          "customColor": "",
          "overrideTexture": false,
          "customTexture": ""
        },
        "attackName": "",
        "actionType": "",
        "attackBonus": "",
        "critConfirmBonus": "",
        "damage": {
          "parts": [],
          "critParts": [],
          "nonCritParts": []
        },
        "attackParts": [],
        "formulaicAttacks": {
          "count": {
            "formula": ""
          },
          "bonus": {
            "formula": ""
          },
          "label": null
        },
        "formula": "",
        "ability": {
          "attack": null,
          "damage": null,
          "damageMult": 1,
          "critRange": 20,
          "critMult": 2
        },
        "save": {
          "dc": 0,
          "type": "",
          "description": ""
        },
        "effectNotes": [],
        "attackNotes": [],
        "soundEffect": "",
        "powerAttack": {
          "multiplier": "",
          "damageBonus": 2,
          "critMultiplier": 1
        },
        "naturalAttack": {
          "primaryAttack": true,
          "secondary": {
            "attackBonus": "-5",
            "damageMult": 0.5
          }
        },
        "nonlethal": false,
        "usesAmmo": false,
        "spellEffect": "",
        "spellArea": "",
        "conditionals": [],
        "enh": {
          "value": null
        }
      }
    ],
    "uses": {
      "per": "day",
      "maxFormula": "3 + @abilities.wis.mod"
    },
    "attackNotes": [],
    "effectNotes": [],
    "changes": [],
    "contextNotes": [],
    "links": {
      "children": [],
      "charges": []
    },
    "tag": "classFeat_leshyCaller",
    "useCustomTag": true,
    "armorProf": {
      "value": []
    },
    "weaponProf": {
      "value": []
    },
    "languages": {
      "value": []
    },
    "scriptCalls": [],
    "subType": "classFeat",
    "associations": {
      "classes": [["Cleric"]]
    },
    "abilityType": "sp"
  }
}
