{
  "_id": "SsRIiQc5lelJEZpH",
  "name": "Light Walker (UC)",
  "type": "feat",
  "img": "systems/pf1/icons/items/weapons/razor-drow.PNG",
  "sort": 0,
  "flags": {},
  "system": {
    "description": {
      "value": "<p>The rogue can move at full speed through difficult terrain and can take 5-foot steps into difficult terrain.</p>\n<p>A rogue must have the ledge walker rogue talent before choosing light walker.</p>"
    },
    "tags": [],
    "actions": [],
    "attackNotes": [],
    "effectNotes": [],
    "changes": [],
    "contextNotes": [],
    "links": {
      "children": [],
      "charges": []
    },
    "tag": "classFeat_lightWalkerUc",
    "useCustomTag": true,
    "armorProf": {
      "value": []
    },
    "weaponProf": {
      "value": []
    },
    "languages": {
      "value": []
    },
    "scriptCalls": [],
    "subType": "classFeat",
    "associations": {
      "classes": [["Rogue (Unchained)"]]
    },
    "abilityType": "ex"
  }
}
