{
  "_id": "hSfW1GqYWnPQ5M7H",
  "name": "Lore Keeper (ORA)",
  "type": "feat",
  "img": "systems/pf1/icons/spells/light-royal-1.jpg",
  "system": {
    "description": {
      "value": "<p>Instead of encyclopedic knowledge, you learn most of your information through tales, songs, and poems. You may use your Charisma modifier instead of your Intelligence modifier on all Knowledge checks.</p>"
    },
    "tags": [],
    "actions": [],
    "attackNotes": [],
    "effectNotes": [],
    "changes": [],
    "contextNotes": [],
    "links": {
      "children": [],
      "charges": []
    },
    "tag": "classFeat_loreKeeperOra",
    "useCustomTag": true,
    "armorProf": {
      "value": []
    },
    "weaponProf": {
      "value": []
    },
    "languages": {
      "value": []
    },
    "scriptCalls": [],
    "subType": "classFeat",
    "associations": {
      "classes": [["Oracle"]]
    },
    "abilityType": "ex"
  },
  "sort": 0,
  "flags": {}
}
