{
  "_id": "rkPr5FpXT9L0XC5I",
  "name": "Magnetic Infusion",
  "type": "feat",
  "img": "systems/pf1/icons/spells/rock-sky-3.jpg",
  "sort": 0,
  "flags": {},
  "system": {
    "description": {
      "value": "<p><strong>Element&nbsp;</strong>air, earth;&nbsp;<strong>Type&nbsp;</strong>substance infusion;&nbsp;<strong>Level&nbsp;</strong>3;&nbsp;<strong>Burn&nbsp;</strong>2<br><strong>Associated Blasts&nbsp;</strong>charged water, electric, metal, plasma, thunderstorm<br><strong>Saving Throw&nbsp;</strong>none</p>\n<p>Your kinetic blast causes your foes to become mildly magnetic. Whenever an infused blast deals damage to a foe, attacks made with metal weapons (including metal kinetic blasts) against that foe receive a +4 bonus until the end of your next turn, and the foe takes a –4 penalty on Reflex saving throws to avoid metallic objects.</p>"
    },
    "tags": [],
    "actions": [],
    "attackNotes": [],
    "effectNotes": [],
    "changes": [],
    "contextNotes": [],
    "links": {
      "children": [],
      "charges": []
    },
    "tag": "classFeat_magneticInfusion",
    "useCustomTag": true,
    "armorProf": {
      "value": []
    },
    "weaponProf": {
      "value": []
    },
    "languages": {
      "value": []
    },
    "scriptCalls": [],
    "subType": "classFeat",
    "associations": {
      "classes": [["Kineticist"]]
    }
  }
}
