{
  "_id": "s782uJBjOUaNz6t6",
  "name": "Merciful Foliage",
  "type": "feat",
  "img": "systems/pf1/icons/spells/vines-jade-3.jpg",
  "sort": 0,
  "flags": {},
  "system": {
    "description": {
      "value": "<p><strong>Element&nbsp;</strong>wood;&nbsp;<strong>Type&nbsp;</strong>utility (Su);&nbsp;<strong>Level&nbsp;</strong>2;&nbsp;<strong>Burn&nbsp;</strong>0</p>\n<p>The First World is a place of rampant life, and you can use some of its energy to ease the danger of your attacks. You can deal nonlethal damage without taking a penalty on attack rolls with your wood blasts or composite blasts that include wood.</p>"
    },
    "tags": [],
    "actions": [],
    "attackNotes": [],
    "effectNotes": [],
    "changes": [],
    "contextNotes": [],
    "links": {
      "children": [],
      "charges": []
    },
    "tag": "classFeat_mercifulFoliage",
    "useCustomTag": true,
    "armorProf": {
      "value": []
    },
    "weaponProf": {
      "value": []
    },
    "languages": {
      "value": []
    },
    "scriptCalls": [],
    "subType": "classFeat",
    "associations": {
      "classes": [["Kineticist"]]
    },
    "abilityType": "su"
  }
}
