{
  "_id": "SkE4B1tSh00ZpcQU",
  "name": "Minor Magic (UC)",
  "type": "feat",
  "img": "systems/pf1/icons/items/weapons/hunga-munga.PNG",
  "sort": 0,
  "flags": {},
  "system": {
    "description": {
      "value": "<p>A rogue with this talent gains the ability to cast a 0-level spell from the sorcerer/wizard spell list. This spell can be cast at will as a spell-like ability. The rogue’s caster level for this ability is equal to her rogue level. The save DC for this spell is 10 + the rogue’s Intelligence modifier.</p>\n<p>A rogue must have an Intelligence score of at least 10 to select this talent.</p>"
    },
    "tags": [],
    "actions": [],
    "attackNotes": [],
    "effectNotes": [],
    "changes": [],
    "contextNotes": [],
    "links": {
      "children": [],
      "charges": []
    },
    "tag": "classFeat_minorMagicUc",
    "useCustomTag": true,
    "armorProf": {
      "value": []
    },
    "weaponProf": {
      "value": []
    },
    "languages": {
      "value": []
    },
    "scriptCalls": [],
    "subType": "classFeat",
    "associations": {
      "classes": [["Rogue (Unchained)"]]
    },
    "abilityType": "sp"
  }
}
