{
  "_id": "DJwvfomhkKGiYE8g",
  "name": "Monkey Aspect",
  "type": "feat",
  "img": "systems/pf1/icons/skills/blue_29.jpg",
  "sort": 0,
  "flags": {},
  "system": {
    "description": {
      "value": "<p><em>The monkey is a climbing trickster who specializes in mobility and manual agility.</em><br><br><strong>Minor Form:</strong> You gain a +4 competence bonus on Climb checks.</p>\n<p>This bonus increases to +6 at 8th level and +8 at 15th level.<br><br><strong>Major Form:</strong> Your shape changes to that of a Large monkey (as per the dire ape;&nbsp;Bestiary&nbsp;17). While in this form, you gain a base speed of 30 feet, a climb speed of 30 feet, low-light vision, scent (30 feet), a bite attack (1d6 damage), and two claw attacks (1d6 damage), and you can still use your hands to wield weapons, hold objects, and manipulate objects normally.</p>\n<p>At 8th level, your climb speed increases to 50 feet, and you can use your tail to hold and manipulate objects as if you had a third hand, but you cannot use it to wield weapons or shields.</p>\n<p>At 15th level, you gain a rend attack that deals extra damage equal to that of your shifter claws attack plus 1-1/2 times your Strength bonus when you hit with two of your normal shifter claws attacks.<br><br><strong>Alternate Natural Attacks: </strong>Bite (B, P, S)</p>"
    },
    "tags": [],
    "actions": [],
    "attackNotes": [],
    "effectNotes": [],
    "changes": [],
    "contextNotes": [],
    "links": {
      "children": [],
      "charges": []
    },
    "tag": "classFeat_monkeyAspect",
    "useCustomTag": true,
    "armorProf": {
      "value": []
    },
    "weaponProf": {
      "value": []
    },
    "languages": {
      "value": []
    },
    "scriptCalls": [],
    "subType": "classFeat",
    "associations": {
      "classes": [["Shifter"]]
    }
  }
}
