{
  "_id": "P2XyBCDEUGOFwRAF",
  "name": "Mount",
  "type": "feat",
  "img": "systems/pf1/icons/feats/animal-affinity.jpg",
  "sort": 0,
  "flags": {},
  "system": {
    "description": {
      "value": "<p>A cavalier gains the service of a loyal and trusty steed to carry him into battle. This mount functions as a&nbsp;<a href=\"https://aonprd.com/ClassDisplay.aspx?ItemName=Companion\">druid’s animal companion</a>, using the cavalier’s level as his effective druid level. The creature must be one that he is capable of riding and is suitable as a mount. This mount may come from the following list:</p>\n<p><strong>Medium Cavaliers:</strong>&nbsp;<a href=\"https://aonprd.com/DruidCompanions.aspx?ItemName=Axe%20Beak\">Axe Beak</a>,&nbsp;<a href=\"https://aonprd.com/DruidCompanions.aspx?ItemName=Camel\">Camel</a>,&nbsp;<a href=\"https://aonprd.com/DruidCompanions.aspx?ItemName=Elk\">Elk</a>,&nbsp;<a href=\"https://aonprd.com/DruidCompanions.aspx?ItemName=Giraffe\">Giraffe</a>,&nbsp;<a href=\"https://aonprd.com/DruidCompanions.aspx?ItemName=Horse\">Horse</a>,&nbsp;<a href=\"https://aonprd.com/DruidCompanions.aspx?ItemName=Seahorse,%20Giant\">Seahorse, Giant</a>,&nbsp;<a href=\"https://aonprd.com/DruidCompanions.aspx?ItemName=Tortoise,%20Giant\">Tortoise, Giant</a>,&nbsp;<a href=\"https://aonprd.com/DruidCompanions.aspx?ItemName=Zebra\">Zebra</a><br><strong>Small Cavaliers:</strong>&nbsp;<a href=\"https://aonprd.com/DruidCompanions.aspx?ItemName=Antelope\">Antelope</a>,&nbsp;<a href=\"https://aonprd.com/DruidCompanions.aspx?ItemName=Boar\">Boar</a>&nbsp;(requires 4th level),&nbsp;<a href=\"https://aonprd.com/DruidCompanions.aspx?ItemName=Capybara\">Capybara</a>,&nbsp;<a href=\"https://aonprd.com/DruidCompanions.aspx?ItemName=Dog\">Dog</a>&nbsp;(requires 4th level),&nbsp;<a href=\"https://aonprd.com/DruidCompanions.aspx?ItemName=Kangaroo\">Kangaroo</a>,&nbsp;<a href=\"https://aonprd.com/DruidCompanions.aspx?ItemName=Lizard%20(Giant%20Gecko)\">Lizard (Giant Gecko)</a>,&nbsp;<a href=\"https://aonprd.com/DruidCompanions.aspx?ItemName=Pony\">Pony</a>,&nbsp;<a href=\"https://aonprd.com/DruidCompanions.aspx?ItemName=Ram\">Ram</a>,&nbsp;<a href=\"https://aonprd.com/DruidCompanions.aspx?ItemName=Reindeer\">Reindeer</a>,&nbsp;<a href=\"https://aonprd.com/DruidCompanions.aspx?ItemName=Stag\">Stag</a>,&nbsp;<a href=\"https://aonprd.com/DruidCompanions.aspx?ItemName=Weasel,%20Giant\">Weasel, Giant</a>,&nbsp;<a href=\"https://aonprd.com/DruidCompanions.aspx?ItemName=Wolf\">Wolf</a>,&nbsp;<a href=\"https://aonprd.com/DruidCompanions.aspx?ItemName=Wolfdog\">Wolfdog</a><br><br>The GM might approve other animals as suitable mounts.<br><br>A cavalier does not take an armor check penalty on Ride checks while riding his mount. The mount is always considered combat trained and begins play with @Compendium[pf1.feats.FszchlqR39lnNduC]{Armor Proficiency, Light}&nbsp;as a bonus feat. A cavalier’s mount does not gain the share spells special ability.<br><br>A cavalier’s bond with his mount is strong, with the pair learning to anticipate each other’s moods and moves. Should a cavalier’s mount die, the cavalier may find another mount to serve him after 1 week of mourning. This new mount does not gain the link, evasion, devotion, or improved evasion special abilities until the next time the cavalier gains a level.</p>"
    },
    "tags": [],
    "actions": [],
    "attackNotes": [],
    "effectNotes": [],
    "changes": [],
    "contextNotes": [],
    "links": {
      "children": [],
      "charges": []
    },
    "tag": "classFeat_mount",
    "useCustomTag": true,
    "armorProf": {
      "value": []
    },
    "weaponProf": {
      "value": []
    },
    "languages": {
      "value": []
    },
    "scriptCalls": [],
    "subType": "classFeat",
    "associations": {
      "classes": [["Cavalier"]]
    },
    "abilityType": "ex"
  }
}
