{
  "_id": "ufzQpQBCyoJ8M9DD",
  "name": "Mutagen (Discovery)",
  "type": "feat",
  "img": "systems/pf1/icons/items/potions/unique-3.jpg",
  "sort": 0,
  "flags": {},
  "system": {
    "description": {
      "value": "<p>This discovery gives the alchemist the mutagen class ability. (This discovery exists so alchemist archetypes who have variant mutagens, such as the&nbsp;<a href=\"https://aonprd.com/ArchetypeDisplay.aspx?FixedName=Alchemist%20Mindchemist\">mindchemist</a>, can learn how to make standard mutagens.)</p>"
    },
    "tags": [],
    "actions": [],
    "attackNotes": [],
    "effectNotes": [],
    "changes": [],
    "contextNotes": [],
    "links": {
      "children": [],
      "charges": []
    },
    "tag": "classFeat_mutagenDiscovery",
    "useCustomTag": true,
    "armorProf": {
      "value": []
    },
    "weaponProf": {
      "value": []
    },
    "languages": {
      "value": []
    },
    "scriptCalls": [],
    "subType": "classFeat",
    "associations": {
      "classes": [["Alchemist"]]
    },
    "abilityType": "su"
  }
}
