{
  "_id": "xcbwys8JTF22w8oW",
  "name": "Nanite Bloodline",
  "type": "feat",
  "img": "systems/pf1/icons/skills/violet_02.jpg",
  "sort": 0,
  "flags": {},
  "system": {
    "description": {
      "value": "<p><em>Your conception was marked by alien influences.</em></p>\n<p><strong>Class Skill(s):</strong>&nbsp;<em>Knowledge</em>&nbsp;(engineering).</p>\n<p><strong>Bonus Spells:</strong></p>\n<ul>\n<li>@Compendium[pf1.spells.oj36nfak6jc2s5ky]{Disguise Self}&nbsp;(3rd),</li>\n<li>@Compendium[pf1.spells.22xn589bmr7ginow]{Defensive Shock}&nbsp;(5th),</li>\n<li>@Compendium[pf1.spells.mqdoexj35atgqafn]{Gaseous Form}&nbsp;(7th),</li>\n<li>@Compendium[pf1.spells.frp3ioj2ny5br5ti]{Miasmatic Form} (9th),</li>\n<li>@Compendium[pf1.spells.wuispaydz8jvw3io]{Echolocation}&nbsp;(11th),</li>\n<li>@Compendium[pf1.spells.h4nlrm44ubsyzuhz]{Fluid Form}&nbsp;(13th),</li>\n<li>@Compendium[pf1.spells.u0qadkpm7dglk6kz]{Magnetic Field}(15th),</li>\n<li>@Compendium[pf1.spells.mkrjbrp57yfdqrx0]{Iron Body}&nbsp;(17th),</li>\n<li>@Compendium[pf1.spells.n3lp01euzcdmtbw5]{Shapechange}&nbsp;(19th).</li>\n</ul>\n<p><strong>Bonus Feats:</strong></p>\n<ul>\n<li>@Compendium[pf1.feats.pmAO1Sni8xx71pLF]{Blind-Fight},</li>\n<li>@Compendium[pf1.feats.NFxHebU1XhEs5WJh]{Combat Expertise},</li>\n<li>@Compendium[pf1.feats.JreaiTHdyWFNj3Tb]{Dodge},</li>\n<li>&nbsp;<em>Eldritch Heritage</em>,&nbsp;</li>\n<li><em>Expanded Arcana</em>,</li>\n<li>@Compendium[pf1.feats.711B9WNFgpdDKKf2]{Improved Disarm},</li>\n<li>@Compendium[pf1.feats.0bZf3SDkvVOe2ujH]{Lightning Reflexes},</li>\n<li>@Compendium[pf1.feats.7zJTztNW7hdaqjKc]{Skill Focus}&nbsp;(<em>Knowledge</em>&nbsp;[engineering]).</li>\n</ul>\n<p><strong>Bloodline Arcana:</strong> Whenever you cast a spell from the&nbsp;<em>transmutation</em>&nbsp;school and target only yourself, increase the spell’s duration by 50%. This does not stack with&nbsp;<em>metamagic feats</em> or abilities such as @Compendium[pf1.feats.btXWioB3SKJv8YEG]{Extend Spell}.</p>"
    },
    "tags": [],
    "actions": [],
    "attackNotes": [],
    "effectNotes": [],
    "changes": [],
    "contextNotes": [],
    "links": {
      "children": [],
      "charges": []
    },
    "tag": "classFeat_naniteBloodline",
    "useCustomTag": true,
    "armorProf": {
      "value": []
    },
    "weaponProf": {
      "value": []
    },
    "languages": {
      "value": []
    },
    "scriptCalls": [],
    "subType": "classFeat",
    "associations": {
      "classes": [["Sorcerer"]]
    }
  }
}
