{
  "_id": "UJPlPj3RUKLvmKzM",
  "name": "Nature Sense",
  "type": "feat",
  "img": "systems/pf1/icons/skills/emerald_05.jpg",
  "sort": 0,
  "flags": {},
  "system": {
    "description": {
      "value": "<p>A druid gains a +2 bonus on&nbsp;<em>Knowledge</em>&nbsp;(nature) and&nbsp;<em>Survival</em>&nbsp;checks.</p>"
    },
    "tags": [],
    "actions": [],
    "attackNotes": [],
    "effectNotes": [],
    "changes": [
      {
        "_id": "ghuk6l76",
        "formula": "2",
        "operator": "add",
        "subTarget": "skill.kna",
        "modifier": "untyped",
        "priority": 0,
        "value": 0,
        "target": "skill"
      },
      {
        "_id": "02pgkjh1",
        "formula": "2",
        "operator": "add",
        "subTarget": "skill.sur",
        "modifier": "untyped",
        "priority": 0,
        "value": 0,
        "target": "skill"
      }
    ],
    "contextNotes": [],
    "links": {
      "children": [],
      "charges": []
    },
    "tag": "classFeat_natureSense",
    "useCustomTag": true,
    "armorProf": {
      "value": []
    },
    "weaponProf": {
      "value": []
    },
    "languages": {
      "value": []
    },
    "scriptCalls": [],
    "subType": "classFeat",
    "associations": {
      "classes": [["Druid"]]
    },
    "abilityType": "ex"
  }
}
