{
  "_id": "452dCCDciqIcIMgV",
  "name": "Order of the Staff",
  "type": "feat",
  "img": "systems/pf1/icons/items/inventory/banner-green.jpg",
  "sort": 0,
  "flags": {},
  "system": {
    "description": {
      "value": "<p>Cavaliers belonging to the order of the staff dedicate their lives to guarding and assisting spellcasters, especially wizards and druids, and to overcoming those who seek to destroy items and locations of magical import.<br><br><strong>Edicts: </strong>The cavalier cannot refuse a spellcaster’s request for aid unless it will interfere with his existing duties, or he believes the spellcaster seeks to directly oppose the cavalier’s aims and goals.<br><br><strong>Challenge:</strong> Whenever an order of the staff cavalier issues a challenge, his target takes a –1 penalty on saving throws against spells and spell-like abilities for 1 round after the cavalier successfully damages the target. This penalty increases by 1 for every four levels the cavalier possesses.<br><br><strong>Skills:</strong> An order of the staff cavalier adds Knowledge (arcana) (Int) and Knowledge (nature) (Int) to his list of class skills. He may use Knowledge (arcana) to identify spells being cast by arcane spellcasters as if he were using Spellcraft, and may do the same with Knowledge (nature) for divine spellcasters. If the cavalier readies an action to strike a creature when it casts a spell, and identifies the spell to be cast with the appropriate Knowledge check, he gains a +1 bonus on the attack roll.</p>"
    },
    "tags": [],
    "actions": [],
    "attackNotes": [],
    "effectNotes": [],
    "changes": [],
    "contextNotes": [],
    "links": {
      "children": [],
      "charges": []
    },
    "tag": "classFeat_orderOfTheStaff",
    "useCustomTag": true,
    "armorProf": {
      "value": []
    },
    "weaponProf": {
      "value": []
    },
    "languages": {
      "value": []
    },
    "scriptCalls": [],
    "subType": "classFeat",
    "associations": {
      "classes": [["Cavalier"]]
    }
  }
}
