{
  "_id": "bmyMggUnhCujQwAW",
  "name": "Phoenix Bloodline",
  "type": "feat",
  "img": "systems/pf1/icons/skills/red_07.jpg",
  "sort": 0,
  "flags": {},
  "system": {
    "description": {
      "value": "<p><em>One of your ancestors bore witness to a phoenix’s resurrection and formed a bond with the magical creature.</em></p>\n<p><em>The resurrecting flames still course through your veins, surging with power.</em></p>\n<p><strong>Class Skill:</strong>&nbsp;<em>Knowledge</em>&nbsp;(Arcana).</p>\n<p><strong>Bonus Spells:</strong></p>\n<ul>\n<li>@Compendium[pf1.spells.qcjskol4ac3eemhy]{Color Spray}&nbsp;(3rd),</li>\n<li>@Compendium[pf1.spells.nokru6mxk9p3r513]{See Invisibility}&nbsp;(5th),</li>\n<li>@Compendium[pf1.spells.1i8b1v3dngkxj6jp]{Magic Circle against Evil}&nbsp;(7th),</li>\n<li>@Compendium[pf1.spells.92hth51cs9oi0nfe]{Wall Of Fire}&nbsp;(9th),</li>\n<li>@Compendium[pf1.spells.myg2b9ww43nnlbr2]{Break Enchantment}&nbsp;(11th),</li>\n<li>@Compendium[pf1.spells.pgsw180d62ekw83m]{Path Of The Winds}&nbsp;(13th),</li>\n<li>@Compendium[pf1.spells.hfca2lb4tlmrzoxm]{Firebrand}&nbsp;(15th),</li>\n<li>@Compendium[pf1.spells.ijwcwnt3oatnfghq]{Prismatic Wall}&nbsp;(17th),</li>\n<li>@Compendium[pf1.spells.qk3oeq4awbc1smjw]{Fiery Body}&nbsp;(19th).</li>\n</ul>\n<p><strong>Bonus Feats:</strong></p>\n<ul>\n<li>@Compendium[pf1.feats.JreaiTHdyWFNj3Tb]{Dodge},&nbsp;</li>\n<li><em>Elemental Focus</em>&nbsp;(fire),</li>\n<li>&nbsp;<em>Fast Healer</em>,</li>\n<li>@Compendium[pf1.feats.Uuiu3p982omhMEPj]{Improved Initiative},</li>\n<li>@Compendium[pf1.feats.iAbIGhm7T2OK9Brt]{Iron Will},</li>\n<li>@Compendium[pf1.feats.R7L4SlGRlnThqFrP]{Mobility},</li>\n<li>@Compendium[pf1.feats.wFoLrh5FeeqBXsQ8]{Quicken Spell},</li>\n<li>@Compendium[pf1.feats.7zJTztNW7hdaqjKc]{Skill Focus}&nbsp;(<em>Knowledge</em>&nbsp;[arcana]).</li>\n</ul>\n<p><strong>Bloodline Arcana:</strong> When casting any spell that deals fire damage, you can instead&nbsp;<em>heal</em>&nbsp;your targets. The spell deals no damage, and living creatures affected by the spell instead regain a number of&nbsp;<em>hit points</em>&nbsp;equal to half the fire damage the spell would normally deal.</p>"
    },
    "tags": [],
    "actions": [],
    "attackNotes": [],
    "effectNotes": [],
    "changes": [],
    "contextNotes": [],
    "links": {
      "children": [],
      "charges": []
    },
    "tag": "classFeat_phoenixBloodline",
    "useCustomTag": true,
    "armorProf": {
      "value": []
    },
    "weaponProf": {
      "value": []
    },
    "languages": {
      "value": []
    },
    "scriptCalls": [],
    "subType": "classFeat",
    "associations": {
      "classes": [["Sorcerer"]]
    }
  }
}
