{
  "_id": "kKaz5A6XbuxgVvhO",
  "name": "Poison Use (ALC)",
  "type": "feat",
  "img": "systems/pf1/icons/skills/violet_24.jpg",
  "sort": 0,
  "flags": {},
  "system": {
    "description": {
      "value": "<p>Alchemists are trained in the use of poison and starting at 2nd level, cannot accidentally poison themselves when applying poison to a weapon.</p>"
    },
    "tags": [],
    "actions": [],
    "attackNotes": [],
    "effectNotes": [],
    "changes": [],
    "contextNotes": [],
    "links": {
      "children": [],
      "charges": []
    },
    "tag": "classFeat_poisonUseAlc",
    "useCustomTag": true,
    "armorProf": {
      "value": []
    },
    "weaponProf": {
      "value": []
    },
    "languages": {
      "value": []
    },
    "scriptCalls": [],
    "subType": "classFeat",
    "associations": {
      "classes": [["Alchemist"]]
    },
    "abilityType": "ex"
  }
}
