{
  "_id": "xXVvNgu2DbL22kdl",
  "name": "Powerful Connection",
  "type": "feat",
  "img": "systems/pf1/icons/items/inventory/book-purple.jpg",
  "sort": 0,
  "flags": {},
  "system": {
    "description": {
      "value": "<p>When casting a divination spell (such as&nbsp;scrying) that imposes a penalty on saving throws based on the physical connection you have to the target, you can expend 1 point of mental focus to double the penalty from a possession, garment, or body part.</p>\n<p>In addition, when casting any other divination spell that allows a saving throw, you can increase the DC of that save by 2 by adding an object, garment, or body part that belonged to the target as a focus component for the spell and expending 1 point of mental focus.</p>"
    },
    "tags": [],
    "actions": [
      {
        "_id": "azf4ongdbjl7pd5u",
        "name": "Use",
        "img": "systems/pf1/icons/items/inventory/book-purple.jpg",
        "description": "",
        "tag": "",
        "activation": {
          "cost": 1,
          "type": "free"
        },
        "unchainedAction": {
          "activation": {
            "cost": 1,
            "type": "free"
          }
        },
        "duration": {
          "value": null,
          "units": ""
        },
        "target": {
          "value": ""
        },
        "range": {
          "value": null,
          "units": "",
          "maxIncrements": 1,
          "minValue": null,
          "minUnits": ""
        },
        "uses": {
          "autoDeductChargesCost": "",
          "self": {
            "value": 0,
            "maxFormula": "",
            "per": null
          },
          "per": "",
          "value": 0,
          "maxFormula": ""
        },
        "measureTemplate": {
          "type": "",
          "size": "",
          "overrideColor": false,
          "customColor": "",
          "overrideTexture": false,
          "customTexture": ""
        },
        "attackName": "",
        "actionType": "",
        "attackBonus": "",
        "critConfirmBonus": "",
        "damage": {
          "parts": [],
          "critParts": [],
          "nonCritParts": []
        },
        "attackParts": [],
        "formulaicAttacks": {
          "count": {
            "formula": ""
          },
          "bonus": {
            "formula": ""
          },
          "label": null
        },
        "formula": "",
        "ability": {
          "attack": null,
          "damage": null,
          "damageMult": 1,
          "critRange": 20,
          "critMult": 2
        },
        "save": {
          "dc": 0,
          "type": "",
          "description": ""
        },
        "effectNotes": [],
        "attackNotes": [],
        "soundEffect": "",
        "powerAttack": {
          "multiplier": "",
          "damageBonus": 2,
          "critMultiplier": 1
        },
        "naturalAttack": {
          "primaryAttack": true,
          "secondary": {
            "attackBonus": "-5",
            "damageMult": 0.5
          }
        },
        "nonlethal": false,
        "usesAmmo": false,
        "spellEffect": "",
        "spellArea": "",
        "conditionals": [],
        "enh": {
          "value": null
        }
      }
    ],
    "uses": {
      "per": ""
    },
    "attackNotes": [],
    "effectNotes": [],
    "changes": [],
    "contextNotes": [],
    "links": {
      "children": [],
      "charges": []
    },
    "tag": "classFeat_powerfulConnection",
    "useCustomTag": true,
    "armorProf": {
      "value": []
    },
    "weaponProf": {
      "value": []
    },
    "languages": {
      "value": []
    },
    "scriptCalls": [],
    "subType": "classFeat",
    "associations": {
      "classes": [["Occultist"]]
    },
    "abilityType": "su"
  }
}
