{
  "_id": "oc7SJPYOQiqWIiYe",
  "name": "Psychopomp Totem",
  "type": "feat",
  "img": "systems/pf1/icons/feats/deafening-critical.jpg",
  "sort": 0,
  "flags": {},
  "system": {
    "description": {
      "value": "<p>The first time each round a creature with regeneration or fast healing is struck by the barbarian while she is raging, the creature must succeed at a Will save (DC = 10 + half the barbarian's level + the barbarian's Strength modifier) or that ability is suppressed for 1 round.</p>\n<p>A barbarian must have the lesser psychopomp totem rage power and be at least 6th level to select this rage power.</p>"
    },
    "tags": [],
    "actions": [],
    "attackNotes": [],
    "effectNotes": [],
    "changes": [],
    "contextNotes": [],
    "links": {
      "children": [],
      "charges": []
    },
    "tag": "classFeat_psychopompTotem",
    "useCustomTag": true,
    "armorProf": {
      "value": []
    },
    "weaponProf": {
      "value": []
    },
    "languages": {
      "value": []
    },
    "scriptCalls": [],
    "subType": "classFeat",
    "associations": {
      "classes": [["Barbarian"], ["Skald"]]
    },
    "abilityType": "su"
  }
}
