{
  "_id": "X8hwy7iMWx9yjJeM",
  "name": "Psychopomp Subdomain",
  "type": "feat",
  "img": "systems/pf1/icons/skills/blood_10.jpg",
  "sort": 0,
  "flags": {},
  "system": {
    "description": {
      "value": "<p><strong>Replacement Domain Spells:</strong></p>\n<ul>\n<li>3rd—@Compendium[pf1.spells.s72y6ioltjbpucz0]{Chain of Perdition}</li>\n<li>6th—@Compendium[pf1.spells.gfvnfa5k1tnpvg8v]{Planar Ally} (psychopomps only)</li>\n<li>8th—@Compendium[pf1.spells.xmkvpl56appk20cl]{Trap the Soul}</li>\n</ul>"
    },
    "tags": [],
    "actions": [],
    "attackNotes": [],
    "effectNotes": [],
    "changes": [],
    "contextNotes": [],
    "links": {
      "children": [],
      "charges": []
    },
    "tag": "classFeat_psychopompSubdomain",
    "useCustomTag": true,
    "armorProf": {
      "value": []
    },
    "weaponProf": {
      "value": []
    },
    "languages": {
      "value": []
    },
    "scriptCalls": [],
    "subType": "classFeat",
    "associations": {
      "classes": [["Cleric"]]
    }
  }
}
