{
  "_id": "ORDxnNKT8sfXUqjY",
  "name": "Pure of Mind",
  "type": "feat",
  "img": "systems/pf1/icons/skills/blue_09.jpg",
  "sort": 0,
  "flags": {},
  "system": {
    "description": {
      "value": "<p>At 3rd level, you gain a +2 bonus on saving throws against&nbsp;<em>charm</em>&nbsp;effects and a +4 bonus on saving throws against spells with the&nbsp;<em>evil descriptor</em>. At 9th level, your bonus on saving throws against&nbsp;<em>charm</em>&nbsp;effects increases to +4 and your bonus on saving throws against spells with the&nbsp;<em>evil descriptor</em>&nbsp;increases to +6.</p>"
    },
    "tags": [],
    "actions": [],
    "attackNotes": [],
    "effectNotes": [],
    "changes": [],
    "contextNotes": [],
    "links": {
      "children": [],
      "charges": []
    },
    "tag": "classFeat_pureOfMind",
    "useCustomTag": true,
    "armorProf": {
      "value": []
    },
    "weaponProf": {
      "value": []
    },
    "languages": {
      "value": []
    },
    "scriptCalls": [],
    "subType": "classFeat",
    "associations": {
      "classes": [["Sorcerer"]]
    },
    "abilityType": "su"
  }
}
