{
  "_id": "a0OJaX0EfZ8KaBhX",
  "name": "Rag Doll Mutagen",
  "type": "feat",
  "img": "systems/pf1/icons/items/potions/unique-3.jpg",
  "sort": 0,
  "flags": {},
  "system": {
    "description": {
      "value": "<p>When the alchemist imbibes a mutagen, his body and bones become rubbery and easy to contort. The alchemist gains a bonus equal to his class level on Escape Artist checks, can squeeze through places as if he were one size category smaller, and can make a Reflex save (DC equal to 15 + 1 for every 10 feet fallen) to take half damage from falling. At 10th level, all falling damage is considered nonlethal damage, and the alchemist can squeeze through places as if he were two size categories smaller than his size while under the effects of this mutagen.</p>"
    },
    "tags": [],
    "actions": [],
    "attackNotes": [],
    "effectNotes": [],
    "changes": [],
    "contextNotes": [],
    "links": {
      "children": [],
      "charges": []
    },
    "tag": "classFeat_ragDollMutagen",
    "useCustomTag": true,
    "armorProf": {
      "value": []
    },
    "weaponProf": {
      "value": []
    },
    "languages": {
      "value": []
    },
    "scriptCalls": [],
    "subType": "classFeat",
    "associations": {
      "classes": [["Alchemist"]]
    },
    "abilityType": "su"
  }
}
