{
  "_id": "6i4YroclBuYMbw3k",
  "name": "Raging Leaper (UC)",
  "type": "feat",
  "img": "systems/pf1/icons/feats/deafening-critical.jpg",
  "sort": 0,
  "flags": {},
  "system": {
    "description": {
      "value": "<p>The barbarian is always considered to have a running start when attempting an Acrobatics check to jump.</p>\n<p>In addition, she gains a +8 bonus on Acrobatics checks to jump.</p>\n<p>Finally, if the barbarian falls, she halves the total distance fallen for the purposes of determining damage taken from the fall.</p>"
    },
    "tags": [],
    "actions": [],
    "attackNotes": [],
    "effectNotes": [],
    "changes": [],
    "contextNotes": [],
    "links": {
      "children": [],
      "charges": []
    },
    "tag": "classFeat_ragingLeaperUc",
    "useCustomTag": true,
    "armorProf": {
      "value": []
    },
    "weaponProf": {
      "value": []
    },
    "languages": {
      "value": []
    },
    "scriptCalls": [],
    "subType": "classFeat",
    "associations": {
      "classes": [["Barbarian (Unchained)"]]
    },
    "abilityType": "ex"
  }
}
