{
  "_id": "VQmmgl4iZJosmmIk",
  "name": "Resurrection Subdomain",
  "type": "feat",
  "img": "systems/pf1/icons/skills/light_10.jpg",
  "sort": 0,
  "flags": {},
  "system": {
    "description": {
      "value": "<p><strong>Replacement Domain Spells:</strong></p>\n<ul>\n<li>5th—@Compendium[pf1.spells.c5anior2ysy6s2xy]{Raise Dead}</li>\n<li>7th—@Compendium[pf1.spells.thh46ghi51lrl3cl]{Resurrection}</li>\n<li>9th—@Compendium[pf1.spells.mxqi375ya2rka7cp]{True Resurrection}</li>\n</ul>"
    },
    "tags": [],
    "actions": [],
    "attackNotes": [],
    "effectNotes": [],
    "changes": [],
    "contextNotes": [],
    "links": {
      "children": [],
      "charges": []
    },
    "tag": "classFeat_resurrectionSubdomain",
    "useCustomTag": true,
    "armorProf": {
      "value": []
    },
    "weaponProf": {
      "value": []
    },
    "languages": {
      "value": []
    },
    "scriptCalls": [],
    "subType": "classFeat",
    "associations": {
      "classes": [["Cleric"]]
    }
  }
}
