{
  "_id": "2szDdUmKabhOViHY",
  "name": "Retribution Hex",
  "type": "feat",
  "img": "systems/pf1/icons/skills/violet_11.jpg",
  "system": {
    "description": {
      "value": "<p>A witch can place a retribution hex on a creature within 60 feet, causing terrible wounds to open across the target&rsquo;s flesh whenever it deals damage to another creature in melee. Immediately after the hexed creature deals damage in melee, it takes half that damage (round down). This damage bypasses any resistances, immunities, or damage reduction the creature possesses. This effect lasts for a number of rounds equal to the witch&rsquo;s Intelligence modifier. A Will save negates this effect.</p>"
    },
    "tags": [],
    "actions": [],
    "attackNotes": [],
    "effectNotes": [],
    "changes": [],
    "contextNotes": [],
    "links": {
      "children": [],
      "charges": []
    },
    "tag": "classFeat_retributionHex",
    "useCustomTag": true,
    "armorProf": {
      "value": []
    },
    "weaponProf": {
      "value": []
    },
    "languages": {
      "value": []
    },
    "scriptCalls": [],
    "subType": "classFeat",
    "associations": {
      "classes": [["Witch"]]
    },
    "abilityType": "su"
  },
  "sort": 0,
  "flags": {}
}
