{
  "_id": "yPoebbIxW5vyKOZN",
  "name": "Revelation Subdomain",
  "type": "feat",
  "img": "systems/pf1/icons/skills/shadow_12.jpg",
  "sort": 0,
  "flags": {},
  "system": {
    "description": {
      "value": "<p><strong>Replacement Domain Spells:</strong></p>\n<ul>\n<li>1st—@Compendium[pf1.spells.moftgchcn1d0p2t0]{Detect Secret Doors}</li>\n<li>2nd—@Compendium[pf1.spells.nokru6mxk9p3r513]{See Invisibility}</li>\n<li>3rd—@Compendium[pf1.spells.u5rbvasnr78ifrp7]{Banish Seeming}</li>\n<li>5th—@Compendium[pf1.spells.jbqo4o2b2tmdz7wv]{True Seeing}</li>\n</ul>"
    },
    "tags": [],
    "actions": [],
    "attackNotes": [],
    "effectNotes": [],
    "changes": [],
    "contextNotes": [],
    "links": {
      "children": [],
      "charges": []
    },
    "tag": "classFeat_revelationSubdomain",
    "useCustomTag": true,
    "armorProf": {
      "value": []
    },
    "weaponProf": {
      "value": []
    },
    "languages": {
      "value": []
    },
    "scriptCalls": [],
    "subType": "classFeat",
    "associations": {
      "classes": [["Cleric"]]
    }
  }
}
