{
  "_id": "EsXkEqj8BGrAPrDN",
  "name": "Rider Bond (2 pts)",
  "type": "feat",
  "img": "systems/pf1/icons/skills/blue_26.jpg",
  "sort": 0,
  "flags": {},
  "system": {
    "description": {
      "value": "<p>You and your eidolon share an empathic connection while you ride it. You gain a bonus on Ride checks equal to one-half your summoner level and you also gain @Compendium[pf1.feats.0spsP9ylE3goD3jc]{Mounted Combat} as a bonus feat when mounted on your eidolon.</p>\n<p>The eidolon must possess the mount evolution to take this evolution.</p>"
    },
    "tags": [],
    "actions": [],
    "attackNotes": [],
    "effectNotes": [],
    "changes": [],
    "contextNotes": [],
    "links": {
      "children": [],
      "charges": []
    },
    "tag": "classFeat_riderBond2Pts",
    "useCustomTag": true,
    "armorProf": {
      "value": []
    },
    "weaponProf": {
      "value": []
    },
    "languages": {
      "value": []
    },
    "scriptCalls": [],
    "subType": "classFeat",
    "associations": {
      "classes": [["Eidolon"]]
    },
    "abilityType": "ex"
  }
}
