{
  "_id": "gOMQuX8vUnNclNXT",
  "name": "Rites Subdomain",
  "type": "feat",
  "img": "systems/pf1/icons/skills/light_06.jpg",
  "sort": 0,
  "flags": {},
  "system": {
    "description": {
      "value": "<p><strong>Replacement Power:</strong> When casting a Rites domain spell with a costly material component—or casting permanency on any domain spell—reduce the cost of the necessary components by 20%.</p>\n<p><strong>Replacement Domain Spells: </strong></p>\n<ul>\n<li>1st—@Compendium[pf1.spells.5o8uysrb153tnvci]{Sanctify Corpse}</li>\n<li>5th—@Compendium[pf1.spells.nsxngq65mbrzgwnm]{Permanency}</li>\n<li>8th—@Compendium[pf1.spells.gb7pxobi1za67p7g]{Binding}</li>\n</ul>"
    },
    "tags": [],
    "actions": [],
    "attackNotes": [],
    "effectNotes": [],
    "changes": [],
    "contextNotes": [],
    "links": {
      "children": [],
      "charges": []
    },
    "tag": "classFeat_ritesSubdomain",
    "useCustomTag": true,
    "armorProf": {
      "value": []
    },
    "weaponProf": {
      "value": []
    },
    "languages": {
      "value": []
    },
    "scriptCalls": [],
    "subType": "classFeat",
    "associations": {
      "classes": [["Cleric"]]
    }
  }
}
