{
  "_id": "zotbWnuFdjY6zfv1",
  "name": "Rogue and Ninja Advanced Talents",
  "type": "feat",
  "img": "systems/pf1/icons/items/weapons/rhoka.PNG",
  "sort": 0,
  "flags": {},
  "system": {
    "description": {
      "value": "<p>A slayer can select one of the following rogue advanced talents or ninja master tricks in place of a slayer advanced talent:</p>\n<ul>\n<li>@Compendium[pf1.class-abilities.hMI3BJSP5Suq4CYs]{Deadly Sneak}</li>\n<li>@Compendium[pf1.class-abilities.R1edL5tl3sQFxT0O]{Evasion (NIN)}</li>\n<li>@Compendium[pf1.class-abilities.VgnMkLA5V1jvKliT]{Feat}</li>\n<li>@Compendium[pf1.class-abilities.l8rxQ9SwS7Rc74kI]{Hunter's Surprise}</li>\n<li>@Compendium[pf1.class-abilities.0CaDWqyk5MC7JmeC]{Knock-Out Blow}</li>\n<li>@Compendium[pf1.class-abilities.kFCiYXU4EgqwHDER]{Master of Disguise}</li>\n<li>@Compendium[pf1.class-abilities.ajbY8L23aokzbhlR]{Opportunist}</li>\n<li>@Compendium[pf1.class-abilities.8c70clF6ZT8ATEQY]{Stealthy Sniper}</li>\n<li>or any rogue advanced talent from&nbsp;Blood of Shadows.</li>\n</ul>\n<p>A slayer can select multiple rogue advanced talents or ninja master tricks by taking this slayer advanced talent multiple times, but can’t select the same one more than once.</p>"
    },
    "tags": [],
    "actions": [],
    "attackNotes": [],
    "effectNotes": [],
    "changes": [],
    "contextNotes": [],
    "links": {
      "children": [],
      "charges": []
    },
    "tag": "classFeat_rogueAndNinjaAdvancedTalents",
    "useCustomTag": true,
    "armorProf": {
      "value": []
    },
    "weaponProf": {
      "value": []
    },
    "languages": {
      "value": []
    },
    "scriptCalls": [],
    "subType": "classFeat",
    "associations": {
      "classes": [["Slayer"]]
    },
    "abilityType": "ex"
  }
}
