{
  "_id": "vX5XU5duSaFc9PfU",
  "name": "Servant of Winter",
  "type": "feat",
  "img": "systems/pf1/icons/spells/light-royal-1.jpg",
  "sort": 0,
  "flags": {},
  "system": {
    "description": {
      "value": "<p>As a full-round action, you can summon a single ice elemental (Pathfinder&nbsp;RPG Bestiary 2&nbsp;114) to serve you.</p>\n<p>At 7th level, you can summon a Medium ice elemental, as @Compendium[pf1.spells.aqri3zf6mzgd4di6]{Summon Monster IV}.</p>\n<p>At 11th level, you can summon a Huge ice elemental, as @Compendium[pf1.spells.mf6k8tg8xu0wedoz]{Summon Monster VI}.</p>\n<p>At 15th level, you can summon an elder ice elemental, as @Compendium[pf1.spells.j91n23p4tfjixp3s]{Summon Monster VIII}.</p>\n<p>You can use this ability once per day, plus one additional time per day at 15th level.</p>\n<p>You must be at least 7th level before selecting this revelation.</p>"
    },
    "tags": [],
    "actions": [
      {
        "_id": "lkqwcz9pezi0wnmb",
        "name": "Use",
        "img": "systems/pf1/icons/spells/light-royal-1.jpg",
        "description": "",
        "tag": "",
        "activation": {
          "cost": 1,
          "type": "full"
        },
        "unchainedAction": {
          "activation": {
            "cost": 3,
            "type": "action"
          }
        },
        "duration": {
          "value": "@classes.oracle.level",
          "units": "round"
        },
        "target": {
          "value": ""
        },
        "range": {
          "value": null,
          "units": "",
          "maxIncrements": 1,
          "minValue": null,
          "minUnits": ""
        },
        "uses": {
          "autoDeductChargesCost": "",
          "self": {
            "value": 0,
            "maxFormula": "",
            "per": null
          },
          "per": "day",
          "value": 0,
          "maxFormula": "@classes.oracle.level >= 15 ? 2 : 1"
        },
        "measureTemplate": {
          "type": "",
          "size": "",
          "overrideColor": false,
          "customColor": "",
          "overrideTexture": false,
          "customTexture": ""
        },
        "attackName": "",
        "actionType": "",
        "attackBonus": "",
        "critConfirmBonus": "",
        "damage": {
          "parts": [],
          "critParts": [],
          "nonCritParts": []
        },
        "attackParts": [],
        "formulaicAttacks": {
          "count": {
            "formula": ""
          },
          "bonus": {
            "formula": ""
          },
          "label": null
        },
        "formula": "",
        "ability": {
          "attack": null,
          "damage": null,
          "damageMult": 1,
          "critRange": 20,
          "critMult": 2
        },
        "save": {
          "dc": 0,
          "type": "",
          "description": ""
        },
        "effectNotes": [],
        "attackNotes": [],
        "soundEffect": "",
        "powerAttack": {
          "multiplier": "",
          "damageBonus": 2,
          "critMultiplier": 1
        },
        "naturalAttack": {
          "primaryAttack": true,
          "secondary": {
            "attackBonus": "-5",
            "damageMult": 0.5
          }
        },
        "nonlethal": false,
        "usesAmmo": false,
        "spellEffect": "",
        "spellArea": "",
        "conditionals": [],
        "enh": {
          "value": null
        }
      }
    ],
    "uses": {
      "per": "day",
      "maxFormula": "@classes.oracle.level >= 15 ? 2 : 1"
    },
    "attackNotes": [],
    "effectNotes": [],
    "changes": [],
    "contextNotes": [],
    "links": {
      "children": [],
      "charges": []
    },
    "tag": "classFeat_servantOfWinter",
    "useCustomTag": true,
    "armorProf": {
      "value": []
    },
    "weaponProf": {
      "value": []
    },
    "languages": {
      "value": []
    },
    "scriptCalls": [],
    "subType": "classFeat",
    "associations": {
      "classes": [["Oracle"]]
    },
    "abilityType": "sp"
  }
}
