{
  "_id": "khH8Lg8cYd7GW6ZI",
  "name": "Soverignty Subdomain",
  "type": "feat",
  "img": "systems/pf1/icons/skills/yellow_41.jpg",
  "sort": 0,
  "flags": {},
  "system": {
    "description": {
      "value": "<p><strong>Replacement Domain Spells:</strong></p>\n<ul>\n<li>2nd—@Compendium[pf1.spells.h8zit03e88jxrg9t]{Castigate}</li>\n<li>5th—@Compendium[pf1.spells.k8va0g2bqb8w31q6]{Castigate, Mass}</li>\n<li>9th—@Compendium[pf1.spells.xuuzj9lr2xbwaim4]{Overwhelming Presence}</li>\n</ul>"
    },
    "tags": [],
    "actions": [],
    "attackNotes": [],
    "effectNotes": [],
    "changes": [],
    "contextNotes": [],
    "links": {
      "children": [],
      "charges": []
    },
    "tag": "classFeat_soverigntySubdomain",
    "useCustomTag": true,
    "armorProf": {
      "value": []
    },
    "weaponProf": {
      "value": []
    },
    "languages": {
      "value": []
    },
    "scriptCalls": [],
    "subType": "classFeat",
    "associations": {
      "classes": [["Cleric"]]
    }
  }
}
