{
  "_id": "4lA5PZjFcR1veuyL",
  "name": "Spark of Innovation",
  "type": "feat",
  "img": "systems/pf1/icons/spells/rock-sky-3.jpg",
  "sort": 0,
  "flags": {},
  "system": {
    "description": {
      "value": "<p><strong>Element&nbsp;</strong>earth;&nbsp;<strong>Type&nbsp;</strong>utility (Sp);&nbsp;<strong>Level&nbsp;</strong>5;&nbsp;<strong>Burn&nbsp;</strong>0<br><strong>Prerequisite&nbsp;</strong>metal blast</p>\n<p>You shape metal into a clockwork creature, as&nbsp;<a href=\"https://aonprd.com/KineticistTalentsDisplay.aspx?ItemName=Spark%20of%20Life\">spark of life</a>&nbsp;except you summon a clockwork earth elemental. The elemental’s type is changed to construct (clockwork) and it gains construct traits and&nbsp;<a href=\"https://aonprd.com/MonsterSubtypes.aspx?ItemName=Clockwork\">clockwork traits</a>&nbsp;instead of elemental traits. The creature loses any spell-like abilities or supernatural abilities it normally has. If you have the&nbsp;<a href=\"https://aonprd.com/KineticistTalentsDisplay.aspx?ItemName=Greater%20Elemental%20Whispers\">greater elemental whispers</a>&nbsp;utility wild talent, you can take a&nbsp;<a href=\"https://aonprd.com/MonsterDisplay.aspx?ItemName=Clockwork%20Familiar\">clockwork familiar</a>&nbsp;as an improved familiar with that ability instead of an earth elemental.</p>"
    },
    "tags": [],
    "actions": [],
    "attackNotes": [],
    "effectNotes": [],
    "changes": [],
    "contextNotes": [],
    "links": {
      "children": [],
      "charges": []
    },
    "tag": "classFeat_sparkOfInnovation",
    "useCustomTag": true,
    "armorProf": {
      "value": []
    },
    "weaponProf": {
      "value": []
    },
    "languages": {
      "value": []
    },
    "scriptCalls": [],
    "subType": "classFeat",
    "associations": {
      "classes": [["Kineticist"]]
    },
    "abilityType": "sp"
  }
}
