{
  "_id": "9BX4pywmCYb1UGjL",
  "name": "Spatial Switch",
  "type": "feat",
  "img": "systems/pf1/icons/skills/violet_26.jpg",
  "sort": 0,
  "flags": {},
  "system": {
    "description": {
      "value": "<p>The mesmerist allows himself and an ally to physically swap places. The mesmerist can trigger this trick when an enemy moves adjacent to or attacks either the subject or the mesmerist, provided the subject and the mesmerist are within 100 feet of one another. The subject and the mesmerist then swap positions. If this trick was triggered by an attack, the swap happens before checking to see whether the attack hits.</p>\n<p>The mesmerist can’t implant this trick on himself. This is a conjuration (teleportation) effect.</p>"
    },
    "tags": [],
    "actions": [],
    "attackNotes": [],
    "effectNotes": [],
    "changes": [],
    "contextNotes": [],
    "links": {
      "children": [],
      "charges": []
    },
    "tag": "classFeat_spatialSwitch",
    "useCustomTag": true,
    "armorProf": {
      "value": []
    },
    "weaponProf": {
      "value": []
    },
    "languages": {
      "value": []
    },
    "scriptCalls": [],
    "subType": "classFeat",
    "associations": {
      "classes": [["Mesmerist"]]
    }
  }
}
