{
  "_id": "FZgtnF8xHyunw4tj",
  "name": "Stalwart Mount",
  "type": "feat",
  "img": "systems/pf1/icons/items/inventory/banner-red.jpg",
  "sort": 0,
  "flags": {},
  "system": {
    "description": {
      "value": "<p>At 8th level, the cavalier’s mount becomes healthier and more robust. It gains @Compendium[pf1.feats.8snLqsJN4LLL00Nq]{Toughness}&nbsp;as a bonus feat (if it already has @Compendium[pf1.feats.8snLqsJN4LLL00Nq]{Toughness}, or takes this as a feat later, the hit points granted by the feat are doubled) and gains a +2 bonus on saving throws.</p>"
    },
    "tags": [],
    "actions": [],
    "attackNotes": [],
    "effectNotes": [],
    "changes": [],
    "contextNotes": [],
    "links": {
      "children": [],
      "charges": []
    },
    "tag": "classFeat_stalwartMount",
    "useCustomTag": true,
    "armorProf": {
      "value": []
    },
    "weaponProf": {
      "value": []
    },
    "languages": {
      "value": []
    },
    "scriptCalls": [],
    "subType": "classFeat",
    "associations": {
      "classes": [["Cavalier"]]
    },
    "abilityType": "su"
  }
}
