{
  "_id": "96tDQ9urXkXE5dBV",
  "name": "Stealth Mastery",
  "type": "feat",
  "img": "systems/pf1/icons/spells/light-royal-1.jpg",
  "sort": 0,
  "flags": {},
  "system": {
    "description": {
      "value": "<p>You gain @Compendium[pf1.feats.7zJTztNW7hdaqjKc]{Skill Focus} with the Stealth skill.</p>\n<p>At 8th level, you gain Signature Skill&nbsp;with the Stealth skill, even if you don’t meet the feat’s prerequisites.</p>\n<p>At 16th level, you gain the hide in plain sight shadowdancer class feature.</p>"
    },
    "tags": [],
    "actions": [],
    "attackNotes": [],
    "effectNotes": [],
    "changes": [],
    "contextNotes": [],
    "links": {
      "children": [],
      "charges": []
    },
    "tag": "classFeat_stealthMastery",
    "useCustomTag": true,
    "armorProf": {
      "value": []
    },
    "weaponProf": {
      "value": []
    },
    "languages": {
      "value": []
    },
    "scriptCalls": [],
    "subType": "classFeat",
    "associations": {
      "classes": [["Oracle"]]
    },
    "abilityType": "ex"
  }
}
