{
  "_id": "TTn7hey3SfqaTsLr",
  "name": "Still Mind (UMK)",
  "type": "feat",
  "img": "systems/pf1/icons/feats/blind-fight.jpg",
  "system": {
    "description": {
      "value": "<p>At 4th level, a monk gains a +2 bonus on saving throws against enchantment spells and effects.</p>"
    },
    "tags": [],
    "actions": [],
    "attackNotes": [],
    "effectNotes": [],
    "changes": [],
    "contextNotes": [],
    "links": {
      "children": [],
      "charges": []
    },
    "tag": "classFeat_stillMindUmk",
    "useCustomTag": true,
    "armorProf": {
      "value": []
    },
    "weaponProf": {
      "value": []
    },
    "languages": {
      "value": []
    },
    "scriptCalls": [],
    "subType": "classFeat",
    "associations": {
      "classes": [["Monk (Unchained)"]]
    },
    "abilityType": "ex"
  },
  "sort": 0,
  "flags": {}
}
