{
  "_id": "fAcozS7Vmm7xLGSX",
  "name": "Strategy",
  "type": "feat",
  "img": "systems/pf1/icons/items/inventory/banner-red.jpg",
  "sort": 0,
  "flags": {},
  "system": {
    "description": {
      "value": "<p>At 8th level, the cavalier can spend a standard action to grant one of a number of bonuses to all allies within 30 feet (including himself). The allies must be able to see or hear the cavalier to receive this bonus. The cavalier can grant a +2 dodge bonus to AC for 1 round, a +2 morale bonus on all attack rolls for 1 round, or the ability to move up to their speed as an immediate action once. The cavalier can grant a different bonus to each ally within range, but allies can only benefit from this ability once per combat.</p>"
    },
    "tags": [],
    "actions": [
      {
        "_id": "weuxlh65m2e12jy3",
        "name": "Use",
        "img": "systems/pf1/icons/items/inventory/banner-red.jpg",
        "description": "",
        "tag": "",
        "activation": {
          "cost": 1,
          "type": "standard"
        },
        "unchainedAction": {
          "activation": {
            "cost": 2,
            "type": "action"
          }
        },
        "duration": {
          "value": null,
          "units": "seeText"
        },
        "target": {
          "value": "allies within range"
        },
        "range": {
          "value": "30",
          "units": "ft",
          "maxIncrements": 1,
          "minValue": null,
          "minUnits": ""
        },
        "uses": {
          "autoDeductChargesCost": "",
          "self": {
            "value": 0,
            "maxFormula": "",
            "per": null
          },
          "per": "",
          "value": 0,
          "maxFormula": ""
        },
        "measureTemplate": {
          "type": "",
          "size": "0",
          "overrideColor": false,
          "customColor": "",
          "overrideTexture": false,
          "customTexture": ""
        },
        "attackName": "",
        "actionType": "",
        "attackBonus": "",
        "critConfirmBonus": "",
        "damage": {
          "parts": [],
          "critParts": [],
          "nonCritParts": []
        },
        "attackParts": [],
        "formulaicAttacks": {
          "count": {
            "formula": ""
          },
          "bonus": {
            "formula": ""
          },
          "label": null
        },
        "formula": "",
        "ability": {
          "attack": null,
          "damage": null,
          "damageMult": 1,
          "critRange": 20,
          "critMult": 2
        },
        "save": {
          "dc": 0,
          "type": "",
          "description": ""
        },
        "effectNotes": [],
        "attackNotes": [],
        "soundEffect": "",
        "powerAttack": {
          "multiplier": "",
          "damageBonus": 2,
          "critMultiplier": 1
        },
        "naturalAttack": {
          "primaryAttack": true,
          "secondary": {
            "attackBonus": "-5",
            "damageMult": 0.5
          }
        },
        "nonlethal": false,
        "usesAmmo": false,
        "spellEffect": "",
        "spellArea": "",
        "conditionals": [],
        "enh": {
          "value": null
        }
      }
    ],
    "uses": {
      "per": ""
    },
    "attackNotes": [],
    "effectNotes": [],
    "changes": [],
    "contextNotes": [],
    "links": {
      "children": [],
      "charges": []
    },
    "tag": "classFeat_strategy",
    "useCustomTag": true,
    "armorProf": {
      "value": []
    },
    "weaponProf": {
      "value": []
    },
    "languages": {
      "value": []
    },
    "scriptCalls": [],
    "subType": "classFeat",
    "associations": {
      "classes": [["Cavalier"]]
    },
    "abilityType": "ex"
  }
}
