{
  "_id": "2ausI8g6SsmbOpgF",
  "name": "Stunning Fist",
  "type": "feat",
  "img": "systems/pf1/icons/skills/yellow_08.jpg",
  "sort": 0,
  "flags": {},
  "system": {
    "description": {
      "value": "<p>At 1st level, the monk gains @Compendium[pf1.feats.GsjouI6B8X7BA5wN]{Stunning Fist}&nbsp;as a bonus feat, even if he does not meet the prerequisites. The monk may attempt a stunning attack a number of times per day equal to his monk level, plus one more time per day for every four levels he has in classes other than monk.</p>\n<p>At 4th level, and every 4 levels thereafter, the monk gains the ability to apply a new condition to the target of his @Compendium[pf1.feats.GsjouI6B8X7BA5wN]{Stunning Fist}. This condition replaces stunning the target for 1 round, and a successful&nbsp;<em>saving throw</em>&nbsp;still negates the effect.</p>\n<p>At 4th level, he can choose to make the target&nbsp;<em>fatigued</em>.</p>\n<p>At 8th level, he can make the target&nbsp;<em>sickened</em>&nbsp;for 1 minute.</p>\n<p>At 12th level, he can make the target&nbsp;<em>staggered</em>&nbsp;for 1d6+1 rounds.</p>\n<p>At 16th level, he can permanently&nbsp;<em>blind</em>&nbsp;or&nbsp;<em>deafen</em>&nbsp;the target.</p>\n<p>At 20th level, he can&nbsp;<em>paralyze</em>&nbsp;the target for 1d6+1 rounds.</p>\n<p>The monk must choose which condition will apply before the&nbsp;<em>attack roll</em>&nbsp;is made. These effects do not stack with themselves (a creature&nbsp;<em>sickened</em>&nbsp;by&nbsp;<em>Stunning Fist</em>&nbsp;cannot become&nbsp;<em>nauseated</em> if hit by @Compendium[pf1.feats.GsjouI6B8X7BA5wN]{Stunning Fist}&nbsp;again), but additional hits do increase the duration.</p>"
    },
    "tags": [],
    "actions": [
      {
        "_id": "t964ab1f99gydrqs",
        "name": "Use",
        "img": "systems/pf1/icons/skills/yellow_08.jpg",
        "description": "",
        "tag": "",
        "activation": {
          "cost": 1,
          "type": "attack"
        },
        "unchainedAction": {
          "activation": {
            "cost": 1,
            "type": "action"
          }
        },
        "duration": {
          "value": null,
          "units": ""
        },
        "target": {
          "value": ""
        },
        "range": {
          "value": null,
          "units": "touch",
          "maxIncrements": 1,
          "minValue": null,
          "minUnits": ""
        },
        "uses": {
          "autoDeductChargesCost": "",
          "self": {
            "value": 0,
            "maxFormula": "",
            "per": null
          },
          "per": "day",
          "value": 0,
          "maxFormula": "@classes.monk.level + floor((@attributes.hd.total - @classes.monk.level ) / 4)"
        },
        "measureTemplate": {
          "type": "",
          "size": "0",
          "overrideColor": false,
          "customColor": "",
          "overrideTexture": false,
          "customTexture": ""
        },
        "attackName": "",
        "actionType": "",
        "attackBonus": "",
        "critConfirmBonus": "",
        "damage": {
          "parts": [],
          "critParts": [],
          "nonCritParts": []
        },
        "attackParts": [],
        "formulaicAttacks": {
          "count": {
            "formula": ""
          },
          "bonus": {
            "formula": ""
          },
          "label": null
        },
        "formula": "",
        "ability": {
          "attack": null,
          "damage": null,
          "damageMult": 1,
          "critRange": 20,
          "critMult": 2
        },
        "save": {
          "dc": 0,
          "type": "",
          "description": ""
        },
        "effectNotes": [],
        "attackNotes": [],
        "soundEffect": "",
        "powerAttack": {
          "multiplier": "",
          "damageBonus": 2,
          "critMultiplier": 1
        },
        "naturalAttack": {
          "primaryAttack": true,
          "secondary": {
            "attackBonus": "-5",
            "damageMult": 0.5
          }
        },
        "nonlethal": false,
        "usesAmmo": false,
        "spellEffect": "",
        "spellArea": "",
        "conditionals": [],
        "enh": {
          "value": null
        }
      }
    ],
    "uses": {
      "per": "day",
      "maxFormula": "@classes.monk.level + floor((@attributes.hd.total - @classes.monk.level ) / 4)"
    },
    "attackNotes": [],
    "effectNotes": [],
    "changes": [],
    "contextNotes": [],
    "links": {
      "children": [],
      "charges": []
    },
    "tag": "classFeat_stunningFist",
    "useCustomTag": true,
    "armorProf": {
      "value": []
    },
    "weaponProf": {
      "value": []
    },
    "languages": {
      "value": []
    },
    "scriptCalls": [],
    "subType": "classFeat",
    "associations": {
      "classes": [["Monk"]]
    },
    "abilityType": "ex"
  }
}
