{
  "_id": "Nx7jzl9zaaC5sx7g",
  "name": "Tail Slap (UC) (1 pt)",
  "type": "feat",
  "img": "systems/pf1/icons/skills/blue_26.jpg",
  "sort": 0,
  "flags": {},
  "system": {
    "description": {
      "value": "<p><strong>Requirements: </strong>Agathion, daemon, demon, devil, div, elemental, protean, or psychopomp subtype; tail evolution.</p>\n<p>The eidolon can use its tail to bash nearby foes, granting it a tail slap attack. This attack is a secondary attack. The tail slap deals 1d6 points of damage (1d8 if Large, 2d6 if Huge).</p>\n<p>This evolution can be selected more than once, up to the number of tail evolutions the eidolon possesses.&nbsp;</p>"
    },
    "tags": [],
    "actions": [],
    "attackNotes": [],
    "effectNotes": [],
    "changes": [],
    "contextNotes": [],
    "links": {
      "children": [],
      "charges": []
    },
    "tag": "classFeat_tailSlapUc1Pt",
    "useCustomTag": true,
    "armorProf": {
      "value": []
    },
    "weaponProf": {
      "value": []
    },
    "languages": {
      "value": []
    },
    "scriptCalls": [],
    "subType": "classFeat",
    "associations": {
      "classes": [["Eidolon (Unchained)"]]
    },
    "abilityType": "ex"
  }
}
