{
  "_id": "hEduWO7ZjxgCbrSy",
  "name": "Telepathic Link",
  "type": "feat",
  "img": "systems/pf1/icons/skills/violet_26.jpg",
  "sort": 0,
  "flags": {},
  "system": {
    "description": {
      "value": "<p>The subject can communicate telepathically with the mesmerist during a crisis. The mesmerist can trigger this trick when the subject and her allies are outnumbered in combat. For 1 minute per mesmerist level, the subject and the mesmerist can communicate telepathically. If the subject and the mesmerist are more than a medium distance (100 feet + 10 feet per level) apart, the telepathic connection is severed and cannot be regained unless the trick is implanted again.</p>\n<p>The mesmerist and the subject must share a language to be able to communicate.</p>"
    },
    "tags": [],
    "actions": [],
    "attackNotes": [],
    "effectNotes": [],
    "changes": [],
    "contextNotes": [],
    "links": {
      "children": [],
      "charges": []
    },
    "tag": "classFeat_telepathicLink",
    "useCustomTag": true,
    "armorProf": {
      "value": []
    },
    "weaponProf": {
      "value": []
    },
    "languages": {
      "value": []
    },
    "scriptCalls": [],
    "subType": "classFeat",
    "associations": {
      "classes": [["Mesmerist"]]
    }
  }
}
