{
  "_id": "TDfVAdn21Glw7Gfn",
  "name": "Tranquility Discipline",
  "type": "feat",
  "img": "systems/pf1/icons/spells/slice-spirit-3.jpg",
  "sort": 0,
  "flags": {},
  "system": {
    "description": {
      "value": "<p>Psychic magic flows through you when you attain a peaceful mental state. Regular meditation expands your mind, allowing new powers to develop.<br><br><strong>Phrenic Pool Ability:</strong> Wisdom<br><br><strong>Bonus Spells:</strong>&nbsp;</p>\n<ul>\n<li>@Compendium[pf1.spells.2s198jpks0pvimjf]{Telempathic Projection} (1st),&nbsp;</li>\n<li>@Compendium[pf1.spells.ow4t1zox6dtybgji]{Silence} (4th),&nbsp;</li>\n<li>@Compendium[pf1.spells.7no45vnykqt1azc8]{Mantle Of Calm} (6th),&nbsp;</li>\n<li>@Compendium[pf1.spells.f0o357a1halsvm4p]{Daze, Mass} (8th),&nbsp;</li>\n<li>@Compendium[pf1.spells.z8hhy7qitegvb7a4]{Serenity} (10th),&nbsp;</li>\n<li>@Compendium[pf1.spells.21yha04trfhj0ehd]{Psychic Surgery} (12th),&nbsp;</li>\n<li>@Compendium[pf1.spells.blvetbc929cfx4m8]{Mind Blank} (14th),&nbsp;</li>\n<li>@Compendium[pf1.spells.xlzqpkl8fpm3sn4u]{Euphoric Tranquility} (16th),&nbsp;</li>\n<li>@Compendium[pf1.spells.7mstq5c76h3e6zzx]{Time Stop} (18th).</li>\n</ul>"
    },
    "tags": [],
    "actions": [],
    "attackNotes": [],
    "effectNotes": [],
    "changes": [],
    "contextNotes": [],
    "links": {
      "children": [],
      "charges": []
    },
    "tag": "classFeat_tranquilityDiscipline",
    "useCustomTag": true,
    "armorProf": {
      "value": []
    },
    "weaponProf": {
      "value": []
    },
    "languages": {
      "value": []
    },
    "scriptCalls": [],
    "subType": "classFeat",
    "associations": {
      "classes": [["Psychic"]]
    }
  }
}
