{
  "_id": "UZZylC8wBgJzmpA6",
  "name": "Tranformation Patron",
  "type": "feat",
  "img": "systems/pf1/icons/feats/improved-familiar.jpg",
  "sort": 0,
  "flags": {},
  "system": {
    "description": {
      "value": "<ul>\n<li>2nd — @Compendium[pf1.spells.ns2zo6qgd9co02uf]{Jump}</li>\n<li>4th — @Compendium[pf1.spells.usdv1eqvibmxun6x]{Bear's Endurance}</li>\n<li>6th — @Compendium[pf1.spells.tjdfluulncmqacc3]{Beast Shape I}</li>\n<li>8th — @Compendium[pf1.spells.774kmgcb7ygviht0]{Beast Shape II}</li>\n<li>10th — @Compendium[pf1.spells.w88ddxpu89qcr5c0]{Beast Shape III}</li>\n<li>12th — @Compendium[pf1.spells.iqcjiyi9leldfzxt]{Form of the Dragon I}</li>\n<li>14th — @Compendium[pf1.spells.5icj4nasrlgqojqm]{Form of the Dragon II}</li>\n<li>16th — @Compendium[pf1.spells.6qpg42rj70oi4css]{Form of the Dragon III}</li>\n<li>18th — @Compendium[pf1.spells.n3lp01euzcdmtbw5]{Shapechange}</li>\n</ul>"
    },
    "tags": [],
    "actions": [],
    "attackNotes": [],
    "effectNotes": [],
    "changes": [],
    "contextNotes": [],
    "links": {
      "children": [],
      "charges": []
    },
    "tag": "classFeat_tranformationPatron",
    "useCustomTag": true,
    "armorProf": {
      "value": []
    },
    "weaponProf": {
      "value": []
    },
    "languages": {
      "value": []
    },
    "scriptCalls": [],
    "subType": "classFeat",
    "associations": {
      "classes": [["Witch"]]
    }
  }
}
