{
  "_id": "SdVTnEgSeSG85b5O",
  "name": "Tyrannical Strike",
  "type": "feat",
  "img": "systems/pf1/icons/skills/red_13.jpg",
  "sort": 0,
  "flags": {},
  "system": {
    "description": {
      "value": "<p>At 8th level, as an immediate action upon successfully landing a melee attack on an opponent, you can choose to forgo the damage (but not any other effects of the attack) to instead affect the creature you hit as per a greater command spell, with a caster level equal to your class level. You can use this ability once per day at 8th level, and an additional time per day for every 4 levels beyond 8th.</p>\n<p>This power replaces the Staff of Order power of the Law Domain.</p>"
    },
    "tags": [],
    "actions": [
      {
        "_id": "s0zrc6x4utkuha0s",
        "name": "Use",
        "img": "systems/pf1/icons/skills/red_13.jpg",
        "description": "",
        "tag": "",
        "activation": {
          "cost": 1,
          "type": "immediate"
        },
        "unchainedAction": {
          "activation": {
            "cost": 1,
            "type": "reaction"
          }
        },
        "duration": {
          "value": null,
          "units": "inst"
        },
        "target": {
          "value": "one creature"
        },
        "range": {
          "value": null,
          "units": "touch",
          "maxIncrements": 1,
          "minValue": null,
          "minUnits": ""
        },
        "uses": {
          "autoDeductChargesCost": "",
          "self": {
            "value": 0,
            "maxFormula": "",
            "per": null
          },
          "per": "day",
          "value": 0,
          "maxFormula": "floor((@classes.cleric.level - 4) / 4)"
        },
        "measureTemplate": {
          "type": "",
          "size": "0",
          "overrideColor": false,
          "customColor": "",
          "overrideTexture": false,
          "customTexture": ""
        },
        "attackName": "",
        "actionType": "",
        "attackBonus": "",
        "critConfirmBonus": "",
        "damage": {
          "parts": [],
          "critParts": [],
          "nonCritParts": []
        },
        "attackParts": [],
        "formulaicAttacks": {
          "count": {
            "formula": ""
          },
          "bonus": {
            "formula": ""
          },
          "label": null
        },
        "formula": "",
        "ability": {
          "attack": null,
          "damage": null,
          "damageMult": 1,
          "critRange": 20,
          "critMult": 2
        },
        "save": {
          "dc": 0,
          "type": "",
          "description": ""
        },
        "effectNotes": [],
        "attackNotes": [],
        "soundEffect": "",
        "powerAttack": {
          "multiplier": "",
          "damageBonus": 2,
          "critMultiplier": 1
        },
        "naturalAttack": {
          "primaryAttack": true,
          "secondary": {
            "attackBonus": "-5",
            "damageMult": 0.5
          }
        },
        "nonlethal": false,
        "usesAmmo": false,
        "spellEffect": "",
        "spellArea": "",
        "conditionals": [],
        "enh": {
          "value": null
        }
      }
    ],
    "uses": {
      "per": "day",
      "maxFormula": "floor((@classes.cleric.level - 4) / 4)"
    },
    "attackNotes": [],
    "effectNotes": [],
    "changes": [],
    "contextNotes": [],
    "links": {
      "children": [],
      "charges": []
    },
    "tag": "classFeat_tyrannicalStrike",
    "useCustomTag": true,
    "armorProf": {
      "value": []
    },
    "weaponProf": {
      "value": []
    },
    "languages": {
      "value": []
    },
    "scriptCalls": [],
    "subType": "classFeat",
    "associations": {
      "classes": [["Cleric"]]
    },
    "abilityType": "su"
  }
}
