{
  "_id": "sC69dzuJTILzbJyE",
  "name": "Unarmed Combat Mastery",
  "type": "feat",
  "img": "systems/pf1/icons/items/weapons/kunai.png",
  "sort": 0,
  "flags": {},
  "system": {
    "description": {
      "value": "<p>A ninja who selects this trick deals damage with her unarmed strikes as if she were a monk of her ninja level –4. If the ninja has levels in monk, this ability stacks with monk levels to determine how much damage she can do with her unarmed strikes.</p>\n<p>A ninja must have the Improved Unarmed Strike feat before taking this trick.</p>"
    },
    "tags": [],
    "actions": [],
    "attackNotes": [],
    "effectNotes": [],
    "changes": [],
    "contextNotes": [],
    "links": {
      "children": [],
      "charges": []
    },
    "tag": "classFeat_unarmedCombatMastery",
    "useCustomTag": true,
    "armorProf": {
      "value": []
    },
    "weaponProf": {
      "value": []
    },
    "languages": {
      "value": []
    },
    "scriptCalls": [],
    "subType": "classFeat",
    "associations": {
      "classes": [["Ninja"]]
    }
  }
}
