{
  "_id": "JvgLzbJVBCa3mns9",
  "name": "Vampirism Curse",
  "type": "feat",
  "img": "systems/pf1/icons/spells/horror-eerie-1.jpg",
  "sort": 0,
  "flags": {},
  "system": {
    "description": {
      "value": "<p>You crave the taste of fresh, warm blood. You take damage from positive energy and heal from negative energy as if you were undead.</p>\n<p>At 5th level, you gain channel resistance +4.</p>\n<p>At 10th level, you add @Compendium[pf1.spells.3efy1ico48ccrzni]{Vampiric Touch} to your list of 3rd-level oracle spells known and @Compendium[pf1.spells.joj6h1croepb9itx]{Undead Anatomy II} to your list of 5th-level oracle spells known.</p>\n<p>At 15th level, you gain damage reduction 5/magic.</p>"
    },
    "tags": [],
    "actions": [],
    "attackNotes": [],
    "effectNotes": [],
    "changes": [],
    "contextNotes": [],
    "links": {
      "children": [],
      "charges": []
    },
    "tag": "classFeat_vampirismCurse",
    "useCustomTag": true,
    "armorProf": {
      "value": []
    },
    "weaponProf": {
      "value": []
    },
    "languages": {
      "value": []
    },
    "scriptCalls": [],
    "subType": "classFeat",
    "associations": {
      "classes": [["Oracle"]]
    }
  }
}
