{
  "_id": "tUarlzbz0Y7sP7n6",
  "name": "Vital Punishment",
  "type": "feat",
  "img": "systems/pf1/icons/feats/deceitful.jpg",
  "sort": 0,
  "flags": {},
  "system": {
    "description": {
      "value": "<p>The vigilante gains @Compendium[pf1.feats.26k1Gi7t5BoqxhIj]{Vital Strike} as a bonus feat, though he does not have to meet the prerequisites for this feat. Once per round, before he makes an attack of opportunity, he can declare it to be a vital punishment. If the attack hits, the vigilante can apply the Vital Strike feat. The vigilante can apply the @Compendium[pf1.feats.DorPGQ2mifJbMKH8]{Improved Vital Strike} or @Compendium[pf1.feats.zKNk7a4XxXsygJ67]{Greater Vital Strike} feat as his vital punishment instead if he later gains those feats.</p>\n<p>A vigilante must be at least 6th level to select this talent</p>"
    },
    "tags": [],
    "actions": [],
    "attackNotes": [],
    "effectNotes": [],
    "changes": [],
    "contextNotes": [],
    "links": {
      "children": [],
      "charges": []
    },
    "tag": "classFeat_vitalPunishment",
    "useCustomTag": true,
    "armorProf": {
      "value": []
    },
    "weaponProf": {
      "value": []
    },
    "languages": {
      "value": []
    },
    "scriptCalls": [],
    "subType": "classFeat",
    "associations": {
      "classes": [["Vigilante"]]
    },
    "abilityType": "ex"
  }
}
