{
  "_id": "3d9Rgw40NV8ohRtf",
  "name": "Witch's Familiar",
  "type": "feat",
  "img": "systems/pf1/icons/skills/emerald_05.jpg",
  "sort": 0,
  "flags": {},
  "system": {
    "description": {
      "value": "<p>At 1st level, a witch forms a close bond with a familiar, a creature that teaches her magic and helps to guide her along her path. Familiars also aid a witch by granting her skill bonuses, additional spells, and help with some types of magic. This functions like the wizard’s arcane bond class feature, except as noted in the Witch’s Familiar section.<br><br>A witch must commune with her familiar each day to prepare her spells. Familiars store all of the spells that a witch knows, and a witch cannot prepare a spell that is not stored by her familiar. A witch’s familiar begins play storing all of the 0-level witch spells plus three 1st-level spells of the witch’s choice. The witch also selects a number of additional 1st-level spells equal to her Intelligence modifier to store in her familiar. At each new witch level, she adds two new spells of any spell level or levels that she can cast (based on her new witch level) to her familiar. A witch can also add additional spells to her familiar through a special ritual.</p>"
    },
    "tags": [],
    "actions": [],
    "attackNotes": [],
    "effectNotes": [],
    "changes": [],
    "contextNotes": [],
    "links": {
      "children": [],
      "charges": []
    },
    "tag": "classFeat_witchsFamiliar",
    "useCustomTag": true,
    "armorProf": {
      "value": []
    },
    "weaponProf": {
      "value": []
    },
    "languages": {
      "value": []
    },
    "scriptCalls": [],
    "subType": "classFeat",
    "associations": {
      "classes": [["Witch"]]
    },
    "abilityType": "ex"
  }
}
