{
  "_id": "ulvEcJsFba6Fg4g9",
  "name": "Heroism",
  "type": "buff",
  "img": "systems/pf1/icons/skills/yellow_17.jpg",
  "sort": 5800000,
  "flags": {},
  "system": {
    "description": {
      "value": "<p>You gain a +2 <em>morale bonus</em> on attack rolls, saves, and skill checks.</p>"
    },
    "tags": [],
    "changes": [
      {
        "_id": "nueem2us",
        "formula": "2",
        "operator": "add",
        "subTarget": "attack",
        "modifier": "morale",
        "priority": 0,
        "value": 0,
        "target": "attack"
      },
      {
        "_id": "qmgiyv88",
        "formula": "2",
        "operator": "add",
        "subTarget": "allSavingThrows",
        "modifier": "morale",
        "priority": 0,
        "value": 0,
        "target": "savingThrows"
      },
      {
        "_id": "zstphu4j",
        "formula": "2",
        "operator": "add",
        "subTarget": "skills",
        "modifier": "morale",
        "priority": 0,
        "value": 0,
        "target": "skills"
      }
    ],
    "contextNotes": [],
    "links": {
      "children": []
    },
    "scriptCalls": [],
    "level": "5",
    "duration": {
      "value": "@item.level * 10",
      "units": "minute"
    }
  }
}
