{
  "_id": "IlO0CNpAIKZtNYu8",
  "name": "Mage Armor",
  "type": "buff",
  "img": "systems/pf1/icons/spells/protect-sky-1.jpg",
  "sort": 5500000,
  "flags": {},
  "system": {
    "description": {
      "value": "<p>An invisible but tangible field of force surrounds you, providing a +4 armor bonus to AC.</p>\n<p>Since&nbsp;mage armor&nbsp;is made of force,&nbsp;<em>incorporeal</em>&nbsp;creatures can’t bypass it the way they do normal armor.</p>"
    },
    "tags": [],
    "changes": [
      {
        "_id": "o4qpth3y",
        "formula": "4",
        "operator": "add",
        "subTarget": "aac",
        "modifier": "base",
        "priority": 0,
        "value": 0,
        "target": "ac"
      }
    ],
    "contextNotes": [],
    "links": {
      "children": []
    },
    "scriptCalls": [],
    "level": "1",
    "duration": {
      "value": "@item.level",
      "units": "hour"
    }
  }
}
