{
  "_id": "WgCWQxR53UdVSGPB",
  "name": "Shield of Faith",
  "type": "buff",
  "img": "systems/pf1/icons/spells/protect-orange-1.jpg",
  "sort": 6700000,
  "flags": {},
  "system": {
    "description": {
      "value": "<p>You have a deflection bonus to AC.</p>\n<p><strong>Usage</strong>: Set this buff's level equal to the caster level of Shield of Faith.</p>"
    },
    "tags": [],
    "changes": [
      {
        "_id": "qrnq0w11",
        "formula": "2 + min(3, floor(@item.level / 6))",
        "operator": "add",
        "subTarget": "ac",
        "modifier": "deflection",
        "priority": 0,
        "value": 0,
        "target": "ac"
      }
    ],
    "contextNotes": [],
    "links": {
      "children": []
    },
    "scriptCalls": [],
    "level": "1",
    "duration": {
      "value": "@item.level",
      "units": "minute"
    }
  }
}
