{
  "_id": "SJqQO3f3l2PXrVaH",
  "name": "Blast of Wind",
  "type": "spell",
  "img": "icons/magic/air/wind-tornado-spiral-blue-gray.webp",
  "sort": 0,
  "flags": {},
  "system": {
    "tags": [],
    "actions": [
      {
        "_id": "8680jhjva3mw2d7y",
        "name": "Use",
        "img": "icons/magic/air/wind-tornado-spiral-blue-gray.webp",
        "description": "",
        "tag": "",
        "activation": {
          "cost": 1,
          "type": "standard"
        },
        "unchainedAction": {
          "activation": {
            "cost": 1,
            "type": ""
          }
        },
        "duration": {
          "value": "1 round",
          "units": ""
        },
        "target": {
          "value": ""
        },
        "range": {
          "value": "60",
          "units": "ft",
          "maxIncrements": 1,
          "minValue": null,
          "minUnits": ""
        },
        "uses": {
          "autoDeductChargesCost": "1 + @sl",
          "self": {
            "value": 0,
            "maxFormula": "",
            "per": null
          },
          "per": null,
          "value": 0,
          "maxFormula": ""
        },
        "measureTemplate": {
          "type": "ray",
          "size": "60",
          "overrideColor": false,
          "customColor": "",
          "overrideTexture": false,
          "customTexture": ""
        },
        "attackName": "",
        "actionType": "spellsave",
        "attackBonus": "",
        "critConfirmBonus": "",
        "damage": {
          "parts": [],
          "critParts": [],
          "nonCritParts": []
        },
        "attackParts": [],
        "formulaicAttacks": {
          "count": {
            "formula": ""
          },
          "bonus": {
            "formula": ""
          },
          "label": null
        },
        "formula": "",
        "ability": {
          "attack": null,
          "damage": "",
          "damageMult": 1,
          "critRange": 20,
          "critMult": 2
        },
        "save": {
          "dc": "0",
          "type": "fort",
          "description": "Fortitude negates"
        },
        "effectNotes": [],
        "attackNotes": [],
        "soundEffect": "",
        "powerAttack": {
          "multiplier": "",
          "damageBonus": 2,
          "critMultiplier": 1
        },
        "naturalAttack": {
          "primaryAttack": true,
          "secondary": {
            "attackBonus": "-5",
            "damageMult": 0.5
          }
        },
        "nonlethal": false,
        "usesAmmo": false,
        "spellEffect": "line-shaped blast of hurricane-force wind emanating out from you to the extreme of the range",
        "spellArea": "",
        "conditionals": [],
        "enh": {
          "value": null
        }
      }
    ],
    "attackNotes": [],
    "effectNotes": [],
    "links": {
      "children": []
    },
    "scriptCalls": [],
    "learnedAt": {
      "class": [
        ["arcanist", 4],
        ["druid", 4],
        ["hunter", 4],
        ["sorcerer/wizard", 4]
      ],
      "domain": [],
      "subDomain": [],
      "elementalSchool": [],
      "bloodline": []
    },
    "level": 4,
    "school": "evo",
    "types": "air",
    "components": {
      "verbal": true,
      "somatic": true
    },
    "spellbook": "",
    "shortDescription": "<p><span id=\"ctl00_MainContent_DataListTypes_ctl00_LabelName\">With a spiraling gesture of your hand and a forceful exhalation, you create a brief but fierce (90 mph) blast of wind. This spell functions as @Compendium[pf1.spells.cnuin981hdq7ryit]{Gust of Wind}, except all creatures within the area are treated as though they were one size category smaller for the purpose of determining how the spell affects them. For every 4 caster levels beyond 7th, creatures in the area are treated as an additional size category smaller (to a maximum of three size categories smaller at 15th level).</span></p>"
  }
}
