{
  "_id": "oqr3kcb95oeojdbh",
  "name": "Calistria's Guardian Wasps",
  "type": "spell",
  "img": "systems/pf1/icons/misc/magic-swirl.png",
  "sort": 0,
  "flags": {},
  "system": {
    "tags": [],
    "actions": [
      {
        "_id": "bq7um8ziymvf54wi",
        "name": "Use",
        "img": "systems/pf1/icons/misc/magic-swirl.png",
        "description": "",
        "tag": "",
        "activation": {
          "cost": 10,
          "type": "minute"
        },
        "unchainedAction": {
          "activation": {
            "cost": 10,
            "type": "minute"
          }
        },
        "duration": {
          "value": "1 day/level",
          "units": ""
        },
        "target": {
          "value": ""
        },
        "range": {
          "value": null,
          "units": "close",
          "maxIncrements": 1,
          "minValue": null,
          "minUnits": ""
        },
        "uses": {
          "autoDeductChargesCost": "",
          "self": {
            "value": 0,
            "maxFormula": "",
            "per": null
          },
          "per": "",
          "value": 0,
          "maxFormula": ""
        },
        "measureTemplate": {
          "type": "",
          "size": "0",
          "overrideColor": false,
          "customColor": "",
          "overrideTexture": false,
          "customTexture": ""
        },
        "attackName": "",
        "actionType": "other",
        "attackBonus": "",
        "critConfirmBonus": "",
        "damage": {
          "parts": [],
          "critParts": [],
          "nonCritParts": []
        },
        "attackParts": [],
        "formulaicAttacks": {
          "count": {
            "formula": ""
          },
          "bonus": {
            "formula": ""
          },
          "label": null
        },
        "formula": "",
        "ability": {
          "attack": "",
          "damage": "",
          "damageMult": 1,
          "critRange": 20,
          "critMult": 2
        },
        "save": {
          "dc": "0",
          "type": "",
          "description": ""
        },
        "effectNotes": [],
        "attackNotes": [],
        "soundEffect": "",
        "powerAttack": {
          "multiplier": "",
          "damageBonus": 2,
          "critMultiplier": 1
        },
        "naturalAttack": {
          "primaryAttack": true,
          "secondary": {
            "attackBonus": "-5",
            "damageMult": 0.5
          }
        },
        "nonlethal": false,
        "usesAmmo": false,
        "spellEffect": "swarm of wasps that builds a nest; see text",
        "spellArea": "",
        "conditionals": [],
        "enh": {
          "value": null
        }
      }
    ],
    "uses": {
      "per": ""
    },
    "attackNotes": [],
    "effectNotes": [],
    "links": {
      "children": []
    },
    "scriptCalls": [],
    "learnedAt": {
      "class": [
        ["sorcerer/wizard", 3],
        ["druid", 3],
        ["ranger", 3],
        ["psychic", 3],
        ["hunter", 3]
      ],
      "domain": [],
      "subDomain": [],
      "elementalSchool": [],
      "bloodline": []
    },
    "level": 3,
    "school": "con",
    "subschool": "summoning",
    "components": {
      "verbal": true,
      "somatic": true,
      "material": true
    },
    "materials": {
      "value": "a glob of spiced honey"
    },
    "sr": false,
    "shortDescription": "<p>You summon a wasp swarm (<i>Pathfinder RPG Bestiary</i> 275) that builds a 10-foot-by-10-foot nest in the place you designate-typically under the eaves of a house, amid the rafters of a tavern, or in another obscured place. The wasp swarm takes the spell's casting time to build its nest; if the  swarm is disrupted in any way (such as by being attacked) before you finish casting this spell, the wasps disappear and the spell fizzles.  Once the wasp swarm has built its nest, this spell also wards the area. As per <i>alarm</i>, when intruders that do not speak the password pass within 20 feet, the swarm is alerted and immediately leaves its nest and attacks the nearest intruder. The swarm pursues that intruder as best it can. Once the swarm attacks an intruder, you have no control over its target or direction of travel. When the spell ends, if the wasps have not left their nest, they and their nest disappear.</p>"
  }
}
