{
  "_id": "3p5s2rkpe7u7ifzn",
  "name": "Chill Metal",
  "type": "spell",
  "img": "systems/pf1/icons/misc/magic-swirl.png",
  "sort": 0,
  "flags": {},
  "system": {
    "tags": [],
    "actions": [
      {
        "_id": "bpoyuhksm4teknfm",
        "name": "Use",
        "img": "systems/pf1/icons/misc/magic-swirl.png",
        "description": "",
        "tag": "",
        "activation": {
          "cost": 1,
          "type": "standard"
        },
        "unchainedAction": {
          "activation": {
            "cost": 2,
            "type": "action"
          }
        },
        "duration": {
          "value": "7 rounds",
          "units": ""
        },
        "target": {
          "value": "metal equipment of one creature per two levels, no two of which can be more than 30 ft. apart; or 25 lbs. of metal/level, none of which can be more than 30 ft. away from any of the rest"
        },
        "range": {
          "value": null,
          "units": "close",
          "maxIncrements": 1,
          "minValue": null,
          "minUnits": ""
        },
        "uses": {
          "autoDeductChargesCost": "",
          "self": {
            "value": 0,
            "maxFormula": "",
            "per": null
          },
          "per": "",
          "value": 0,
          "maxFormula": ""
        },
        "measureTemplate": {
          "type": "",
          "size": "0",
          "overrideColor": false,
          "customColor": "",
          "overrideTexture": false,
          "customTexture": ""
        },
        "attackName": "",
        "actionType": "spellsave",
        "attackBonus": "",
        "critConfirmBonus": "",
        "damage": {
          "parts": [],
          "critParts": [],
          "nonCritParts": []
        },
        "attackParts": [],
        "formulaicAttacks": {
          "count": {
            "formula": ""
          },
          "bonus": {
            "formula": ""
          },
          "label": null
        },
        "formula": "",
        "ability": {
          "attack": "",
          "damage": "",
          "damageMult": 1,
          "critRange": 20,
          "critMult": 2
        },
        "save": {
          "dc": "0",
          "type": "will",
          "description": "Will negates (object)"
        },
        "effectNotes": [],
        "attackNotes": [],
        "soundEffect": "",
        "powerAttack": {
          "multiplier": "",
          "damageBonus": 2,
          "critMultiplier": 1
        },
        "naturalAttack": {
          "primaryAttack": true,
          "secondary": {
            "attackBonus": "-5",
            "damageMult": 0.5
          }
        },
        "nonlethal": false,
        "usesAmmo": false,
        "spellEffect": "",
        "spellArea": "",
        "conditionals": [],
        "enh": {
          "value": null
        }
      }
    ],
    "uses": {
      "per": ""
    },
    "attackNotes": [],
    "effectNotes": [],
    "links": {
      "children": []
    },
    "scriptCalls": [],
    "learnedAt": {
      "class": [
        ["druid", 2],
        ["psychic", 2],
        ["occultist", 2],
        ["hunter", 2]
      ],
      "domain": [],
      "subDomain": [],
      "elementalSchool": [],
      "bloodline": []
    },
    "level": 2,
    "school": "trs",
    "types": "cold",
    "components": {
      "verbal": true,
      "somatic": true,
      "divineFocus": 1
    },
    "shortDescription": "<p><i>Chill metal</i> makes metal extremely cold. Unattended, nonmagical metal gets no saving throw. Magical metal is allowed a saving throw against the spell. An item in a creature's possession uses the creature's saving throw bonus unless its own is higher.</p><p>A creature takes cold damage if its equipment is chilled. It takes full damage if its armor, shield, or weapon is affected. The creature takes minimum damage (1 point or 2 points; see the table) if it's not wearing or wielding such an item.</p><p>On the first round of the spell, the metal becomes chilly and uncomfortable to touch but deals no damage. The same effect also occurs on the last round of the spell's duration. During the second (and also the next-to-last) round, icy coldness causes pain and damage. In the third, fourth, and fifth rounds, the metal is freezing cold, and causes more damage, as shown on the table below.</p>   <table border ='1'><tr><th>Round</th><th>Metal Temperature Damage</th></tr><tr><td>1</td><td>Cold None</td></tr><tr><td>2</td><td>Icy 1d4 points</td></tr><tr><td>3-5</td><td>Freezing 2d4 points</td></tr><tr><td>6</td><td>Icy 1d4 points</td></tr><tr><td>7</td><td>Cold None</td></tr></table>    Any heat intense enough to damage the creature negates cold damage from the spell (and vice versa) on a point-for-point basis.</p><p>Underwater, <i>chill metal</i> deals no damage, but ice immediately forms around the affected metal, making it float if unattended.</p><p><i>Chill metal</i> counters and dispels <i>heat metal</i>.</p>"
  }
}
