{
  "_id": "bLOXAvcgrCd2cIty",
  "name": "Curse of Dragonflies",
  "type": "spell",
  "img": "icons/creatures/invertebrates/dragonfly-teal.webp",
  "sort": 0,
  "flags": {},
  "system": {
    "tags": [],
    "actions": [
      {
        "_id": "5objqdlcl1tumf8g",
        "name": "Use",
        "img": "icons/creatures/invertebrates/dragonfly-teal.webp",
        "description": "",
        "tag": "",
        "activation": {
          "cost": 1,
          "type": "standard"
        },
        "unchainedAction": {
          "activation": {
            "cost": 1,
            "type": ""
          }
        },
        "duration": {
          "value": "permanent (D)",
          "units": ""
        },
        "target": {
          "value": "one creature"
        },
        "range": {
          "value": null,
          "units": "medium",
          "maxIncrements": 1,
          "minValue": null,
          "minUnits": ""
        },
        "uses": {
          "autoDeductChargesCost": "1 + @sl",
          "self": {
            "value": 0,
            "maxFormula": "",
            "per": null
          },
          "per": null,
          "value": 0,
          "maxFormula": ""
        },
        "measureTemplate": {
          "type": "",
          "size": "",
          "overrideColor": false,
          "customColor": "",
          "overrideTexture": false,
          "customTexture": ""
        },
        "attackName": "",
        "actionType": "spellsave",
        "attackBonus": "",
        "critConfirmBonus": "",
        "damage": {
          "parts": [],
          "critParts": [],
          "nonCritParts": []
        },
        "attackParts": [],
        "formulaicAttacks": {
          "count": {
            "formula": ""
          },
          "bonus": {
            "formula": ""
          },
          "label": null
        },
        "formula": "",
        "ability": {
          "attack": null,
          "damage": "",
          "damageMult": 1,
          "critRange": 20,
          "critMult": 2
        },
        "save": {
          "dc": "0",
          "type": "will",
          "description": "Will negates"
        },
        "effectNotes": [],
        "attackNotes": [],
        "soundEffect": "",
        "powerAttack": {
          "multiplier": "",
          "damageBonus": 2,
          "critMultiplier": 1
        },
        "naturalAttack": {
          "primaryAttack": true,
          "secondary": {
            "attackBonus": "-5",
            "damageMult": 0.5
          }
        },
        "nonlethal": false,
        "usesAmmo": false,
        "spellEffect": "",
        "spellArea": "",
        "conditionals": [],
        "enh": {
          "value": null
        }
      }
    ],
    "attackNotes": [],
    "effectNotes": [],
    "links": {
      "children": []
    },
    "scriptCalls": [],
    "learnedAt": {
      "class": [
        ["arcanist", 4],
        ["druid", 3],
        ["hunter", 3],
        ["magus", 3],
        ["shaman", 4],
        ["sorcerer/wizard", 4],
        ["summoner", 4],
        ["witch", 3]
      ],
      "domain": [],
      "subDomain": [],
      "elementalSchool": [],
      "bloodline": []
    },
    "level": 4,
    "school": "con",
    "types": "air, curse",
    "components": {
      "verbal": true,
      "somatic": true,
      "material": true
    },
    "materials": {
      "value": "a paper insect"
    },
    "spellbook": "",
    "shortDescription": "<p><span id=\"ctl00_MainContent_DataListTypes_ctl00_LabelName\">You invest a target with cursed elemental energy, making the open skies anathema to it. If the affected creature ever tries to fly more than 5 feet above the ground, paper insects erupt from the air around the creature to interfere with its movement. The affected creature&rsquo;s flight maneuverability decreases by one step for every 3 caster levels you have. A creature whose maneuverability would be brought below clumsy must land at the end of its turn each round or fall.</span></p>\n<p><span id=\"ctl00_MainContent_DataListTypes_ctl00_LabelName\">This spell does not affect incorporeal creatures or creatures that are otherwise intangible (such as a wizard using&nbsp;@Compendium[pf1.spells.mqdoexj35atgqafn]{Gaseous Form} to fly).</span></p>"
  }
}
