{
  "_id": "sxyiwj0z95piv96i",
  "name": "Disintegrate",
  "type": "spell",
  "img": "systems/pf1/icons/misc/magic-swirl.png",
  "sort": 0,
  "flags": {},
  "system": {
    "tags": [],
    "actions": [
      {
        "_id": "xcw4moqp31i8li0r",
        "name": "Use",
        "img": "systems/pf1/icons/misc/magic-swirl.png",
        "description": "",
        "tag": "",
        "activation": {
          "cost": 1,
          "type": "standard"
        },
        "unchainedAction": {
          "activation": {
            "cost": 2,
            "type": "action"
          }
        },
        "duration": {
          "value": "instantaneous",
          "units": ""
        },
        "target": {
          "value": ""
        },
        "range": {
          "value": null,
          "units": "medium",
          "maxIncrements": 1,
          "minValue": null,
          "minUnits": ""
        },
        "uses": {
          "autoDeductChargesCost": "",
          "self": {
            "value": 0,
            "maxFormula": "",
            "per": null
          },
          "per": "",
          "value": 0,
          "maxFormula": ""
        },
        "measureTemplate": {
          "type": "",
          "size": "0",
          "overrideColor": false,
          "customColor": "",
          "overrideTexture": false,
          "customTexture": ""
        },
        "attackName": "",
        "actionType": "rsak",
        "attackBonus": "",
        "critConfirmBonus": "",
        "damage": {
          "parts": [
            [
              "(min(40, @cl * 2))d6",
              {
                "values": ["untyped"],
                "custom": ""
              }
            ]
          ],
          "critParts": [],
          "nonCritParts": []
        },
        "attackParts": [],
        "formulaicAttacks": {
          "count": {
            "formula": ""
          },
          "bonus": {
            "formula": ""
          },
          "label": null
        },
        "formula": "",
        "ability": {
          "attack": "dex",
          "damage": "",
          "damageMult": 1,
          "critRange": 20,
          "critMult": 2
        },
        "save": {
          "dc": "0",
          "type": "fort",
          "description": "Fortitude partial (object)"
        },
        "effectNotes": ["[[5d6]] Damage on Successful Save"],
        "attackNotes": [],
        "soundEffect": "",
        "powerAttack": {
          "multiplier": "",
          "damageBonus": 2,
          "critMultiplier": 1
        },
        "naturalAttack": {
          "primaryAttack": true,
          "secondary": {
            "attackBonus": "-5",
            "damageMult": 0.5
          }
        },
        "nonlethal": false,
        "usesAmmo": false,
        "spellEffect": "ray",
        "spellArea": "",
        "conditionals": [],
        "enh": {
          "value": null
        }
      }
    ],
    "uses": {
      "per": ""
    },
    "attackNotes": [],
    "effectNotes": [],
    "links": {
      "children": []
    },
    "scriptCalls": [],
    "learnedAt": {
      "class": [
        ["sorcerer/wizard", 6],
        ["magus", 6],
        ["psychic", 6],
        ["occultist", 6],
        ["spiritualist", 6]
      ],
      "domain": [["Destruction", 7]],
      "subDomain": [["Ash", 7]],
      "elementalSchool": [],
      "bloodline": [
        ["Div", 6],
        ["Protean", 6]
      ]
    },
    "level": 6,
    "school": "trs",
    "components": {
      "verbal": true,
      "somatic": true,
      "material": true,
      "divineFocus": 2
    },
    "materials": {
      "value": "a lodestone and a pinch of dust"
    },
    "shortDescription": "<p>A thin, green ray springs from your pointing finger. You must make a successful ranged touch attack to hit. Any creature struck by the ray takes 2d6 points of damage per caster level (to a maximum of 40d6). Any creature reduced to 0 or fewer hit points by this spell is entirely disintegrated, leaving behind only a trace of fine dust. A disintegrated creature's equipment is unaffected.</p><p>When used against an object, the ray simply disintegrates as much as a 10-foot cube of nonliving matter. Thus, the spell disintegrates only part of any very large object or structure targeted.</p><p>The ray affects even objects constructed entirely of force, such as <i>forceful hand</i> or a <i>Wall of Force</i>, but not magical effects such as a <i>Globe of Invulnerability</i> or an <i>antimagic field</i>.</p><p>A creature or object that makes a successful Fortitude save is partially affected, taking only 5d6 points of damage. If this damage reduces the creature or object to 0 or fewer hit points, it is entirely disintegrated.</p><p>Only the first creature or object struck can be affected; that is, the ray affects only one target per casting.</p>"
  }
}
