{
  "_id": "ba8ur1roqmqxn0j5",
  "name": "Elemental Speech",
  "type": "spell",
  "img": "systems/pf1/icons/misc/magic-swirl.png",
  "sort": 0,
  "flags": {},
  "system": {
    "tags": [],
    "actions": [
      {
        "_id": "a2v0yrv5w49kus8z",
        "name": "Use",
        "img": "systems/pf1/icons/misc/magic-swirl.png",
        "description": "",
        "tag": "",
        "activation": {
          "cost": 1,
          "type": "standard"
        },
        "unchainedAction": {
          "activation": {
            "cost": 2,
            "type": "action"
          }
        },
        "duration": {
          "value": "1 minute/level",
          "units": ""
        },
        "target": {
          "value": "you"
        },
        "range": {
          "value": null,
          "units": "personal",
          "maxIncrements": 1,
          "minValue": null,
          "minUnits": ""
        },
        "uses": {
          "autoDeductChargesCost": "",
          "self": {
            "value": 0,
            "maxFormula": "",
            "per": null
          },
          "per": "",
          "value": 0,
          "maxFormula": ""
        },
        "measureTemplate": {
          "type": "",
          "size": "0",
          "overrideColor": false,
          "customColor": "",
          "overrideTexture": false,
          "customTexture": ""
        },
        "attackName": "",
        "actionType": "",
        "attackBonus": "",
        "critConfirmBonus": "",
        "damage": {
          "parts": [],
          "critParts": [],
          "nonCritParts": []
        },
        "attackParts": [],
        "formulaicAttacks": {
          "count": {
            "formula": ""
          },
          "bonus": {
            "formula": ""
          },
          "label": null
        },
        "formula": "",
        "ability": {
          "attack": "",
          "damage": "",
          "damageMult": 1,
          "critRange": 20,
          "critMult": 2
        },
        "save": {
          "dc": "0",
          "type": "",
          "description": ""
        },
        "effectNotes": [],
        "attackNotes": [],
        "soundEffect": "",
        "powerAttack": {
          "multiplier": "",
          "damageBonus": 2,
          "critMultiplier": 1
        },
        "naturalAttack": {
          "primaryAttack": true,
          "secondary": {
            "attackBonus": "-5",
            "damageMult": 0.5
          }
        },
        "nonlethal": false,
        "usesAmmo": false,
        "spellEffect": "",
        "spellArea": "",
        "conditionals": [],
        "enh": {
          "value": null
        }
      }
    ],
    "uses": {
      "per": ""
    },
    "attackNotes": [],
    "effectNotes": [],
    "links": {
      "children": []
    },
    "scriptCalls": [],
    "learnedAt": {
      "class": [
        ["sorcerer/wizard", 2],
        ["cleric/oracle", 3],
        ["druid", 2],
        ["bard", 3],
        ["mesmerist", 3],
        ["hunter", 2]
      ],
      "domain": [],
      "subDomain": [],
      "elementalSchool": [],
      "bloodline": []
    },
    "level": 2,
    "school": "div",
    "types": "air, earth, fire, or water",
    "components": {
      "verbal": true,
      "somatic": true,
      "material": true
    },
    "materials": {
      "value": "iron filings"
    },
    "sr": false,
    "shortDescription": "<p>This spell enables you to converse with creatures associated with a chosen element, including but not limited to true elemental creatures. This spell gains the elemental subtype based on the version of the spell you cast. <i>Elemental speech</i> does not guarantee a friendly reaction; it merely enables communication. You may converse with all creatures of the selected type with an Intelligence score of 1 or greater, even if they do not understand one another.</p><p>When cast as an air spell, you can converse in Auran and with any creature that has the air subtype or a fly speed.</p><p>When cast as an earth spell, you can converse in Terran and with any creature that has the earth subtype or a burrow speed.</p><p>When cast as a fire spell, you can converse in Ignan and with any creature that has the fire subtype.</p><p>When cast as a water spell, you can converse in Aquan and with any creature that has the water subtype or a swim speed.</p>"
  }
}
