{
  "_id": "xlzqpkl8fpm3sn4u",
  "name": "Euphoric Tranquility",
  "type": "spell",
  "img": "systems/pf1/icons/misc/magic-swirl.png",
  "sort": 0,
  "flags": {},
  "system": {
    "tags": [],
    "actions": [
      {
        "_id": "udr09ilzoqe087jw",
        "name": "Use",
        "img": "systems/pf1/icons/misc/magic-swirl.png",
        "description": "",
        "tag": "",
        "activation": {
          "cost": 1,
          "type": "standard"
        },
        "unchainedAction": {
          "activation": {
            "cost": 2,
            "type": "action"
          }
        },
        "duration": {
          "value": "1 round/level",
          "units": ""
        },
        "target": {
          "value": "creature touched"
        },
        "range": {
          "value": null,
          "units": "touch",
          "maxIncrements": 1,
          "minValue": null,
          "minUnits": ""
        },
        "uses": {
          "autoDeductChargesCost": "",
          "self": {
            "value": 0,
            "maxFormula": "",
            "per": null
          },
          "per": "",
          "value": 0,
          "maxFormula": ""
        },
        "measureTemplate": {
          "type": "",
          "size": "0",
          "overrideColor": false,
          "customColor": "",
          "overrideTexture": false,
          "customTexture": ""
        },
        "attackName": "",
        "actionType": "spellsave",
        "attackBonus": "",
        "critConfirmBonus": "",
        "damage": {
          "parts": [],
          "critParts": [],
          "nonCritParts": []
        },
        "attackParts": [],
        "formulaicAttacks": {
          "count": {
            "formula": ""
          },
          "bonus": {
            "formula": ""
          },
          "label": null
        },
        "formula": "",
        "ability": {
          "attack": "",
          "damage": "",
          "damageMult": 1,
          "critRange": 20,
          "critMult": 2
        },
        "save": {
          "dc": "0",
          "type": "will",
          "description": "none and Will partial (see below)"
        },
        "effectNotes": [],
        "attackNotes": [],
        "soundEffect": "",
        "powerAttack": {
          "multiplier": "",
          "damageBonus": 2,
          "critMultiplier": 1
        },
        "naturalAttack": {
          "primaryAttack": true,
          "secondary": {
            "attackBonus": "-5",
            "damageMult": 0.5
          }
        },
        "nonlethal": false,
        "usesAmmo": false,
        "spellEffect": "",
        "spellArea": "",
        "conditionals": [],
        "enh": {
          "value": null
        }
      }
    ],
    "uses": {
      "per": ""
    },
    "attackNotes": [],
    "effectNotes": [],
    "links": {
      "children": []
    },
    "scriptCalls": [],
    "learnedAt": {
      "class": [
        ["sorcerer/wizard", 8],
        ["cleric/oracle", 8],
        ["druid", 8],
        ["bard", 6],
        ["psychic", 8],
        ["mesmerist", 6]
      ],
      "domain": [],
      "subDomain": [["Love", 8]],
      "elementalSchool": [],
      "bloodline": []
    },
    "level": 8,
    "school": "enc",
    "subschool": "compulsion",
    "types": "emotion, mind-affecting",
    "components": {
      "verbal": true,
      "somatic": true,
      "material": true,
      "divineFocus": 2
    },
    "materials": {
      "value": "a poppy flower"
    },
    "shortDescription": "<p>A creature under the effect of this enchantment enters a state of euphoria. The target treats all creatures as dear friends and abhors violence, but may rise up to protect itself if violence is perpetrated against it. Until the end of the spell's duration, the creature's speed is halved, and it cannot make attacks or cast spells. If the creature is attacked, it gets a Will saving throw. If the saving throw succeeds, the creature can make act normally for 1 round. If the saving throw fails, the creature moves half its speed away from the attacker as its next action.</p><p>Furthermore, if the creature is interacted with, or questioned while under the effects of this spell, it is considered to have an attitude of Helpful (see the Diplomacy skill, <i>Core Rulebook</i> 94), though any advice or answers it gives may be disjointed or stream of consciousness due to its euphoric state.</p>"
  }
}
