{
  "_id": "pfv5zv744x9dwg38",
  "name": "Geas/Quest",
  "type": "spell",
  "img": "systems/pf1/icons/misc/magic-swirl.png",
  "sort": 0,
  "flags": {},
  "system": {
    "tags": [],
    "actions": [
      {
        "_id": "e0sjk450htrmmm6l",
        "name": "Use",
        "img": "systems/pf1/icons/misc/magic-swirl.png",
        "description": "",
        "tag": "",
        "activation": {
          "cost": 10,
          "type": "minute"
        },
        "unchainedAction": {
          "activation": {
            "cost": 10,
            "type": "minute"
          }
        },
        "duration": {
          "value": "1 day/level or until discharged",
          "units": ""
        },
        "target": {
          "value": "one living creature"
        },
        "range": {
          "value": null,
          "units": "close",
          "maxIncrements": 1,
          "minValue": null,
          "minUnits": ""
        },
        "uses": {
          "autoDeductChargesCost": "",
          "self": {
            "value": 0,
            "maxFormula": "",
            "per": null
          },
          "per": "",
          "value": 0,
          "maxFormula": ""
        },
        "measureTemplate": {
          "type": "",
          "size": "0",
          "overrideColor": false,
          "customColor": "",
          "overrideTexture": false,
          "customTexture": ""
        },
        "attackName": "",
        "actionType": "",
        "attackBonus": "",
        "critConfirmBonus": "",
        "damage": {
          "parts": [],
          "critParts": [],
          "nonCritParts": []
        },
        "attackParts": [],
        "formulaicAttacks": {
          "count": {
            "formula": ""
          },
          "bonus": {
            "formula": ""
          },
          "label": null
        },
        "formula": "",
        "ability": {
          "attack": "",
          "damage": "",
          "damageMult": 1,
          "critRange": 20,
          "critMult": 2
        },
        "save": {
          "dc": "0",
          "type": "",
          "description": ""
        },
        "effectNotes": [],
        "attackNotes": [],
        "soundEffect": "",
        "powerAttack": {
          "multiplier": "",
          "damageBonus": 2,
          "critMultiplier": 1
        },
        "naturalAttack": {
          "primaryAttack": true,
          "secondary": {
            "attackBonus": "-5",
            "damageMult": 0.5
          }
        },
        "nonlethal": false,
        "usesAmmo": false,
        "spellEffect": "",
        "spellArea": "",
        "conditionals": [],
        "enh": {
          "value": null
        }
      }
    ],
    "uses": {
      "per": ""
    },
    "attackNotes": [],
    "effectNotes": [],
    "links": {
      "children": []
    },
    "scriptCalls": [],
    "learnedAt": {
      "class": [
        ["sorcerer/wizard", 6],
        ["cleric/oracle", 6],
        ["bard", 6],
        ["witch", 6],
        ["inquisitor", 5],
        ["psychic", 6],
        ["mesmerist", 6]
      ],
      "domain": [
        ["Charm", 6],
        ["Nobility", 6]
      ],
      "subDomain": [
        ["Ancestors", 6],
        ["Honor", 6]
      ],
      "elementalSchool": [],
      "bloodline": []
    },
    "level": 6,
    "school": "enc",
    "subschool": "compulsion",
    "types": "language-dependent, mind-affecting, curse",
    "components": {
      "verbal": true
    },
    "shortDescription": "<p>This spell functions similarly to <i>lesser <i>geas,</i></i> except that it affects a creature of any HD and allows no saving throw.</p><p>If the subject is prevented from obeying the <i>geas/quest</i> for 24 hours, it takes a -3 penalty to each of its ability scores. Each day, another -3 penalty accumulates, up to a total of -12. No ability score can be reduced to less than 1 by this effect. The ability score penalties are removed 24 hours after the subject resumes obeying the <i>geas/quest</i>.</p><p>A remove curse spell ends a <i>geas/quest</i> spell only if its caster level is at least two higher than your caster level. <i>Break enchantment</i> does not end a <i>geas/quest</i>, but limited <i>wish</i>, miracle, and <i>wish</i> do.</p><p>Bards, sorcerers, and wizards usually refer to this spell as <i>geas,</i> while clerics call the same spell quest.</p>"
  }
}
