{
  "_id": "99xovzg8h1nh9o9a",
  "name": "Lullaby",
  "type": "spell",
  "img": "systems/pf1/icons/misc/magic-swirl.png",
  "sort": 0,
  "flags": {},
  "system": {
    "tags": [],
    "actions": [
      {
        "_id": "4jufazb4kqpe067h",
        "name": "Use",
        "img": "systems/pf1/icons/misc/magic-swirl.png",
        "description": "",
        "tag": "",
        "activation": {
          "cost": 1,
          "type": "standard"
        },
        "unchainedAction": {
          "activation": {
            "cost": 2,
            "type": "action"
          }
        },
        "duration": {
          "value": "concentration + 1 round/level",
          "units": ""
        },
        "target": {
          "value": ""
        },
        "range": {
          "value": null,
          "units": "medium",
          "maxIncrements": 1,
          "minValue": null,
          "minUnits": ""
        },
        "uses": {
          "autoDeductChargesCost": "",
          "self": {
            "value": 0,
            "maxFormula": "",
            "per": null
          },
          "per": "",
          "value": 0,
          "maxFormula": ""
        },
        "measureTemplate": {
          "type": "",
          "size": "0",
          "overrideColor": false,
          "customColor": "",
          "overrideTexture": false,
          "customTexture": ""
        },
        "attackName": "",
        "actionType": "spellsave",
        "attackBonus": "",
        "critConfirmBonus": "",
        "damage": {
          "parts": [],
          "critParts": [],
          "nonCritParts": []
        },
        "attackParts": [],
        "formulaicAttacks": {
          "count": {
            "formula": ""
          },
          "bonus": {
            "formula": ""
          },
          "label": null
        },
        "formula": "",
        "ability": {
          "attack": "",
          "damage": "",
          "damageMult": 1,
          "critRange": 20,
          "critMult": 2
        },
        "save": {
          "dc": "0",
          "type": "will",
          "description": "Will negates"
        },
        "effectNotes": [],
        "attackNotes": [],
        "soundEffect": "",
        "powerAttack": {
          "multiplier": "",
          "damageBonus": 2,
          "critMultiplier": 1
        },
        "naturalAttack": {
          "primaryAttack": true,
          "secondary": {
            "attackBonus": "-5",
            "damageMult": 0.5
          }
        },
        "nonlethal": false,
        "usesAmmo": false,
        "spellEffect": "",
        "spellArea": "living creatures within a 10-ft.-radius burst",
        "conditionals": [],
        "enh": {
          "value": null
        }
      }
    ],
    "uses": {
      "per": "",
      "autoDeductChargesCost": "0"
    },
    "attackNotes": [],
    "effectNotes": [],
    "links": {
      "children": []
    },
    "scriptCalls": [],
    "learnedAt": {
      "class": [
        ["bard", 0],
        ["psychic", 0],
        ["mesmerist", 0]
      ],
      "domain": [],
      "subDomain": [],
      "elementalSchool": [],
      "bloodline": []
    },
    "level": 0,
    "school": "enc",
    "subschool": "compulsion",
    "types": "mind-affecting",
    "components": {
      "verbal": true,
      "somatic": true
    },
    "shortDescription": "<p>Any creature within the area that fails a Will save becomes drowsy and inattentive, taking a -5 penalty on Perception checks and a -2 penalty on Will saves against <i>sleep</i> effects while the <i>lullaby</i> is in effect. <i>Lullaby</i> lasts for as long as the caster concentrates, plus up to 1 round per caster level thereafter.</p>"
  }
}
