{
  "_id": "96wkex2umgqrjwr4",
  "name": "Mage's Sword",
  "type": "spell",
  "img": "systems/pf1/icons/misc/magic-swirl.png",
  "sort": 0,
  "flags": {},
  "system": {
    "tags": [],
    "actions": [
      {
        "_id": "37dn7skixf5fmd04",
        "name": "Use",
        "img": "systems/pf1/icons/misc/magic-swirl.png",
        "description": "",
        "tag": "",
        "activation": {
          "cost": 1,
          "type": "standard"
        },
        "unchainedAction": {
          "activation": {
            "cost": 2,
            "type": "action"
          }
        },
        "duration": {
          "value": "1 round/level",
          "units": ""
        },
        "target": {
          "value": ""
        },
        "range": {
          "value": null,
          "units": "close",
          "maxIncrements": 1,
          "minValue": null,
          "minUnits": ""
        },
        "uses": {
          "autoDeductChargesCost": "",
          "self": {
            "value": 0,
            "maxFormula": "",
            "per": null
          },
          "per": "",
          "value": 0,
          "maxFormula": ""
        },
        "measureTemplate": {
          "type": "",
          "size": "0",
          "overrideColor": false,
          "customColor": "",
          "overrideTexture": false,
          "customTexture": ""
        },
        "attackName": "",
        "actionType": "other",
        "attackBonus": "",
        "critConfirmBonus": "",
        "damage": {
          "parts": [],
          "critParts": [],
          "nonCritParts": []
        },
        "attackParts": [],
        "formulaicAttacks": {
          "count": {
            "formula": ""
          },
          "bonus": {
            "formula": ""
          },
          "label": null
        },
        "formula": "",
        "ability": {
          "attack": "",
          "damage": "",
          "damageMult": 1,
          "critRange": 20,
          "critMult": 2
        },
        "save": {
          "dc": "0",
          "type": "",
          "description": ""
        },
        "effectNotes": [],
        "attackNotes": [],
        "soundEffect": "",
        "powerAttack": {
          "multiplier": "",
          "damageBonus": 2,
          "critMultiplier": 1
        },
        "naturalAttack": {
          "primaryAttack": true,
          "secondary": {
            "attackBonus": "-5",
            "damageMult": 0.5
          }
        },
        "nonlethal": false,
        "usesAmmo": false,
        "spellEffect": "one sword",
        "spellArea": "",
        "conditionals": [],
        "enh": {
          "value": null
        }
      }
    ],
    "uses": {
      "per": ""
    },
    "attackNotes": [],
    "effectNotes": [],
    "links": {
      "children": []
    },
    "scriptCalls": [],
    "learnedAt": {
      "class": [
        ["sorcerer/wizard", 7],
        ["psychic", 7]
      ],
      "domain": [],
      "subDomain": [],
      "elementalSchool": [],
      "bloodline": []
    },
    "level": 7,
    "school": "evo",
    "types": "force",
    "components": {
      "verbal": true,
      "somatic": true,
      "focus": true
    },
    "materials": {
      "focus": "a miniature platinum sword worth 250 gp"
    },
    "shortDescription": "<p>This spell brings into being a shimmering, sword-like plane of force. The sword strikes at any opponent within its range, as you desire, starting in the round that you cast the spell. The sword attacks its designated target once each round on your turn. Its attack bonus is equal to your caster level + your Intelligence bonus or your Charisma bonus (for wizards or sorcerers, respectively) with an additional +3 enhancement bonus. As a force effect, it can strike ethereal and incorporeal creatures. It deals 4d6+3 points of force damage, with a threat range of 19-20 and a critical multiplier of x2.</p><p>The sword always strikes from your direction. It does not get a bonus for flanking or help a combatant get one. If the sword goes beyond the spell range from you, goes out of your sight, or you are not directing it, it returns to you and hovers.</p><p>Each round after the first, you can use a standard action to switch the sword to a new target. If you do not, the sword continues to attack the previous round's target.</p><p>The sword cannot be attacked or harmed by physical attacks, but dispel magic, disintegrate, a sphere of annihilation, or a <i>rod of cancellation</i> affects it. The sword's AC is 13 (10, +0 size bonus for Medium object, +3 deflection bonus).</p><p>If an attacked creature has spell resistance, the resistance is checked the first time mage's sword strikes it. If the sword is successfully resisted, the spell is dispelled. If not, the sword has its normal full effect on that creature for the duration of the spell.</p>"
  }
}
