{
  "_id": "siv3ub7hbmcklf8c",
  "name": "Nightmare",
  "type": "spell",
  "img": "systems/pf1/icons/misc/magic-swirl.png",
  "sort": 0,
  "flags": {},
  "system": {
    "tags": [],
    "actions": [
      {
        "_id": "gpb9ze89s1u9cwk4",
        "name": "Use",
        "img": "systems/pf1/icons/misc/magic-swirl.png",
        "description": "",
        "tag": "",
        "activation": {
          "cost": 10,
          "type": "minute"
        },
        "unchainedAction": {
          "activation": {
            "cost": 10,
            "type": "minute"
          }
        },
        "duration": {
          "value": "instantaneous",
          "units": ""
        },
        "target": {
          "value": "one living creature"
        },
        "range": {
          "value": null,
          "units": "",
          "maxIncrements": 1,
          "minValue": null,
          "minUnits": ""
        },
        "uses": {
          "autoDeductChargesCost": "",
          "self": {
            "value": 0,
            "maxFormula": "",
            "per": null
          },
          "per": "",
          "value": 0,
          "maxFormula": ""
        },
        "measureTemplate": {
          "type": "",
          "size": "0",
          "overrideColor": false,
          "customColor": "",
          "overrideTexture": false,
          "customTexture": ""
        },
        "attackName": "",
        "actionType": "spellsave",
        "attackBonus": "",
        "critConfirmBonus": "",
        "damage": {
          "parts": [],
          "critParts": [],
          "nonCritParts": []
        },
        "attackParts": [],
        "formulaicAttacks": {
          "count": {
            "formula": ""
          },
          "bonus": {
            "formula": ""
          },
          "label": null
        },
        "formula": "",
        "ability": {
          "attack": "",
          "damage": "",
          "damageMult": 1,
          "critRange": 20,
          "critMult": 2
        },
        "save": {
          "dc": "0",
          "type": "will",
          "description": "Will negates; see text"
        },
        "effectNotes": [],
        "attackNotes": [],
        "soundEffect": "",
        "powerAttack": {
          "multiplier": "",
          "damageBonus": 2,
          "critMultiplier": 1
        },
        "naturalAttack": {
          "primaryAttack": true,
          "secondary": {
            "attackBonus": "-5",
            "damageMult": 0.5
          }
        },
        "nonlethal": false,
        "usesAmmo": false,
        "spellEffect": "",
        "spellArea": "",
        "conditionals": [],
        "enh": {
          "value": null
        }
      }
    ],
    "uses": {
      "per": ""
    },
    "attackNotes": [],
    "effectNotes": [],
    "links": {
      "children": []
    },
    "scriptCalls": [],
    "learnedAt": {
      "class": [
        ["sorcerer/wizard", 5],
        ["bard", 5],
        ["alchemist", 5],
        ["psychic", 5],
        ["medium", 4],
        ["mesmerist", 5],
        ["spiritualist", 5]
      ],
      "domain": [["Madness", 5]],
      "subDomain": [["Night", 6]],
      "elementalSchool": [],
      "bloodline": []
    },
    "level": 5,
    "school": "ill",
    "subschool": "phantasm",
    "types": "evil, mind-affecting",
    "components": {
      "verbal": true,
      "somatic": true
    },
    "shortDescription": "<p>You send a hideous and unsettling phantasmal vision to a specific creature that you name or otherwise specifically designate.</p><p>The <i>nightmare</i> prevents restful sleep and causes 1d10 points of damage. The <i>nightmare</i> leaves the subject fatigued and unable to regain arcane spells for the next 24 hours.</p><p>The difficulty of the save depends on your knowledge the subject and the physical connection (if any) you have to that creature.</p>   <table border ='1'><tr><th>Knowledge</th><th>Will Save Modifier</th></tr><tr><td>None*</td><td>+10</td></tr><tr><td>Secondhand (you have heard of the subject)</td><td>+5</td></tr><tr><td>Firsthand (you have met the subject)</td><td>+0</td></tr><tr><td>Familiar (you know the subject well)</td><td>-5</td></tr><tr><td colspan=\"2\">*You must have some sort of connection to a creature of which you have no knowledge.</td></tr></table>    <table border ='1'><tr><th>Connection</th><th>will Save Modifier</th></tr><tr><td>Likeness or picture</td><td>-2</td></tr><tr><td>Possession or garment</td><td>-4</td></tr><tr><td>Body part, lock of hair, bit of nail, etc.</td><td>-10</td></tr></table>    <i>Dispel evil</i> cast on the subject while you are casting the spell dispels the <i>nightmare</i> and causes you to be stunned for 10 minutes per caster level of the <i>dispel evil</i>.</p><p>If the recipient is awake when the spell begins, you can choose to cease casting (ending the spell) or to enter a trance until the recipient goes to sleep, whereupon you become alert again and complete the casting. If you are disturbed during the trance, you must succeed on a concentration check as if you were in the midst of casting a spell or the spell ends.</p><p>If you choose to enter a trance, you are not aware of your surroundings or the activities around you while in the trance.</p><p>You are defenseless, both physically and mentally, while in the trance. (You always fail Reflex and Will saving throws, for example.) Creatures who don't sleep (such as outsiders) or dream are immune to this spell.</p>"
  }
}
