{
  "_id": "o87h8gjxevcbztgd",
  "name": "Remove Curse",
  "type": "spell",
  "img": "systems/pf1/icons/misc/magic-swirl.png",
  "sort": 0,
  "flags": {},
  "system": {
    "tags": [],
    "actions": [
      {
        "_id": "sbud44b1yrmosuc8",
        "name": "Use",
        "img": "systems/pf1/icons/misc/magic-swirl.png",
        "description": "",
        "tag": "",
        "activation": {
          "cost": 1,
          "type": "standard"
        },
        "unchainedAction": {
          "activation": {
            "cost": 2,
            "type": "action"
          }
        },
        "duration": {
          "value": "instantaneous",
          "units": ""
        },
        "target": {
          "value": "creature or object touched"
        },
        "range": {
          "value": null,
          "units": "touch",
          "maxIncrements": 1,
          "minValue": null,
          "minUnits": ""
        },
        "uses": {
          "autoDeductChargesCost": "",
          "self": {
            "value": 0,
            "maxFormula": "",
            "per": null
          },
          "per": "",
          "value": 0,
          "maxFormula": ""
        },
        "measureTemplate": {
          "type": "",
          "size": "0",
          "overrideColor": false,
          "customColor": "",
          "overrideTexture": false,
          "customTexture": ""
        },
        "attackName": "",
        "actionType": "spellsave",
        "attackBonus": "",
        "critConfirmBonus": "",
        "damage": {
          "parts": [],
          "critParts": [],
          "nonCritParts": []
        },
        "attackParts": [],
        "formulaicAttacks": {
          "count": {
            "formula": ""
          },
          "bonus": {
            "formula": ""
          },
          "label": null
        },
        "formula": "",
        "ability": {
          "attack": "",
          "damage": "",
          "damageMult": 1,
          "critRange": 20,
          "critMult": 2
        },
        "save": {
          "dc": "0",
          "type": "will",
          "description": "Will negates (harmless)"
        },
        "effectNotes": [],
        "attackNotes": [],
        "soundEffect": "",
        "powerAttack": {
          "multiplier": "",
          "damageBonus": 2,
          "critMultiplier": 1
        },
        "naturalAttack": {
          "primaryAttack": true,
          "secondary": {
            "attackBonus": "-5",
            "damageMult": 0.5
          }
        },
        "nonlethal": false,
        "usesAmmo": false,
        "spellEffect": "",
        "spellArea": "",
        "conditionals": [],
        "enh": {
          "value": null
        }
      }
    ],
    "uses": {
      "per": ""
    },
    "attackNotes": [],
    "effectNotes": [],
    "links": {
      "children": []
    },
    "scriptCalls": [],
    "learnedAt": {
      "class": [
        ["sorcerer/wizard", 4],
        ["cleric/oracle", 3],
        ["bard", 3],
        ["paladin", 3],
        ["alchemist", 3],
        ["witch", 3],
        ["inquisitor", 3],
        ["adept", 3],
        ["shaman", 3],
        ["medium", 3],
        ["mesmerist", 3],
        ["spiritualist", 3]
      ],
      "domain": [["Liberation", 3]],
      "subDomain": [],
      "elementalSchool": [],
      "bloodline": [["Celestial", 4]]
    },
    "level": 4,
    "school": "abj",
    "components": {
      "verbal": true,
      "somatic": true
    },
    "shortDescription": "<p><i>Remove <i>curse</i></i> can remove all <i>curse</i>s on an object or a creature. If the target is a creature, you must make a caster level check (1d20 + caster level) against the DC of each <i>curse</i> affecting the target.</p><p>Success means that the <i>curse</i> is removed. <i>Remove <i>curse</i></i> does not remove the <i>curse</i> from a <i>curse</i>d shield, weapon, or suit of armor, although a successful caster level check enables the creature afflicted with any such <i>curse</i>d item to remove and get rid of it.</p><p><i>Remove <i>curse</i></i> counters and dispels bestow <i>curse</i>.</p>"
  }
}
