{
  "_id": "6klw6f8yrhu9z9mn",
  "name": "Secret Page",
  "type": "spell",
  "img": "systems/pf1/icons/misc/magic-swirl.png",
  "sort": 0,
  "flags": {},
  "system": {
    "tags": [],
    "actions": [
      {
        "_id": "d8qeab4rqkvrzogv",
        "name": "Use",
        "img": "systems/pf1/icons/misc/magic-swirl.png",
        "description": "",
        "tag": "",
        "activation": {
          "cost": 10,
          "type": "minute"
        },
        "unchainedAction": {
          "activation": {
            "cost": 10,
            "type": "minute"
          }
        },
        "duration": {
          "value": "permanent",
          "units": ""
        },
        "target": {
          "value": "page touched, up to 3 sq. ft. in size"
        },
        "range": {
          "value": null,
          "units": "touch",
          "maxIncrements": 1,
          "minValue": null,
          "minUnits": ""
        },
        "uses": {
          "autoDeductChargesCost": "",
          "self": {
            "value": 0,
            "maxFormula": "",
            "per": null
          },
          "per": "",
          "value": 0,
          "maxFormula": ""
        },
        "measureTemplate": {
          "type": "",
          "size": "0",
          "overrideColor": false,
          "customColor": "",
          "overrideTexture": false,
          "customTexture": ""
        },
        "attackName": "",
        "actionType": "",
        "attackBonus": "",
        "critConfirmBonus": "",
        "damage": {
          "parts": [],
          "critParts": [],
          "nonCritParts": []
        },
        "attackParts": [],
        "formulaicAttacks": {
          "count": {
            "formula": ""
          },
          "bonus": {
            "formula": ""
          },
          "label": null
        },
        "formula": "",
        "ability": {
          "attack": "",
          "damage": "",
          "damageMult": 1,
          "critRange": 20,
          "critMult": 2
        },
        "save": {
          "dc": "0",
          "type": "",
          "description": ""
        },
        "effectNotes": [],
        "attackNotes": [],
        "soundEffect": "",
        "powerAttack": {
          "multiplier": "",
          "damageBonus": 2,
          "critMultiplier": 1
        },
        "naturalAttack": {
          "primaryAttack": true,
          "secondary": {
            "attackBonus": "-5",
            "damageMult": 0.5
          }
        },
        "nonlethal": false,
        "usesAmmo": false,
        "spellEffect": "",
        "spellArea": "",
        "conditionals": [],
        "enh": {
          "value": null
        }
      }
    ],
    "uses": {
      "per": ""
    },
    "attackNotes": [],
    "effectNotes": [],
    "links": {
      "children": []
    },
    "scriptCalls": [],
    "learnedAt": {
      "class": [
        ["sorcerer/wizard", 3],
        ["bard", 3],
        ["mesmerist", 3],
        ["occultist", 3]
      ],
      "domain": [["Rune", 2]],
      "subDomain": [],
      "elementalSchool": [],
      "bloodline": []
    },
    "level": 3,
    "school": "trs",
    "components": {
      "verbal": true,
      "somatic": true,
      "material": true
    },
    "materials": {
      "value": "powdered herring scales and a vial of will-o'-wisp essence"
    },
    "sr": false,
    "shortDescription": "<p><i>Secret page</i> alters the contents of a <i>page</i> so that it appears to be something entirely different. The text of a spell can be changed to show another spell of equal or lower level known by the caster.</p><p>This spell cannot be used to change a spell contained on a scroll, but it can be used to hide a scroll. <i>Explosive runes</i> or <i>sepia snake sigil</i> can be cast upon the <i>secret page</i>.</p><p>A comprehend languages spell alone cannot reveal a <i>secret page</i>'s contents. You are able to reveal the original contents by speaking a special word. You can then peruse the actual <i>page</i> and return it to its <i>secret page</i> form at will. You can also remove the spell by double repetition of the special word. A <i>detect magic</i> spell reveals dim magic on the <i>page</i> in question but does not reveal its true contents. <i>True seeing</i> reveals the presence of the hidden material but does not reveal the contents unless cast in combination with <i>comprehend languages</i>. A <i>secret page</i> spell can be dispelled, and the hidden writings can be destroyed by means of an <i>erase</i> spell.</p>"
  }
}
