{
  "_id": "56jxdumi2wuf6p6t",
  "name": "Seek Shelter",
  "type": "spell",
  "img": "systems/pf1/icons/misc/magic-swirl.png",
  "sort": 0,
  "flags": {},
  "system": {
    "tags": [],
    "actions": [
      {
        "_id": "0i15aj595l5zn8eq",
        "name": "Use",
        "img": "systems/pf1/icons/misc/magic-swirl.png",
        "description": "",
        "tag": "",
        "activation": {
          "cost": 1,
          "type": "standard"
        },
        "unchainedAction": {
          "activation": {
            "cost": 2,
            "type": "action"
          }
        },
        "duration": {
          "value": "1 hour/level (D)",
          "units": ""
        },
        "target": {
          "value": "all non-hostile creatures with 4 or fewer HD in a 30-ft. spread"
        },
        "range": {
          "value": null,
          "units": "close",
          "maxIncrements": 1,
          "minValue": null,
          "minUnits": ""
        },
        "uses": {
          "autoDeductChargesCost": "",
          "self": {
            "value": 0,
            "maxFormula": "",
            "per": null
          },
          "per": "",
          "value": 0,
          "maxFormula": ""
        },
        "measureTemplate": {
          "type": "",
          "size": "0",
          "overrideColor": false,
          "customColor": "",
          "overrideTexture": false,
          "customTexture": ""
        },
        "attackName": "",
        "actionType": "spellsave",
        "attackBonus": "",
        "critConfirmBonus": "",
        "damage": {
          "parts": [],
          "critParts": [],
          "nonCritParts": []
        },
        "attackParts": [],
        "formulaicAttacks": {
          "count": {
            "formula": ""
          },
          "bonus": {
            "formula": ""
          },
          "label": null
        },
        "formula": "",
        "ability": {
          "attack": "",
          "damage": "",
          "damageMult": 1,
          "critRange": 20,
          "critMult": 2
        },
        "save": {
          "dc": "0",
          "type": "will",
          "description": "Will negates (harmless)"
        },
        "effectNotes": [],
        "attackNotes": [],
        "soundEffect": "",
        "powerAttack": {
          "multiplier": "",
          "damageBonus": 2,
          "critMultiplier": 1
        },
        "naturalAttack": {
          "primaryAttack": true,
          "secondary": {
            "attackBonus": "-5",
            "damageMult": 0.5
          }
        },
        "nonlethal": false,
        "usesAmmo": false,
        "spellEffect": "",
        "spellArea": "",
        "conditionals": [],
        "enh": {
          "value": null
        }
      }
    ],
    "uses": {
      "per": ""
    },
    "attackNotes": [],
    "effectNotes": [],
    "links": {
      "children": []
    },
    "scriptCalls": [],
    "learnedAt": {
      "class": [
        ["sorcerer/wizard", 5],
        ["cleric/oracle", 5],
        ["bard", 4],
        ["summoner", 4],
        ["witch", 5],
        ["inquisitor", 4],
        ["psychic", 5],
        ["mesmerist", 4],
        ["unchained Summoner", 4]
      ],
      "domain": [],
      "subDomain": [],
      "elementalSchool": [],
      "bloodline": []
    },
    "level": 5,
    "school": "enc",
    "subschool": "compulsion",
    "types": "fear, mind-affecting",
    "components": {
      "verbal": true,
      "somatic": true
    },
    "shortDescription": "<p>You send an empathic urge to seek safety both as fast as possible and in an orderly fashion, and to remain in such secure locations for the duration of the spell. <b>Targets</b> with 5 or more Hit Dice are unaffected. When you cast the spell, you can designate a fortified location-either general (such as \"indoors\") or specific (such as \"the local garrison\")-for the targets to attempt to reach. If you do not specify a location for the targets to retreat to, they attempt to find safety to the best of their ability. Affected creatures defend themselves normally but attack only if provoked.</p>"
  }
}
