{
  "_id": "vhxezfop50r7z8zm",
  "name": "Snare",
  "type": "spell",
  "img": "systems/pf1/icons/misc/magic-swirl.png",
  "sort": 0,
  "flags": {},
  "system": {
    "tags": [],
    "actions": [
      {
        "_id": "blwx22rsfmsoxj6b",
        "name": "Use",
        "img": "systems/pf1/icons/misc/magic-swirl.png",
        "description": "",
        "tag": "",
        "activation": {
          "cost": 3,
          "type": "round"
        },
        "unchainedAction": {
          "activation": {
            "cost": 9,
            "type": "action"
          }
        },
        "duration": {
          "value": "Until triggered or broken",
          "units": ""
        },
        "target": {
          "value": "touched nonmagical circle of vine, rope, or thong with a 2 ft. diameter + 2 ft./level"
        },
        "range": {
          "value": null,
          "units": "touch",
          "maxIncrements": 1,
          "minValue": null,
          "minUnits": ""
        },
        "uses": {
          "autoDeductChargesCost": "",
          "self": {
            "value": 0,
            "maxFormula": "",
            "per": null
          },
          "per": "",
          "value": 0,
          "maxFormula": ""
        },
        "measureTemplate": {
          "type": "",
          "size": "0",
          "overrideColor": false,
          "customColor": "",
          "overrideTexture": false,
          "customTexture": ""
        },
        "attackName": "",
        "actionType": "",
        "attackBonus": "",
        "critConfirmBonus": "",
        "damage": {
          "parts": [],
          "critParts": [],
          "nonCritParts": []
        },
        "attackParts": [],
        "formulaicAttacks": {
          "count": {
            "formula": ""
          },
          "bonus": {
            "formula": ""
          },
          "label": null
        },
        "formula": "",
        "ability": {
          "attack": "",
          "damage": "",
          "damageMult": 1,
          "critRange": 20,
          "critMult": 2
        },
        "save": {
          "dc": "0",
          "type": "",
          "description": ""
        },
        "effectNotes": [],
        "attackNotes": [],
        "soundEffect": "",
        "powerAttack": {
          "multiplier": "",
          "damageBonus": 2,
          "critMultiplier": 1
        },
        "naturalAttack": {
          "primaryAttack": true,
          "secondary": {
            "attackBonus": "-5",
            "damageMult": 0.5
          }
        },
        "nonlethal": false,
        "usesAmmo": false,
        "spellEffect": "",
        "spellArea": "",
        "conditionals": [],
        "enh": {
          "value": null
        }
      }
    ],
    "uses": {
      "per": ""
    },
    "attackNotes": [],
    "effectNotes": [],
    "links": {
      "children": []
    },
    "scriptCalls": [],
    "learnedAt": {
      "class": [
        ["druid", 3],
        ["ranger", 2],
        ["hunter", 2]
      ],
      "domain": [],
      "subDomain": [["Trap", 2]],
      "elementalSchool": [],
      "bloodline": []
    },
    "level": 3,
    "school": "trs",
    "components": {
      "verbal": true,
      "somatic": true,
      "divineFocus": 1
    },
    "sr": false,
    "shortDescription": "<p>This spell enables you to make a <i>snare</i> that functions as a magic trap. The <i>snare</i> can be made from any supple vine, a thong, or a rope. When you cast <i>snare</i> upon it, the cordlike object blends with its surroundings (DC 23 Perception check for a character with the trapfinding ability to locate). One end of the <i>snare</i> is tied in a loop that contracts around one or more of the limbs of any creature stepping inside the circle.</p><p>If a strong and supple tree is nearby, the <i>snare</i> can be fastened to it. The spell causes the tree to bend, straightening when the loop is triggered, dealing 1d6 points of damage to the creature trapped and lifting it off the ground by the trapped limb or limbs. If no such tree is available, the cordlike object tightens around the creature, dealing no damage but causing it to be entangled.</p><p>The <i>snare</i> is magical. To escape, a trapped creature must make a DC 23 Escape Artist check or a DC 23 Strength check that is a full-round action. The <i>snare</i> has AC 7 and 5 hit points. A successful escape from the <i>snare</i> breaks the loop and ends the spell.</p>"
  }
}
