{
  "_id": "eucwnai4r3awfl5m",
  "name": "Suppress Primal Magic",
  "type": "spell",
  "img": "systems/pf1/icons/misc/magic-swirl.png",
  "sort": 0,
  "flags": {},
  "system": {
    "tags": [],
    "actions": [
      {
        "_id": "2wwul6cyp9vyev3z",
        "name": "Use",
        "img": "systems/pf1/icons/misc/magic-swirl.png",
        "description": "",
        "tag": "",
        "activation": {
          "cost": 1,
          "type": "standard"
        },
        "unchainedAction": {
          "activation": {
            "cost": 2,
            "type": "action"
          }
        },
        "duration": {
          "value": "1 round/level",
          "units": ""
        },
        "target": {
          "value": ""
        },
        "range": {
          "value": "10",
          "units": "ft",
          "maxIncrements": 1,
          "minValue": null,
          "minUnits": ""
        },
        "uses": {
          "autoDeductChargesCost": "",
          "self": {
            "value": 0,
            "maxFormula": "",
            "per": null
          },
          "per": "",
          "value": 0,
          "maxFormula": ""
        },
        "measureTemplate": {
          "type": "",
          "size": "0",
          "overrideColor": false,
          "customColor": "",
          "overrideTexture": false,
          "customTexture": ""
        },
        "attackName": "",
        "actionType": "",
        "attackBonus": "",
        "critConfirmBonus": "",
        "damage": {
          "parts": [],
          "critParts": [],
          "nonCritParts": []
        },
        "attackParts": [],
        "formulaicAttacks": {
          "count": {
            "formula": ""
          },
          "bonus": {
            "formula": ""
          },
          "label": null
        },
        "formula": "",
        "ability": {
          "attack": "",
          "damage": "",
          "damageMult": 1,
          "critRange": 20,
          "critMult": 2
        },
        "save": {
          "dc": "0",
          "type": "",
          "description": ""
        },
        "effectNotes": [],
        "attackNotes": [],
        "soundEffect": "",
        "powerAttack": {
          "multiplier": "",
          "damageBonus": 2,
          "critMultiplier": 1
        },
        "naturalAttack": {
          "primaryAttack": true,
          "secondary": {
            "attackBonus": "-5",
            "damageMult": 0.5
          }
        },
        "nonlethal": false,
        "usesAmmo": false,
        "spellEffect": "",
        "spellArea": "10-ft.-radius emanation centered on you",
        "conditionals": [],
        "enh": {
          "value": null
        }
      }
    ],
    "uses": {
      "per": ""
    },
    "attackNotes": [],
    "effectNotes": [],
    "links": {
      "children": []
    },
    "scriptCalls": [],
    "learnedAt": {
      "class": [
        ["sorcerer/wizard", 4],
        ["cleric/oracle", 4]
      ],
      "domain": [],
      "subDomain": [],
      "elementalSchool": [],
      "bloodline": []
    },
    "level": 4,
    "school": "abj",
    "components": {
      "verbal": true,
      "somatic": true,
      "material": true
    },
    "materials": {
      "value": "a pinch of sand from the Spellscar Desert"
    },
    "sr": false,
    "shortDescription": "<p>Nexian wizards first created this spell while researching the nature of the Mana Wastes, hoping to create small zones within the magic-starved region where their own spells could still function reliably. The best the Nexians could manage was this spell-a method to temporarily stabilize magic so that spellcasting within a small area can be accomplished without fear of triggering primal magic events. In the area of effect of this spell, primal magic events cannot be triggered.</p><p>The emanation grants a +4 circumstance bonus on all saving throws against effects generated by primal magic outside of the spell's effect that expand into the area.</p><p>Unfortunately, suppressed primal magic tends to build up around the emanation created by this spell. When <i>suppress primal magic</i>'s duration ends (or when the spell is dispelled), a primal magic event is immediately triggered at the center of the emanation if that point is still in an area where primal magic is active. The CR of this event is equal to the caster level of the recently ended <i>suppress primal magic</i> spell. The original caster of the <i>suppress primal magic</i> spell can attempt to negate this triggered primal magic event by making a DC 20 Will save-most spellcasters instead relocate to an area not affected by primal magic if they can so that they can end the spell's effect safely.</p>"
  }
}
