{
  "_id": "1u9bbze5lx7hhbmf",
  "name": "Unlock Flesh",
  "type": "spell",
  "img": "systems/pf1/icons/misc/magic-swirl.png",
  "sort": 0,
  "flags": {},
  "system": {
    "tags": [],
    "actions": [
      {
        "_id": "gn9scy3h57poe0vk",
        "name": "Use",
        "img": "systems/pf1/icons/misc/magic-swirl.png",
        "description": "",
        "tag": "",
        "activation": {
          "cost": 1,
          "type": "standard"
        },
        "unchainedAction": {
          "activation": {
            "cost": 2,
            "type": "action"
          }
        },
        "duration": {
          "value": "1 round/level (living target) or instantaneous (undead target); see below",
          "units": ""
        },
        "target": {
          "value": ""
        },
        "range": {
          "value": null,
          "units": "touch",
          "maxIncrements": 1,
          "minValue": null,
          "minUnits": ""
        },
        "uses": {
          "autoDeductChargesCost": "",
          "self": {
            "value": 0,
            "maxFormula": "",
            "per": null
          },
          "per": "",
          "value": 0,
          "maxFormula": ""
        },
        "measureTemplate": {
          "type": "",
          "size": "0",
          "overrideColor": false,
          "customColor": "",
          "overrideTexture": false,
          "customTexture": ""
        },
        "attackName": "",
        "actionType": "spellsave",
        "attackBonus": "",
        "critConfirmBonus": "",
        "damage": {
          "parts": [],
          "critParts": [],
          "nonCritParts": []
        },
        "attackParts": [],
        "formulaicAttacks": {
          "count": {
            "formula": ""
          },
          "bonus": {
            "formula": ""
          },
          "label": null
        },
        "formula": "",
        "ability": {
          "attack": "",
          "damage": "",
          "damageMult": 1,
          "critRange": 20,
          "critMult": 2
        },
        "save": {
          "dc": "0",
          "type": "fort",
          "description": "Fort negates"
        },
        "effectNotes": [],
        "attackNotes": [],
        "soundEffect": "",
        "powerAttack": {
          "multiplier": "",
          "damageBonus": 2,
          "critMultiplier": 1
        },
        "naturalAttack": {
          "primaryAttack": true,
          "secondary": {
            "attackBonus": "-5",
            "damageMult": 0.5
          }
        },
        "nonlethal": false,
        "usesAmmo": false,
        "spellEffect": "",
        "spellArea": "creature touched",
        "conditionals": [],
        "enh": {
          "value": null
        }
      }
    ],
    "uses": {
      "per": ""
    },
    "attackNotes": [],
    "effectNotes": [],
    "links": {
      "children": []
    },
    "scriptCalls": [],
    "learnedAt": {
      "class": [
        ["sorcerer/wizard", 1],
        ["witch", 1]
      ],
      "domain": [],
      "subDomain": [],
      "elementalSchool": [],
      "bloodline": []
    },
    "school": "nec",
    "components": {
      "verbal": true,
      "somatic": true,
      "focus": true
    },
    "materials": {
      "focus": "any slashing weapon or cutting tool"
    },
    "shortDescription": "<p>By touching a creature with a bladed instrument, you cause the creature's flesh to loosen and slide against its skeletal moorings. A living creature touched becomes staggered by the disturbing and uncomfortable sensation for 1 round per level. Each round on its turn, the subject can attempt a new saving throw to end the effect. This is a standard action that does not provoke attacks of opportunity. A corporeal undead creature targeted by this spell instead takes 1d6 points of damage per caster level (maximum 5d6 at 5th level) as wet, oozing chunks of flesh slough off its desiccated bones (a successful Fortitude save halves this damage). Incorporeal creatures, or creatures that do not have flesh, are immune to this spell's effects.</p>"
  }
}
