{
  "_id": "czpo53hv7fwoqd24",
  "name": "What Grows Within",
  "type": "spell",
  "img": "systems/pf1/icons/misc/magic-swirl.png",
  "sort": 0,
  "flags": {},
  "system": {
    "tags": [],
    "actions": [
      {
        "_id": "hbxqjf2gif6i5fy6",
        "name": "Use",
        "img": "systems/pf1/icons/misc/magic-swirl.png",
        "description": "",
        "tag": "",
        "activation": {
          "cost": 1,
          "type": "swift"
        },
        "unchainedAction": {
          "activation": {
            "cost": 1,
            "type": "action"
          }
        },
        "duration": {
          "value": "1 round/level",
          "units": ""
        },
        "target": {
          "value": ""
        },
        "range": {
          "value": null,
          "units": "personal",
          "maxIncrements": 1,
          "minValue": null,
          "minUnits": ""
        },
        "uses": {
          "autoDeductChargesCost": "",
          "self": {
            "value": 0,
            "maxFormula": "",
            "per": null
          },
          "per": "",
          "value": 0,
          "maxFormula": ""
        },
        "measureTemplate": {
          "type": "",
          "size": "0",
          "overrideColor": false,
          "customColor": "",
          "overrideTexture": false,
          "customTexture": ""
        },
        "attackName": "",
        "actionType": "spellsave",
        "attackBonus": "",
        "critConfirmBonus": "",
        "damage": {
          "parts": [],
          "critParts": [],
          "nonCritParts": []
        },
        "attackParts": [],
        "formulaicAttacks": {
          "count": {
            "formula": ""
          },
          "bonus": {
            "formula": ""
          },
          "label": null
        },
        "formula": "",
        "ability": {
          "attack": "",
          "damage": "",
          "damageMult": 1,
          "critRange": 20,
          "critMult": 2
        },
        "save": {
          "dc": "0",
          "type": "",
          "description": "see text"
        },
        "effectNotes": [],
        "attackNotes": [],
        "soundEffect": "",
        "powerAttack": {
          "multiplier": "",
          "damageBonus": 2,
          "critMultiplier": 1
        },
        "naturalAttack": {
          "primaryAttack": true,
          "secondary": {
            "attackBonus": "-5",
            "damageMult": 0.5
          }
        },
        "nonlethal": false,
        "usesAmmo": false,
        "spellEffect": "you",
        "spellArea": "",
        "conditionals": [],
        "enh": {
          "value": null
        }
      }
    ],
    "uses": {
      "per": ""
    },
    "attackNotes": [],
    "effectNotes": [],
    "links": {
      "children": []
    },
    "scriptCalls": [],
    "learnedAt": {
      "class": [
        ["sorcerer/wizard", 6],
        ["cleric/oracle", 6],
        ["druid", 6],
        ["bard", 6],
        ["witch", 6],
        ["psychic", 6],
        ["mesmerist", 6],
        ["hunter", 6]
      ],
      "domain": [],
      "subDomain": [],
      "elementalSchool": [],
      "bloodline": []
    },
    "level": 6,
    "school": "nec",
    "types": "evil",
    "components": {
      "verbal": true
    },
    "sr": false,
    "shortDescription": "<p>By speaking the name \"Xhamen-Dor,\" you infuse yourself with the essence of the Inmost Blot and gain a +3 profane bonus on Will saving throws for the spell's duration. When you prepare <i>what grows within</i> for the first time, or the first time you use it via a spell-completion or spell-trigger item, you can thereafter be targeted by Xhamen-Dor's infected dreams ability (see page 86). As long as you are under the <i>effect</i>s of <i>what grows within</i>, your mind-affecting spells carry this supernatural taint within them and can infect those who succumb to those <i>effect</i>s. Whenever you successfully affect a creature with one of your mind-affecting spells (this requires the target to fail its saving throw against the spell if the spell allows a save, but automatically affects a target if the spell does not allow a saving throw), that target must also succeed at a Fortitude saving throw against <i>what grows within</i> or it immediately becomes afflicted by a lesser version of Xhamen-Dor's seeded infestation. This infestation does not expose the victim to Xhamen-Dor's infectious dreams, but it can ultimately  result in that creature's transformation into one of the seeded. Each time you affect a creature with <i>what grows within</i> in this manner, the remaining duration of <i>what grows within</i> is reduced by 1 round. If you affect multiple creatures in a round, you choose the order in which they must save against the <i>effect</i>s of <i>what grows within</i>, and reduce the spell's remaining duration by 1 round each time one of them is affected by the infestation.  Lesser Seeded Infestation-save Fortitude DC = spell's save DC; <i>onset</i> immediate; <i>frequency</i> 1/day; <i>effect</i> 1d4 Constitution drain; <i>cure</i> none. This infestation can be <i>cure</i>d by magic alone. A creature whose Constitution is reduced to 0 by this infestation dies and rises from death in 1d4 rounds as a seeded creature (see page 90). This is an infestation <i>effect</i>.</p>"
  }
}
