{
  "_id": "j9B52zPw8AwNqYsk",
  "name": "Aristocrat",
  "type": "class",
  "img": "systems/pf1/icons/items/inventory/chalice-gems.jpg",
  "sort": 100001,
  "flags": {},
  "system": {
    "description": {
      "value": "<p><strong>Alignment:</strong> Any.</p>\n<p><strong>Hit Die</strong>: d8.</p>\n<h2><span id=\"Class_Skills\">Class Skills</span></h2>\n<p>The aristocrat’s class skills (and the key ability for each skill) are <em>Appraise</em>&nbsp;(<em>Int</em>), <em>Bluff</em>&nbsp;(<em>Cha</em>), <em>Craft</em>&nbsp;(<em>Int</em>), <em>Diplomacy</em>&nbsp;(<em>Cha</em>), <em>Disguise</em>&nbsp;(<em>Cha</em>), <em>Handle Animal</em>&nbsp;(<em>Cha</em>), <em>Intimidate</em>&nbsp;(<em>Cha</em>), <em>Knowledge</em>&nbsp;(all skills taken individually) (<em>Int</em>), <em>Linguistics</em>&nbsp;(<em>Int</em>), <em>Perception</em>&nbsp;(<em>Wis</em>), <em>Perform</em>&nbsp;(<em>Cha</em>), <em>Profession</em>&nbsp;(<em>Wis</em>), <em>Ride</em>&nbsp;(<em>Dex</em>), <em>Sense Motive</em>&nbsp;(<em>Wis</em>), <em>Swim</em>&nbsp;(<em>Str</em>), and <em>Survival</em>&nbsp;(<em>Wis</em>).</p>\n<p><strong>Skill Ranks per Level</strong>: 4 +&nbsp;<em>Int</em>&nbsp;modifier.</p>"
    },
    "tags": [],
    "changes": [],
    "links": {
      "children": [],
      "classAssociations": []
    },
    "tag": "aristocrat",
    "useCustomTag": true,
    "armorProf": {
      "value": ["lgt", "med", "hvy", "shl", "twr"]
    },
    "weaponProf": {
      "value": ["sim", "mar"]
    },
    "languages": {
      "value": []
    },
    "scriptCalls": [],
    "subType": "npc",
    "bab": "med",
    "skillsPerLevel": 4,
    "savingThrows": {
      "will": {
        "value": "high"
      }
    },
    "classSkills": {
      "apr": true,
      "acr": false,
      "art": true,
      "blf": true,
      "clm": false,
      "crf": true,
      "dip": true,
      "dev": false,
      "dis": true,
      "esc": false,
      "fly": false,
      "han": true,
      "hea": false,
      "int": true,
      "kar": true,
      "kdu": true,
      "ken": true,
      "kge": true,
      "khi": true,
      "klo": true,
      "kna": true,
      "kno": true,
      "kpl": true,
      "kre": true,
      "lin": true,
      "lor": true,
      "per": true,
      "prf": true,
      "pro": true,
      "rid": true,
      "sen": true,
      "slt": false,
      "spl": false,
      "ste": false,
      "sur": true,
      "swm": true,
      "umd": false
    }
  }
}
