{
  "_id": "g3pq7xWWdUVYw6ai",
  "name": "Barbarian",
  "type": "class",
  "img": "systems/pf1/icons/items/weapons/greataxe.png",
  "sort": 0,
  "flags": {},
  "system": {
    "description": {
      "value": "<p>For some, there is only rage. In the ways of their people, in the fury of their passion, in the howl of battle, conflict is all these brutal souls know. Savages, hired muscle, masters of vicious martial techniques, they are not soldiers or professional warriors—they are the battle possessed, creatures of slaughter and spirits of war. Known as barbarians, these warmongers know little of training, preparation, or the rules of warfare; for them, only the moment exists, with the foes that stand before them and the knowledge that the next moment might hold their death. They possess a sixth sense in regard to danger and the endurance to weather all that might entail. These brutal warriors might rise from all walks of life, both civilized and savage, though whole societies embracing such philosophies roam the wild places of the world. Within barbarians storms the primal spirit of battle, and woe to those who face their rage.</p>\n<p><strong>Role</strong>: Barbarians excel in combat, possessing the martial prowess and fortitude to take on foes seemingly far superior to themselves. With rage granting them boldness and daring beyond that of most other warriors, barbarians charge furiously into battle and ruin all who would stand in their way.</p>\n<p><strong>Alignment</strong>: Any non-lawful</p>\n<p><strong>Hit Die</strong>: d12</p>\n<p><strong>Starting Wealth</strong>: 3d6 × 10 gp (average 105gp.) In addition, each character begins play with an outfit worth 10 gp or less.</p>\n<h3><strong><span id=\"Class_Skills\">Class Skills</span></strong></h3>\n<p>The barbarian’s class skills are&nbsp;<em>Acrobatics</em>&nbsp;(<em>Dex</em>),&nbsp;<em>Climb</em>&nbsp;(<em>Str</em>),&nbsp;<em>Craft</em>&nbsp;(<em>Int</em>),&nbsp;<em>Handle Animal</em>&nbsp;(<em>Cha</em>),&nbsp;<em>Intimidate</em>&nbsp;(<em>Cha</em>),&nbsp;<em>Knowledge</em>&nbsp;(nature) (<em>Int</em>),&nbsp;<em>Perception</em>&nbsp;(<em>Wis</em>),&nbsp;<em>Ride</em>&nbsp;(<em>Dex</em>),&nbsp;<em>Survival</em>&nbsp;(<em>Wis</em>), and&nbsp;<em>Swim</em>&nbsp;(<em>Str</em>).</p>\n<p><strong>Skill Ranks Per Level</strong>: 4 +&nbsp;<em>Int</em>&nbsp;modifier.</p>\n<div>\n<div>&nbsp;</div>\n</div>"
    },
    "tags": [],
    "changes": [],
    "links": {
      "children": [],
      "classAssociations": [
        {
          "id": "pf1.class-abilities.WSqWT9ZIshtC5vlV",
          "dataType": "compendium",
          "name": "Rage",
          "img": "systems/pf1/icons/feats/extra-rage.jpg",
          "level": 1,
          "_index": 0
        },
        {
          "id": "pf1.class-abilities.9EX00obqhGHcrOdp",
          "dataType": "compendium",
          "name": "Fast Movement (BAR)",
          "img": "systems/pf1/icons/skills/armor_01.jpg",
          "level": 1,
          "_index": 1
        },
        {
          "id": "pf1.class-abilities.0v0NLj0tuVAu2Cla",
          "dataType": "compendium",
          "name": "Mighty Rage",
          "img": "systems/pf1/icons/feats/extra-rage.jpg",
          "level": 20,
          "_index": 2
        },
        {
          "id": "pf1.class-abilities.aYdjgDZJCNvKpLQP",
          "dataType": "compendium",
          "name": "Tireless Rage",
          "img": "systems/pf1/icons/feats/improved-iron-will.jpg",
          "level": 16,
          "_index": 3
        },
        {
          "id": "pf1.class-abilities.Q3x319WbNkCssApD",
          "dataType": "compendium",
          "name": "Indomitable Will",
          "img": "systems/pf1/icons/feats/athletic.jpg",
          "level": 14,
          "_index": 4
        },
        {
          "id": "pf1.class-abilities.IWNz5tJCnpig4UtX",
          "dataType": "compendium",
          "name": "Greater Rage",
          "img": "systems/pf1/icons/feats/extra-rage.jpg",
          "level": 11,
          "_index": 5
        },
        {
          "id": "pf1.class-abilities.ZfnHhhTFQVo0Lj4P",
          "dataType": "compendium",
          "name": "Improved Uncanny Dodge",
          "img": "systems/pf1/icons/feats/wind-stance.jpg",
          "level": 5,
          "_index": 6
        },
        {
          "id": "pf1.class-abilities.7WaQxnVaaoL4AGr8",
          "dataType": "compendium",
          "name": "Uncanny Dodge",
          "img": "systems/pf1/icons/feats/wind-stance.jpg",
          "level": 2,
          "_index": 7
        },
        {
          "id": "pf1.class-abilities.HdzsFdoGauXFjU2S",
          "dataType": "compendium",
          "name": "Rage Powers",
          "img": "systems/pf1/icons/feats/intimidating-prowess.jpg",
          "level": 2,
          "_index": 8
        },
        {
          "id": "pf1.class-abilities.RENIeTVjWB7Mq6Mw",
          "dataType": "compendium",
          "name": "Damage Reduction",
          "img": "systems/pf1/icons/items/armor/shield-light-metal.png",
          "level": 7,
          "_index": 9
        },
        {
          "id": "pf1.class-abilities.fb00TzBa32sSisGb",
          "dataType": "compendium",
          "name": "Trap Sense (BAR)",
          "img": "systems/pf1/icons/items/inventory/hook-hand.jpg",
          "level": 3,
          "_index": 10
        }
      ]
    },
    "tag": "barbarian",
    "useCustomTag": true,
    "armorProf": {
      "value": ["lgt", "med", "shl"]
    },
    "weaponProf": {
      "value": ["sim", "mar"]
    },
    "languages": {
      "value": []
    },
    "scriptCalls": [],
    "hd": 12,
    "hp": 12,
    "bab": "high",
    "skillsPerLevel": 4,
    "savingThrows": {
      "fort": {
        "value": "high"
      }
    },
    "classSkills": {
      "acr": true,
      "apr": false,
      "art": true,
      "blf": false,
      "clm": true,
      "crf": true,
      "dip": false,
      "dev": false,
      "dis": false,
      "esc": false,
      "fly": false,
      "han": true,
      "hea": false,
      "int": true,
      "kar": false,
      "kdu": false,
      "ken": false,
      "kge": false,
      "khi": false,
      "klo": false,
      "kna": true,
      "kno": false,
      "kpl": false,
      "kre": false,
      "lin": false,
      "lor": true,
      "per": true,
      "prf": false,
      "pro": false,
      "rid": true,
      "sen": false,
      "slt": false,
      "spl": false,
      "ste": false,
      "sur": true,
      "swm": true,
      "umd": false
    }
  }
}
