{
  "_id": "Q3rbWILULpQfpjjZ",
  "name": "Swashbuckler",
  "type": "class",
  "img": "icons/equipment/head/hat-tricorn-brown.webp",
  "sort": 0,
  "flags": {},
  "system": {
    "description": {
      "value": "<p>Whereas many warriors brave battle encased in suits of armor and wielding large and powerful weapons, swashbucklers rely on speed, agility, and panache. Swashbucklers dart in and out of the fray, wearing down opponents with lunges and feints, all while foiling the powerful attacks against them with a flick of the wrist and a flash of the blade. Their deft parries and fatal ripostes are carnage elevated to an art form. Some may be arrogant and devil-may-care, but behind this veneer lie people deeply dedicated to their craft. Those of smaller races are particularly driven to prove that the right mix of discipline and daring is the perfect counter to size and strength, and enjoy nothing more than taking down lumbering brutes and bullies.</p>\n<p><strong>Role</strong>: Combining fancy footwork with quick and precise lunges, swashbucklers dart in and out of battle, harassing and thwarting their opponents. These fast and agile combatants serve as protectors for spellcasters and flank mates for rogues and slayers, while waiting for the opportunity to show panache and score the killing blow on some lumbering hulk. Swashbucklers often face death with wry humor, mocking it with jabbing wit.</p>\n<p><strong>Alignment</strong>: Any.</p>\n<p><strong>Hit Die</strong>: d10.</p>\n<p><strong>Parent Classes</strong>:&nbsp;<em>Fighter</em>&nbsp;and&nbsp;<em>gunslinger</em>.</p>\n<p><strong>Starting Wealth</strong>: 5d6 × 10 gp (average 175 gp.) In addition, each character begins play with an outfit worth 10 gp or less.</p>\n<h2><span id=\"Class_Skills\">Class Skills</span></h2>\n<p>The swashbuckler’s class skills are <em>Acrobatics</em>&nbsp;(<em>Dex</em>), <em>Bluff</em>&nbsp;(<em>Cha</em>), <em>Climb</em>&nbsp;(<em>Str</em>), <em>Craft</em>&nbsp;(<em>Int</em>), <em>Diplomacy</em>&nbsp;(<em>Cha</em>), <em>Escape Artist</em>&nbsp;(<em>Dex</em>), <em>Intimidate</em>&nbsp;(<em>Cha</em>), <em>Knowledge</em>&nbsp;(local) (<em>Int</em>), <em>Knowledge</em>&nbsp;(nobility) (<em>Int</em>), <em>Perception</em>&nbsp;(<em>Wis</em>), <em>Perform</em>&nbsp;(<em>Cha</em>), <em>Profession</em>&nbsp;(<em>Wis</em>), <em>Ride</em>&nbsp;(<em>Dex</em>), <em>Sense Motive</em>&nbsp;(<em>Wis</em>), <em>Sleight of Hand</em>&nbsp;(<em>Dex</em>), and <em>Swim</em>&nbsp;(<em>Str</em>).</p>\n<p><strong>Skill Ranks per Level</strong>: 4 +&nbsp;<em>Int</em> modifier.</p>"
    },
    "tags": [],
    "changes": [],
    "links": {
      "children": [],
      "classAssociations": [
        {
          "id": "pf1.class-abilities.Drj7Yp0Ymke4lFZb",
          "dataType": "compendium",
          "name": "Swashbuckler Deeds",
          "img": "systems/pf1/icons/skills/shadow_13.jpg",
          "level": 1,
          "_index": 0
        },
        {
          "id": "pf1.class-abilities.LPAbzynGlOwYcGx7",
          "dataType": "compendium",
          "name": "Panache",
          "img": "systems/pf1/icons/skills/blue_10.jpg",
          "level": 1,
          "_index": 1
        },
        {
          "id": "pf1.class-abilities.0gO5orp5nly2nFjy",
          "dataType": "compendium",
          "name": "Swashbuckler Finesse",
          "img": "systems/pf1/icons/skills/fire_13.jpg",
          "level": 1,
          "_index": 2
        },
        {
          "id": "pf1.class-abilities.etOoJgoeaBRenCir",
          "dataType": "compendium",
          "name": "Charmed Life",
          "img": "systems/pf1/icons/skills/light_07.jpg",
          "level": 2,
          "_index": 3
        },
        {
          "id": "pf1.class-abilities.H9Rq9os7iM27l8Gt",
          "dataType": "compendium",
          "name": "Nimble (SWA)",
          "img": "systems/pf1/icons/skills/armor_01.jpg",
          "level": 3,
          "_index": 4
        },
        {
          "id": "pf1.class-abilities.qzrYai2tj5Ehg6Um",
          "dataType": "compendium",
          "name": "Bonus Feats (SWA)",
          "img": "systems/pf1/icons/skills/affliction_18.jpg",
          "level": 4,
          "_index": 5
        },
        {
          "id": "pf1.class-abilities.dfTaltqK6RlSaLVt",
          "dataType": "compendium",
          "name": "Swashbuckler Weapon Training",
          "img": "systems/pf1/icons/skills/weapon_31.jpg",
          "level": 5,
          "_index": 6
        },
        {
          "id": "pf1.class-abilities.B3dtGKuSpRGfU96T",
          "dataType": "compendium",
          "name": "Swashbuckler Weapon Mastery",
          "img": "systems/pf1/icons/skills/weapon_29.jpg",
          "level": 20,
          "_index": 7
        }
      ]
    },
    "tag": "swashbuckler",
    "useCustomTag": true,
    "armorProf": {
      "value": ["lgt"],
      "custom": "Buckler"
    },
    "weaponProf": {
      "value": ["sim", "mar"]
    },
    "languages": {
      "value": []
    },
    "scriptCalls": [],
    "hd": 10,
    "hp": 10,
    "bab": "high",
    "skillsPerLevel": 4,
    "savingThrows": {
      "ref": {
        "value": "high"
      }
    },
    "classSkills": {
      "acr": true,
      "apr": false,
      "art": true,
      "blf": true,
      "clm": true,
      "crf": true,
      "dip": true,
      "dev": false,
      "dis": false,
      "esc": true,
      "fly": false,
      "han": false,
      "hea": false,
      "int": true,
      "kar": false,
      "kdu": false,
      "ken": false,
      "kge": false,
      "khi": false,
      "klo": true,
      "kna": false,
      "kno": true,
      "kpl": false,
      "kre": false,
      "lin": false,
      "lor": true,
      "per": true,
      "prf": true,
      "pro": true,
      "rid": true,
      "sen": true,
      "slt": true,
      "spl": false,
      "ste": false,
      "sur": false,
      "swm": true,
      "umd": false
    }
  }
}
